\relax 
\providecommand\hyper@newdestlabel[2]{}
\catcode `:\active 
\catcode `;\active 
\catcode `!\active 
\catcode `?\active 
\providecommand\HyperFirstAtBeginDocument{\AtBeginDocument}
\HyperFirstAtBeginDocument{\ifx\hyper@anchor\@undefined
\global\let\oldcontentsline\contentsline
\gdef\contentsline#1#2#3#4{\oldcontentsline{#1}{#2}{#3}}
\global\let\oldnewlabel\newlabel
\gdef\newlabel#1#2{\newlabelxx{#1}#2}
\gdef\newlabelxx#1#2#3#4#5#6{\oldnewlabel{#1}{{#2}{#3}}}
\AtEndDocument{\ifx\hyper@anchor\@undefined
\let\contentsline\oldcontentsline
\let\newlabel\oldnewlabel
\fi}
\fi}
\global\let\hyper@last\relax 
\gdef\HyperFirstAtBeginDocument#1{#1}
\providecommand\HyField@AuxAddToFields[1]{}
\providecommand\HyField@AuxAddToCoFields[2]{}
\select@language{french}
\@writefile{toc}{\select@language{french}}
\@writefile{lof}{\select@language{french}}
\@writefile{lot}{\select@language{french}}
\@writefile{toc}{\contentsline {section}{Plan et trajet du Falconus}{v}{figure.caption.2}}
\@writefile{toc}{\contentsline {section}{Liste des personnages}{ix}{section*.5}}
\newlabel{liste-des-personnages}{{}{ix}{}{section*.5}{}}
\@writefile{toc}{\contentsline {chapter}{\numberline {1}Prologue}{1}{chapter.0.1}}
\@writefile{lof}{\addvspace {10\p@ }}
\@writefile{lot}{\addvspace {10\p@ }}
\newlabel{prologue}{{1}{1}{Prologue}{chapter.0.1}{}}
\@writefile{toc}{\contentsline {section}{\numberline {1.1}Monast\IeC {\`e}re b\IeC {\'e}n\IeC {\'e}dictin de la Charit\IeC {\'e}-sur-Loire, hiver 1223}{1}{section.0.1.1}}
\newlabel{monastuxe8re-buxe9nuxe9dictin-de-la-charituxe9-sur-loire-hiver-1223}{{1.1}{1}{Monastère bénédictin de la Charité-sur-Loire, hiver 1223}{section.0.1.1}{}}
\@writefile{toc}{\contentsline {chapter}{\numberline {2}~Chapitre 1}{5}{chapter.0.2}}
\@writefile{lof}{\addvspace {10\p@ }}
\@writefile{lot}{\addvspace {10\p@ }}
\newlabel{chapitre-1}{{2}{5}{~Chapitre 1}{chapter.0.2}{}}
\@writefile{toc}{\contentsline {section}{\numberline {2.1}G\IeC {\^e}nes, soir d'orage, \IeC {\'e}t\IeC {\'e}~1156}{5}{section.0.2.1}}
\newlabel{guxeanes-soir-dorage-uxe9tuxe91156}{{2.1}{5}{Gênes, soir d'orage, été~1156}{section.0.2.1}{}}
\@writefile{toc}{\contentsline {section}{\numberline {2.2}G\IeC {\^e}nes, matin du 31 ao\IeC {\^u}t 1156}{8}{section.0.2.2}}
\newlabel{guxeanes-matin-du-31-aouxfbt-1156}{{2.2}{8}{Gênes, matin du 31 août 1156}{section.0.2.2}{}}
\@writefile{toc}{\contentsline {section}{\numberline {2.3}G\IeC {\^e}nes, apr\IeC {\`e}s-midi du 31 ao\IeC {\^u}t}{13}{section.0.2.3}}
\newlabel{guxeanes-apruxe8s-midi-du-31-aouxfbt}{{2.3}{13}{Gênes, après-midi du 31 août}{section.0.2.3}{}}
\@writefile{toc}{\contentsline {section}{\numberline {2.4}G\IeC {\^e}nes, d\IeC {\'e}but de soir\IeC {\'e}e du 1\textsuperscript  {er} septembre}{17}{section.0.2.4}}
\newlabel{guxeanes-duxe9but-de-soiruxe9e-du-1er-septembre}{{2.4}{17}{Gênes, début de soirée du 1\textsuperscript {er} septembre}{section.0.2.4}{}}
\@writefile{toc}{\contentsline {section}{\numberline {2.5}G\IeC {\^e}nes, soir\IeC {\'e}e du 1\textsuperscript  {er} septembre}{24}{section.0.2.5}}
\newlabel{guxeanes-soiruxe9e-du-1er-septembre}{{2.5}{24}{Gênes, soirée du 1\textsuperscript {er} septembre}{section.0.2.5}{}}
\@writefile{toc}{\contentsline {section}{\numberline {2.6}C\IeC {\^o}te ligurienne, matin du 2 septembre}{28}{section.0.2.6}}
\newlabel{cuxf4te-ligurienne-matin-du-2-septembre}{{2.6}{28}{Côte ligurienne, matin du 2 septembre}{section.0.2.6}{}}
\@writefile{toc}{\contentsline {section}{\numberline {2.7}C\IeC {\^o}te toscane, matin du 3 septembre}{31}{section.0.2.7}}
\newlabel{cuxf4te-toscane-matin-du-3-septembre}{{2.7}{31}{Côte toscane, matin du 3 septembre}{section.0.2.7}{}}
\@writefile{toc}{\contentsline {section}{\numberline {2.8}C\IeC {\^o}te du Latium, apr\IeC {\`e}s-midi du 5 septembre}{34}{section.0.2.8}}
\newlabel{cuxf4te-du-latium-apruxe8s-midi-du-5-septembre}{{2.8}{34}{Côte du Latium, après-midi du 5 septembre}{section.0.2.8}{}}
\@writefile{toc}{\contentsline {chapter}{\numberline {3}Chapitre 2}{39}{chapter.0.3}}
\@writefile{lof}{\addvspace {10\p@ }}
\@writefile{lot}{\addvspace {10\p@ }}
\newlabel{chapitre-2}{{3}{39}{Chapitre 2}{chapter.0.3}{}}
\@writefile{toc}{\contentsline {section}{\numberline {3.1}Port romain d'Ostie, soir du 6 septembre}{39}{section.0.3.1}}
\newlabel{port-romain-dostie-soir-du-6-septembre}{{3.1}{39}{Port romain d'Ostie, soir du 6 septembre}{section.0.3.1}{}}
\@writefile{toc}{\contentsline {section}{\numberline {3.2}C\IeC {\^o}te du Latium, journ\IeC {\'e}e du 8 septembre}{42}{section.0.3.2}}
\newlabel{cuxf4te-du-latium-journuxe9e-du-8-septembre}{{3.2}{42}{Côte du Latium, journée du 8 septembre}{section.0.3.2}{}}
\@writefile{toc}{\contentsline {section}{\numberline {3.3}C\IeC {\^o}te campanienne, fin d'apr\IeC {\`e}s-midi du 8 septembre}{46}{section.0.3.3}}
\newlabel{cuxf4te-campanienne-fin-dapruxe8s-midi-du-8-septembre}{{3.3}{46}{Côte campanienne, fin d'après-midi du 8 septembre}{section.0.3.3}{}}
\@writefile{toc}{\contentsline {section}{\numberline {3.4}C\IeC {\^o}te campanienne, soir\IeC {\'e}e du 9 septembre}{51}{section.0.3.4}}
\newlabel{cuxf4te-campanienne-soiruxe9e-du-9-septembre}{{3.4}{51}{Côte campanienne, soirée du 9 septembre}{section.0.3.4}{}}
\@writefile{toc}{\contentsline {section}{\numberline {3.5}Baie de Naples, soir du 10 septembre}{55}{section.0.3.5}}
\newlabel{baie-de-naples-soir-du-10-septembre}{{3.5}{55}{Baie de Naples, soir du 10 septembre}{section.0.3.5}{}}
\@writefile{toc}{\contentsline {section}{\numberline {3.6}Port de Naples, matin du 11 septembre}{58}{section.0.3.6}}
\newlabel{port-de-naples-matin-du-11-septembre}{{3.6}{58}{Port de Naples, matin du 11 septembre}{section.0.3.6}{}}
\@writefile{toc}{\contentsline {section}{\numberline {3.7}Port de Naples, fin de journ\IeC {\'e}e du 11 septembre}{62}{section.0.3.7}}
\newlabel{port-de-naples-fin-de-journuxe9e-du-11-septembre}{{3.7}{62}{Port de Naples, fin de journée du 11 septembre}{section.0.3.7}{}}
\@writefile{toc}{\contentsline {chapter}{\numberline {4}~Chapitre 3}{67}{chapter.0.4}}
\@writefile{lof}{\addvspace {10\p@ }}
\@writefile{lot}{\addvspace {10\p@ }}
\newlabel{chapitre-3}{{4}{67}{~Chapitre 3}{chapter.0.4}{}}
\@writefile{toc}{\contentsline {section}{\numberline {4.1}~Golfe de Salerne, journ\IeC {\'e}e du 13 septembre}{67}{section.0.4.1}}
\newlabel{golfe-de-salerne-journuxe9e-du-13-septembre}{{4.1}{67}{~Golfe de Salerne, journée du 13 septembre}{section.0.4.1}{}}
\@writefile{toc}{\contentsline {section}{\numberline {4.2}C\IeC {\^o}te campanienne, matin du 14 septembre}{71}{section.0.4.2}}
\newlabel{cuxf4te-campanienne-matin-du-14-septembre}{{4.2}{71}{Côte campanienne, matin du 14 septembre}{section.0.4.2}{}}
\@writefile{toc}{\contentsline {section}{\numberline {4.3}C\IeC {\^o}te calabraise, journ\IeC {\'e}e du 15 septembre}{75}{section.0.4.3}}
\newlabel{cuxf4te-calabraise-journuxe9e-du-15-septembre}{{4.3}{75}{Côte calabraise, journée du 15 septembre}{section.0.4.3}{}}
\@writefile{toc}{\contentsline {section}{\numberline {4.4}C\IeC {\^o}te calabraise, soir du 15 septembre}{79}{section.0.4.4}}
\newlabel{cuxf4te-calabraise-soir-du-15-septembre}{{4.4}{79}{Côte calabraise, soir du 15 septembre}{section.0.4.4}{}}
\@writefile{toc}{\contentsline {section}{\numberline {4.5}Golfe de Gioia, midi du 16 septembre}{82}{section.0.4.5}}
\newlabel{golfe-de-gioia-midi-du-16-septembre}{{4.5}{82}{Golfe de Gioia, midi du 16 septembre}{section.0.4.5}{}}
\@writefile{toc}{\contentsline {section}{\numberline {4.6}Golfe de Gioia, soir du 16 septembre}{86}{section.0.4.6}}
\newlabel{golfe-de-gioia-soir-du-16-septembre}{{4.6}{86}{Golfe de Gioia, soir du 16 septembre}{section.0.4.6}{}}
\@writefile{toc}{\contentsline {section}{\numberline {4.7}D\IeC {\'e}troit de Messine, fin d'apr\IeC {\`e}s-midi du 17 septembre}{90}{section.0.4.7}}
\newlabel{duxe9troit-de-messine-fin-dapruxe8s-midi-du-17-septembre}{{4.7}{90}{Détroit de Messine, fin d'après-midi du 17 septembre}{section.0.4.7}{}}
\@writefile{toc}{\contentsline {chapter}{\numberline {5}Chapitre 4}{95}{chapter.0.5}}
\@writefile{lof}{\addvspace {10\p@ }}
\@writefile{lot}{\addvspace {10\p@ }}
\newlabel{chapitre-4}{{5}{95}{Chapitre 4}{chapter.0.5}{}}
\@writefile{toc}{\contentsline {section}{\numberline {5.1}Messine, matin du 18 septembre}{95}{section.0.5.1}}
\newlabel{messine-matin-du-18-septembre}{{5.1}{95}{Messine, matin du 18 septembre}{section.0.5.1}{}}
\@writefile{toc}{\contentsline {section}{\numberline {5.2}Messine, nuit du 18 septembre}{100}{section.0.5.2}}
\newlabel{messine-nuit-du-18-septembre}{{5.2}{100}{Messine, nuit du 18 septembre}{section.0.5.2}{}}
\@writefile{toc}{\contentsline {section}{\numberline {5.3}D\IeC {\'e}troit de Messine, fin d'apr\IeC {\`e}s-midi du 19 septembre}{103}{section.0.5.3}}
\newlabel{duxe9troit-de-messine-fin-dapruxe8s-midi-du-19-septembre}{{5.3}{103}{Détroit de Messine, fin d'après-midi du 19 septembre}{section.0.5.3}{}}
\@writefile{toc}{\contentsline {section}{\numberline {5.4}D\IeC {\'e}troit de Messine, soir\IeC {\'e}e du 19 septembre}{106}{section.0.5.4}}
\newlabel{duxe9troit-de-messine-soiruxe9e-du-19-septembre}{{5.4}{106}{Détroit de Messine, soirée du 19 septembre}{section.0.5.4}{}}
\@writefile{toc}{\contentsline {section}{\numberline {5.5}Golfe de Tarente, soir\IeC {\'e}e du 22 septembre}{109}{section.0.5.5}}
\newlabel{golfe-de-tarente-soiruxe9e-du-22-septembre}{{5.5}{109}{Golfe de Tarente, soirée du 22 septembre}{section.0.5.5}{}}
\@writefile{toc}{\contentsline {section}{\numberline {5.6}Golfe de Tarente, matin du 23 septembre}{112}{section.0.5.6}}
\newlabel{golfe-de-tarente-matin-du-23-septembre}{{5.6}{112}{Golfe de Tarente, matin du 23 septembre}{section.0.5.6}{}}
\@writefile{toc}{\contentsline {section}{\numberline {5.7}Otrante, fin d'apr\IeC {\`e}s-midi du 25 septembre}{114}{section.0.5.7}}
\newlabel{otrante-fin-dapruxe8s-midi-du-25-septembre}{{5.7}{114}{Otrante, fin d'après-midi du 25 septembre}{section.0.5.7}{}}
\@writefile{toc}{\contentsline {chapter}{\numberline {6}Chapitre 5}{119}{chapter.0.6}}
\@writefile{lof}{\addvspace {10\p@ }}
\@writefile{lot}{\addvspace {10\p@ }}
\newlabel{chapitre-5}{{6}{119}{Chapitre 5}{chapter.0.6}{}}
\@writefile{toc}{\contentsline {section}{\numberline {6.1}Otrante, fin d'apr\IeC {\`e}s-midi du 26 septembre}{119}{section.0.6.1}}
\newlabel{otrante-fin-dapruxe8s-midi-du-26-septembre}{{6.1}{119}{Otrante, fin d'après-midi du 26 septembre}{section.0.6.1}{}}
\@writefile{toc}{\contentsline {section}{\numberline {6.2}Otrante, nuit du 26 septembre}{123}{section.0.6.2}}
\newlabel{otrante-nuit-du-26-septembre}{{6.2}{123}{Otrante, nuit du 26 septembre}{section.0.6.2}{}}
\@writefile{toc}{\contentsline {section}{\numberline {6.3}Canal d'Otrante, matin du 27 septembre}{127}{section.0.6.3}}
\newlabel{canal-dotrante-matin-du-27-septembre}{{6.3}{127}{Canal d'Otrante, matin du 27 septembre}{section.0.6.3}{}}
\@writefile{toc}{\contentsline {section}{\numberline {6.4}Canal d'Otrante, apr\IeC {\`e}s-midi du 27 septembre}{131}{section.0.6.4}}
\newlabel{canal-dotrante-apruxe8s-midi-du-27-septembre}{{6.4}{131}{Canal d'Otrante, après-midi du 27 septembre}{section.0.6.4}{}}
\@writefile{toc}{\contentsline {section}{\numberline {6.5}Canal d'Otrante, fin d'apr\IeC {\`e}s-midi du 27 septembre}{133}{section.0.6.5}}
\newlabel{canal-dotrante-fin-dapruxe8s-midi-du-27-septembre}{{6.5}{133}{Canal d'Otrante, fin d'après-midi du 27 septembre}{section.0.6.5}{}}
\@writefile{toc}{\contentsline {section}{\numberline {6.6}Canal d'Otrante, soir\IeC {\'e}e du 27 septembre}{136}{section.0.6.6}}
\newlabel{canal-dotrante-soiruxe9e-du-27-septembre}{{6.6}{136}{Canal d'Otrante, soirée du 27 septembre}{section.0.6.6}{}}
\@writefile{toc}{\contentsline {section}{\numberline {6.7}Canal d'Otrante, nuit du 27 septembre}{140}{section.0.6.7}}
\newlabel{canal-dotrante-nuit-du-27-septembre}{{6.7}{140}{Canal d'Otrante, nuit du 27 septembre}{section.0.6.7}{}}
\@writefile{toc}{\contentsline {chapter}{\numberline {7}~Chapitre 6}{145}{chapter.0.7}}
\@writefile{lof}{\addvspace {10\p@ }}
\@writefile{lot}{\addvspace {10\p@ }}
\newlabel{chapitre-6}{{7}{145}{~Chapitre 6}{chapter.0.7}{}}
\@writefile{toc}{\contentsline {section}{\numberline {7.1}Canal d'Otrante, nuit du 27 septembre}{145}{section.0.7.1}}
\newlabel{canal-dotrante-nuit-du-27-septembre-1}{{7.1}{145}{Canal d'Otrante, nuit du 27 septembre}{section.0.7.1}{}}
\@writefile{toc}{\contentsline {section}{\numberline {7.2}Canal d'Otrante, matin du 28 septembre}{148}{section.0.7.2}}
\newlabel{canal-dotrante-matin-du-28-septembre}{{7.2}{148}{Canal d'Otrante, matin du 28 septembre}{section.0.7.2}{}}
\@writefile{toc}{\contentsline {section}{\numberline {7.3}Canal d'Otrante, apr\IeC {\`e}s-midi du 28 septembre}{151}{section.0.7.3}}
\newlabel{canal-dotrante-apruxe8s-midi-du-28-septembre}{{7.3}{151}{Canal d'Otrante, après-midi du 28 septembre}{section.0.7.3}{}}
\@writefile{toc}{\contentsline {section}{\numberline {7.4}C\IeC {\^o}te ionienne, apr\IeC {\`e}s-midi du 29 septembre}{154}{section.0.7.4}}
\newlabel{cuxf4te-ionienne-apruxe8s-midi-du-29-septembre}{{7.4}{154}{Côte ionienne, après-midi du 29 septembre}{section.0.7.4}{}}
\@writefile{toc}{\contentsline {section}{\numberline {7.5}C\IeC {\^o}te de Corfou, 30 septembre}{158}{section.0.7.5}}
\newlabel{cuxf4te-de-corfou-30-septembre}{{7.5}{158}{Côte de Corfou, 30 septembre}{section.0.7.5}{}}
\@writefile{toc}{\contentsline {section}{\numberline {7.6}\IeC {\^I}les ioniennes, midi du 1er octobre}{162}{section.0.7.6}}
\newlabel{uxeeles-ioniennes-midi-du-1er-octobre}{{7.6}{162}{Îles ioniennes, midi du 1er octobre}{section.0.7.6}{}}
\@writefile{toc}{\contentsline {section}{\numberline {7.7}\IeC {\^I}les ioniennes, soir du 2 octobre}{165}{section.0.7.7}}
\newlabel{uxeeles-ioniennes-soir-du-2-octobre}{{7.7}{165}{Îles ioniennes, soir du 2 octobre}{section.0.7.7}{}}
\@writefile{toc}{\contentsline {chapter}{\numberline {8}~Chapitre 7}{171}{chapter.0.8}}
\@writefile{lof}{\addvspace {10\p@ }}
\@writefile{lot}{\addvspace {10\p@ }}
\newlabel{chapitre-7}{{8}{171}{~Chapitre 7}{chapter.0.8}{}}
\@writefile{toc}{\contentsline {section}{\numberline {8.1}\IeC {\^I}les ioniennes, matin du 3 octobre}{171}{section.0.8.1}}
\newlabel{uxeeles-ioniennes-matin-du-3-octobre}{{8.1}{171}{Îles ioniennes, matin du 3 octobre}{section.0.8.1}{}}
\@writefile{toc}{\contentsline {section}{\numberline {8.2}\IeC {\^I}les ioniennes, Fin de matin\IeC {\'e}e du 3 octobre}{175}{section.0.8.2}}
\newlabel{uxeeles-ioniennes-fin-de-matinuxe9e-du-3-octobre}{{8.2}{175}{Îles ioniennes, Fin de matinée du 3 octobre}{section.0.8.2}{}}
\@writefile{toc}{\contentsline {section}{\numberline {8.3}\IeC {\^I}les ioniennes, apr\IeC {\`e}s-midi du 3 octobre}{178}{section.0.8.3}}
\newlabel{uxeeles-ioniennes-apruxe8s-midi-du-3-octobre}{{8.3}{178}{Îles ioniennes, après-midi du 3 octobre}{section.0.8.3}{}}
\@writefile{toc}{\contentsline {section}{\numberline {8.4}Au large du golfe de Patras, matin du 4 octobre}{182}{section.0.8.4}}
\newlabel{au-large-du-golfe-de-patras-matin-du-4-octobre}{{8.4}{182}{Au large du golfe de Patras, matin du 4 octobre}{section.0.8.4}{}}
\@writefile{toc}{\contentsline {section}{\numberline {8.5}C\IeC {\^o}te du P\IeC {\'e}loponn\IeC {\`e}se, mi-journ\IeC {\'e}e du 5 octobre}{186}{section.0.8.5}}
\newlabel{cuxf4te-du-puxe9loponnuxe8se-mi-journuxe9e-du-5-octobre}{{8.5}{186}{Côte du Péloponnèse, mi-journée du 5 octobre}{section.0.8.5}{}}
\@writefile{toc}{\contentsline {section}{\numberline {8.6}C\IeC {\^o}te du P\IeC {\'e}loponn\IeC {\`e}se, soir du 6 octobre}{190}{section.0.8.6}}
\newlabel{cuxf4te-du-puxe9loponnuxe8se-soir-du-6-octobre}{{8.6}{190}{Côte du Péloponnèse, soir du 6 octobre}{section.0.8.6}{}}
\@writefile{toc}{\contentsline {section}{\numberline {8.7}C\IeC {\^o}te du P\IeC {\'e}loponn\IeC {\`e}se, apr\IeC {\`e}s-midi du 7 octobre}{193}{section.0.8.7}}
\newlabel{cuxf4te-du-puxe9loponnuxe8se-apruxe8s-midi-du-7-octobre}{{8.7}{193}{Côte du Péloponnèse, après-midi du 7 octobre}{section.0.8.7}{}}
\@writefile{toc}{\contentsline {chapter}{\numberline {9}~Chapitre 8}{199}{chapter.0.9}}
\@writefile{lof}{\addvspace {10\p@ }}
\@writefile{lot}{\addvspace {10\p@ }}
\newlabel{chapitre-8}{{9}{199}{~Chapitre 8}{chapter.0.9}{}}
\@writefile{toc}{\contentsline {section}{\numberline {9.1}C\IeC {\^o}te sud du P\IeC {\'e}loponn\IeC {\`e}se, matin du 8 octobre}{199}{section.0.9.1}}
\newlabel{cuxf4te-sud-du-puxe9loponnuxe8se-matin-du-8-octobre}{{9.1}{199}{Côte sud du Péloponnèse, matin du 8 octobre}{section.0.9.1}{}}
\@writefile{toc}{\contentsline {section}{\numberline {9.2}C\IeC {\^o}te sud du P\IeC {\'e}loponn\IeC {\`e}se, matin du 9 octobre}{203}{section.0.9.2}}
\newlabel{cuxf4te-sud-du-puxe9loponnuxe8se-matin-du-9-octobre}{{9.2}{203}{Côte sud du Péloponnèse, matin du 9 octobre}{section.0.9.2}{}}
\@writefile{toc}{\contentsline {section}{\numberline {9.3}C\IeC {\^o}te sud du P\IeC {\'e}loponn\IeC {\`e}se, midi du 9 octobre}{207}{section.0.9.3}}
\newlabel{cuxf4te-sud-du-puxe9loponnuxe8se-midi-du-9-octobre}{{9.3}{207}{Côte sud du Péloponnèse, midi du 9 octobre}{section.0.9.3}{}}
\@writefile{toc}{\contentsline {section}{\numberline {9.4}C\IeC {\^o}te sud du P\IeC {\'e}loponn\IeC {\`e}se, matin du 10 octobre}{210}{section.0.9.4}}
\newlabel{cuxf4te-sud-du-puxe9loponnuxe8se-matin-du-10-octobre}{{9.4}{210}{Côte sud du Péloponnèse, matin du 10 octobre}{section.0.9.4}{}}
\@writefile{toc}{\contentsline {section}{\numberline {9.5}Au large de Cyth\IeC {\`e}re, apr\IeC {\`e}s-midi du 11 octobre}{215}{section.0.9.5}}
\newlabel{au-large-de-cythuxe8re-apruxe8s-midi-du-11-octobre}{{9.5}{215}{Au large de Cythère, après-midi du 11 octobre}{section.0.9.5}{}}
\@writefile{toc}{\contentsline {section}{\numberline {9.6}Au large d'Antikythira, matin du 12 octobre}{219}{section.0.9.6}}
\newlabel{au-large-dantikythira-matin-du-12-octobre}{{9.6}{219}{Au large d'Antikythira, matin du 12 octobre}{section.0.9.6}{}}
\@writefile{toc}{\contentsline {section}{\numberline {9.7}Abords de la c\IeC {\^o}te cr\IeC {\'e}toise, matin du 13 octobre}{223}{section.0.9.7}}
\newlabel{abords-de-la-cuxf4te-cruxe9toise-matin-du-13-octobre}{{9.7}{223}{Abords de la côte crétoise, matin du 13 octobre}{section.0.9.7}{}}
\@writefile{toc}{\contentsline {chapter}{\numberline {10}Chapitre 9}{227}{chapter.0.10}}
\@writefile{lof}{\addvspace {10\p@ }}
\@writefile{lot}{\addvspace {10\p@ }}
\newlabel{chapitre-9}{{10}{227}{Chapitre 9}{chapter.0.10}{}}
\@writefile{toc}{\contentsline {section}{\numberline {10.1}C\IeC {\^o}te cr\IeC {\'e}toise, matin du 14 octobre}{227}{section.0.10.1}}
\newlabel{cuxf4te-cruxe9toise-matin-du-14-octobre}{{10.1}{227}{Côte crétoise, matin du 14 octobre}{section.0.10.1}{}}
\@writefile{toc}{\contentsline {section}{\numberline {10.2}C\IeC {\^o}te cr\IeC {\'e}toise, matin du 14 octobre}{231}{section.0.10.2}}
\newlabel{cuxf4te-cruxe9toise-matin-du-14-octobre-1}{{10.2}{231}{Côte crétoise, matin du 14 octobre}{section.0.10.2}{}}
\@writefile{toc}{\contentsline {section}{\numberline {10.3}Au large de l'\IeC {\^\i }le de Dia, matin du 15 octobre}{235}{section.0.10.3}}
\newlabel{au-large-de-luxeele-de-dia-matin-du-15-octobre}{{10.3}{235}{Au large de l'île de Dia, matin du 15 octobre}{section.0.10.3}{}}
\@writefile{toc}{\contentsline {section}{\numberline {10.4}Au large de l'\IeC {\^\i }le de Dia, apr\IeC {\`e}s-midi du 15 octobre}{239}{section.0.10.4}}
\newlabel{au-large-de-luxeele-de-dia-apruxe8s-midi-du-15-octobre}{{10.4}{239}{Au large de l'île de Dia, après-midi du 15 octobre}{section.0.10.4}{}}
\@writefile{toc}{\contentsline {section}{\numberline {10.5}C\IeC {\^o}te cr\IeC {\'e}toise, midi du 16 octobre}{242}{section.0.10.5}}
\newlabel{cuxf4te-cruxe9toise-midi-du-16-octobre}{{10.5}{242}{Côte crétoise, midi du 16 octobre}{section.0.10.5}{}}
\@writefile{toc}{\contentsline {section}{\numberline {10.6}Golfe de Mirabellou, fin de matin\IeC {\'e}e du 17 octobre}{245}{section.0.10.6}}
\newlabel{golfe-de-mirabellou-fin-de-matinuxe9e-du-17-octobre}{{10.6}{245}{Golfe de Mirabellou, fin de matinée du 17 octobre}{section.0.10.6}{}}
\@writefile{toc}{\contentsline {section}{\numberline {10.7}Entre Cr\IeC {\^e}te et Kassos, matin du 18 octobre}{249}{section.0.10.7}}
\newlabel{entre-cruxeate-et-kassos-matin-du-18-octobre}{{10.7}{249}{Entre Crête et Kassos, matin du 18 octobre}{section.0.10.7}{}}
\@writefile{toc}{\contentsline {chapter}{\numberline {11}Chapitre 10}{253}{chapter.0.11}}
\@writefile{lof}{\addvspace {10\p@ }}
\@writefile{lot}{\addvspace {10\p@ }}
\newlabel{chapitre-10}{{11}{253}{Chapitre 10}{chapter.0.11}{}}
\@writefile{toc}{\contentsline {section}{\numberline {11.1}C\IeC {\^o}te sud de Karpathos, fin d'apr\IeC {\`e}s-midi du 19 octobre}{253}{section.0.11.1}}
\newlabel{cuxf4te-sud-de-karpathos-fin-dapruxe8s-midi-du-19-octobre}{{11.1}{253}{Côte sud de Karpathos, fin d'après-midi du 19 octobre}{section.0.11.1}{}}
\@writefile{toc}{\contentsline {section}{\numberline {11.2}Sud de l'\IeC {\^\i }le de Rhodes, midi du 20 octobre}{256}{section.0.11.2}}
\newlabel{sud-de-luxeele-de-rhodes-midi-du-20-octobre}{{11.2}{256}{Sud de l'île de Rhodes, midi du 20 octobre}{section.0.11.2}{}}
\@writefile{toc}{\contentsline {section}{\numberline {11.3}Sud de l'\IeC {\^\i }le de Rhodes, matin du 21 octobre}{260}{section.0.11.3}}
\newlabel{sud-de-luxeele-de-rhodes-matin-du-21-octobre}{{11.3}{260}{Sud de l'île de Rhodes, matin du 21 octobre}{section.0.11.3}{}}
\@writefile{toc}{\contentsline {section}{\numberline {11.4}Sud de l'\IeC {\^\i }le de Rhodes, apr\IeC {\`e}s-midi du 21 octobre}{263}{section.0.11.4}}
\newlabel{sud-de-luxeele-de-rhodes-apruxe8s-midi-du-21-octobre}{{11.4}{263}{Sud de l'île de Rhodes, après-midi du 21 octobre}{section.0.11.4}{}}
\@writefile{toc}{\contentsline {section}{\numberline {11.5}C\IeC {\^o}te est de Rhodes, matin du 22 octobre}{267}{section.0.11.5}}
\newlabel{cuxf4te-est-de-rhodes-matin-du-22-octobre}{{11.5}{267}{Côte est de Rhodes, matin du 22 octobre}{section.0.11.5}{}}
\@writefile{toc}{\contentsline {section}{\numberline {11.6}Port de Rhodes, soir du 22 octobre}{270}{section.0.11.6}}
\newlabel{port-de-rhodes-soir-du-22-octobre}{{11.6}{270}{Port de Rhodes, soir du 22 octobre}{section.0.11.6}{}}
\@writefile{toc}{\contentsline {section}{\numberline {11.7}Port de Rhodes, matin du 23 octobre}{273}{section.0.11.7}}
\newlabel{port-de-rhodes-matin-du-23-octobre}{{11.7}{273}{Port de Rhodes, matin du 23 octobre}{section.0.11.7}{}}
\@writefile{toc}{\contentsline {chapter}{\numberline {12}~Chapitre 11}{277}{chapter.0.12}}
\@writefile{lof}{\addvspace {10\p@ }}
\@writefile{lot}{\addvspace {10\p@ }}
\newlabel{chapitre-11}{{12}{277}{~Chapitre 11}{chapter.0.12}{}}
\@writefile{toc}{\contentsline {section}{\numberline {12.1}Port de Rhodes, soir du 24 octobre}{277}{section.0.12.1}}
\newlabel{port-de-rhodes-soir-du-24-octobre}{{12.1}{277}{Port de Rhodes, soir du 24 octobre}{section.0.12.1}{}}
\@writefile{toc}{\contentsline {section}{\numberline {12.2}Bassin de Rhodes, matin du 25 octobre}{281}{section.0.12.2}}
\newlabel{bassin-de-rhodes-matin-du-25-octobre}{{12.2}{281}{Bassin de Rhodes, matin du 25 octobre}{section.0.12.2}{}}
\@writefile{toc}{\contentsline {section}{\numberline {12.3}Bassin de Rhodes, soir du 26 octobre}{285}{section.0.12.3}}
\newlabel{bassin-de-rhodes-soir-du-26-octobre}{{12.3}{285}{Bassin de Rhodes, soir du 26 octobre}{section.0.12.3}{}}
\@writefile{toc}{\contentsline {section}{\numberline {12.4}Mer M\IeC {\'e}diterran\IeC {\'e}e, matin du 27 octobre}{288}{section.0.12.4}}
\newlabel{mer-muxe9diterranuxe9e-matin-du-27-octobre}{{12.4}{288}{Mer Méditerranée, matin du 27 octobre}{section.0.12.4}{}}
\@writefile{toc}{\contentsline {section}{\numberline {12.5}Mer M\IeC {\'e}diterran\IeC {\'e}e, fin d'apr\IeC {\`e}s-midi du 27 octobre}{292}{section.0.12.5}}
\newlabel{mer-muxe9diterranuxe9e-fin-dapruxe8s-midi-du-27-octobre}{{12.5}{292}{Mer Méditerranée, fin d'après-midi du 27 octobre}{section.0.12.5}{}}
\@writefile{toc}{\contentsline {section}{\numberline {12.6}Mer M\IeC {\'e}diterran\IeC {\'e}e, apr\IeC {\`e}s-midi du 28 octobre}{296}{section.0.12.6}}
\newlabel{mer-muxe9diterranuxe9e-apruxe8s-midi-du-28-octobre}{{12.6}{296}{Mer Méditerranée, après-midi du 28 octobre}{section.0.12.6}{}}
\@writefile{toc}{\contentsline {chapter}{\numberline {13}Chapitre 12}{301}{chapter.0.13}}
\@writefile{lof}{\addvspace {10\p@ }}
\@writefile{lot}{\addvspace {10\p@ }}
\newlabel{chapitre-12}{{13}{301}{Chapitre 12}{chapter.0.13}{}}
\@writefile{toc}{\contentsline {section}{\numberline {13.1}Port de Gibelet, soir du 1\textsuperscript  {er} novembre}{301}{section.0.13.1}}
\newlabel{port-de-gibelet-soir-du-1er-novembre}{{13.1}{301}{Port de Gibelet, soir du 1\textsuperscript {er} novembre}{section.0.13.1}{}}
\@writefile{toc}{\contentsline {section}{\numberline {13.2}Matin du 2 novembre, port de Gibelet}{306}{section.0.13.2}}
\newlabel{matin-du-2-novembre-port-de-gibelet}{{13.2}{306}{Matin du 2 novembre, port de Gibelet}{section.0.13.2}{}}
\@writefile{toc}{\contentsline {section}{\numberline {13.3}Citadelle de Gibelet, midi du 3 novembre}{310}{section.0.13.3}}
\newlabel{citadelle-de-gibelet-midi-du-3-novembre}{{13.3}{310}{Citadelle de Gibelet, midi du 3 novembre}{section.0.13.3}{}}
\@writefile{toc}{\contentsline {section}{\numberline {13.4}Gibelet, apr\IeC {\`e}s-midi du 3 novembre}{315}{section.0.13.4}}
\newlabel{gibelet-apruxe8s-midi-du-3-novembre}{{13.4}{315}{Gibelet, après-midi du 3 novembre}{section.0.13.4}{}}
\@writefile{toc}{\contentsline {section}{\numberline {13.5}Forteresse de Gibelet, soir du 3 novembre}{318}{section.0.13.5}}
\newlabel{forteresse-de-gibelet-soir-du-3-novembre}{{13.5}{318}{Forteresse de Gibelet, soir du 3 novembre}{section.0.13.5}{}}
\@writefile{toc}{\contentsline {section}{\numberline {13.6}Forteresse de Gibelet, soir du 3 novembre}{321}{section.0.13.6}}
\newlabel{forteresse-de-gibelet-soir-du-3-novembre-1}{{13.6}{321}{Forteresse de Gibelet, soir du 3 novembre}{section.0.13.6}{}}
\@writefile{toc}{\contentsline {section}{\numberline {13.7}Gibelet, matin du 4 novembre}{324}{section.0.13.7}}
\newlabel{gibelet-matin-du-4-novembre}{{13.7}{324}{Gibelet, matin du 4 novembre}{section.0.13.7}{}}
\@writefile{toc}{\contentsline {chapter}{\numberline {14}Addenda}{329}{chapter.0.14}}
\@writefile{lof}{\addvspace {10\p@ }}
\@writefile{lot}{\addvspace {10\p@ }}
\newlabel{Addenda}{{14}{329}{Addenda}{chapter.0.14}{}}
\@writefile{toc}{\contentsline {section}{\numberline {14.1}Notes de l'auteur}{329}{section.0.14.1}}
\newlabel{notesauteur}{{14.1}{329}{Notes de l'auteur}{section.0.14.1}{}}
\@writefile{toc}{\contentsline {section}{Le pari de la libert\IeC {\'e}}{332}{section*.7}}
\newlabel{pariliberte}{{14.1}{332}{Notes de l'auteur}{section*.7}{}}
\ttl@finishall
