\relax 
\providecommand\hyper@newdestlabel[2]{}
\catcode `:\active 
\catcode `;\active 
\catcode `!\active 
\catcode `?\active 
\providecommand\HyperFirstAtBeginDocument{\AtBeginDocument}
\HyperFirstAtBeginDocument{\ifx\hyper@anchor\@undefined
\global\let\oldcontentsline\contentsline
\gdef\contentsline#1#2#3#4{\oldcontentsline{#1}{#2}{#3}}
\global\let\oldnewlabel\newlabel
\gdef\newlabel#1#2{\newlabelxx{#1}#2}
\gdef\newlabelxx#1#2#3#4#5#6{\oldnewlabel{#1}{{#2}{#3}}}
\AtEndDocument{\ifx\hyper@anchor\@undefined
\let\contentsline\oldcontentsline
\let\newlabel\oldnewlabel
\fi}
\fi}
\global\let\hyper@last\relax 
\gdef\HyperFirstAtBeginDocument#1{#1}
\providecommand\HyField@AuxAddToFields[1]{}
\providecommand\HyField@AuxAddToCoFields[2]{}
\bibstyle{alpha}
\babel@aux{french}{}
\citation{SMAIL56}
\citation{RICHARD45}
\citation{SMAIL56}
\citation{RICHARD45}
\citation{SMAIL56}
\citation{SMAIL56}
\citation{SMAIL56}
\@writefile{toc}{\contentsline {section}{\numberline {1}L'arm\IeC {\'e}e du comt\IeC {\'e} de Tripoli}{1}{section.1}}
\citation{SMAIL56}
\citation{SMAIL56}
\citation{SMAIL56}
\citation{SMAIL56}
\citation{VERBRUGGEN77}
\citation{VERBRUGGEN77}
\citation{VERBRUGGEN77}
\citation{VERBRUGGEN77}
\citation{VERBRUGGEN77}
\@writefile{toc}{\contentsline {section}{\numberline {2}L'aspect des unit\IeC {\'e}s}{3}{section.2}}
\@writefile{toc}{\contentsline {subsection}{\numberline {2.1}Uniformes et couleurs}{3}{subsection.2.1}}
\@writefile{toc}{\contentsline {subsection}{\numberline {2.2}Les banni\IeC {\`e}res}{3}{subsection.2.2}}
\citation{VERBRUGGEN77}
\citation{VERBRUGGEN77}
\citation{VERBRUGGEN77}
\citation{RICHARDOT98}
\citation{RICHARDOT98}
\citation{VERBRUGGEN77}
\citation{VERBRUGGEN77}
\citation{RICHARDOT98}
\@writefile{toc}{\contentsline {section}{\numberline {3}Taille et formation des unit\IeC {\'e}s}{5}{section.3}}
\@writefile{toc}{\contentsline {subsection}{\numberline {3.1}Les formations possibles}{5}{subsection.3.1}}
\newlabel{formation}{{3.1}{5}{Les formations possibles}{subsection.3.1}{}}
\@writefile{toc}{\contentsline {subsection}{\numberline {3.2}La cavalerie}{5}{subsection.3.2}}
\citation{RICHARDOT98}
\citation{VERBRUGGEN77}
\newlabel{equiteslevis}{{3.2}{6}{La cavalerie}{subsection.3.2}{}}
\citation{VERBRUGGEN77}
\citation{VERBRUGGEN77}
\citation{VERBRUGGEN77}
\citation{VERBRUGGEN77}
\@writefile{toc}{\contentsline {subsection}{\numberline {3.3}Les chevaliers d\IeC {\'e}mont\IeC {\'e}s}{7}{subsection.3.3}}
\citation{VERBRUGGEN77}
\citation{VERBRUGGEN77}
\citation{VERBRUGGEN77}
\@writefile{toc}{\contentsline {subsection}{\numberline {3.4}Les fantassins}{8}{subsection.3.4}}
\@writefile{toc}{\contentsline {section}{\numberline {4}Pr\IeC {\'e}paration \IeC {\`a} la bataille}{8}{section.4}}
\citation{VERBRUGGEN77}
\citation{VERBRUGGEN77}
\citation{VERBRUGGEN77}
\citation{audouin13}
\@writefile{toc}{\contentsline {section}{\numberline {5}L'ordre de marche}{9}{section.5}}
\citation{VERBRUGGEN77}
\citation{VERBRUGGEN77}
\citation{VERBRUGGEN77}
\citation{VERBRUGGEN77}
\citation{VERBRUGGEN77}
\citation{VERBRUGGEN77}
\@writefile{toc}{\contentsline {section}{\numberline {6}Le d\IeC {\'e}ploiement}{10}{section.6}}
\@writefile{toc}{\contentsline {subsection}{\numberline {6.1}Les fantassins}{10}{subsection.6.1}}
\citation{VERBRUGGEN77}
\citation{VERBRUGGEN77}
\citation{VERBRUGGEN77}
\citation{SMAIL56}
\@writefile{toc}{\contentsline {subsection}{\numberline {6.2}Les archers et arbal\IeC {\'e}triers}{11}{subsection.6.2}}
\@writefile{toc}{\contentsline {section}{\numberline {7}L'ordre de bataille}{11}{section.7}}
\citation{CONTAMINE80}
\citation{VERBRUGGEN77}
\@writefile{toc}{\contentsline {section}{\numberline {8}La communication des ordres}{12}{section.8}}
\@writefile{toc}{\contentsline {subsection}{\numberline {8.1}Les instruments de musique}{12}{subsection.8.1}}
\citation{VERBRUGGEN77}
\citation{contamine1997}
\citation{hagenmeyer1896}
\citation{asbridge2000}
\citation{VERBRUGGEN77}
\citation{VERBRUGGEN77}
\@writefile{toc}{\contentsline {subsection}{\numberline {8.2}Les instructions visuelles}{13}{subsection.8.2}}
\newlabel{roledesbannieres}{{8.2}{13}{Les instructions visuelles}{subsection.8.2}{}}
\citation{VERBRUGGEN77}
\citation{VERBRUGGEN77}
\citation{VERBRUGGEN77}
\@writefile{toc}{\contentsline {subsection}{\numberline {8.3}Le cri de guerre}{14}{subsection.8.3}}
\@writefile{toc}{\contentsline {section}{\numberline {9}Les ordres}{14}{section.9}}
\@writefile{toc}{\contentsline {subsection}{\numberline {9.1}Les ordres de cavalerie}{14}{subsection.9.1}}
\@writefile{toc}{\contentsline {subsubsection}{\numberline {9.1.1}Formez les rangs~: \IeC {\guillemotleft }~??~\IeC {\guillemotright }}{14}{subsubsection.9.1.1}}
\citation{VERBRUGGEN77}
\citation{VERBRUGGEN77}
\citation{VERBRUGGEN77}
\@writefile{toc}{\contentsline {subsubsection}{\numberline {9.1.2}En avant~: \IeC {\guillemotleft }~Mouvez~\IeC {\guillemotright }}{15}{subsubsection.9.1.2}}
\@writefile{toc}{\contentsline {subsubsection}{\numberline {9.1.3}Halte~: \IeC {\guillemotleft }~??~\IeC {\guillemotright }}{15}{subsubsection.9.1.3}}
\@writefile{toc}{\contentsline {subsubsection}{\numberline {9.1.4}Gardez la formation~: \IeC {\guillemotleft }~??~\IeC {\guillemotright }}{15}{subsubsection.9.1.4}}
\citation{VERBRUGGEN77}
\citation{VERBRUGGEN77}
\citation{VERBRUGGEN77}
\citation{VERBRUGGEN77}
\citation{VERBRUGGEN77}
\@writefile{toc}{\contentsline {subsubsection}{\numberline {9.1.5}D\IeC {\'e}ployez la ligne~: \IeC {\guillemotleft }~??~\IeC {\guillemotright }}{16}{subsubsection.9.1.5}}
\@writefile{toc}{\contentsline {subsubsection}{\numberline {9.1.6}A droite/ A gauche~: \IeC {\guillemotleft }~??~\IeC {\guillemotright }}{16}{subsubsection.9.1.6}}
\@writefile{toc}{\contentsline {subsubsection}{\numberline {9.1.7}A l'arri\IeC {\`e}re~: \IeC {\guillemotleft }~??~\IeC {\guillemotright }}{16}{subsubsection.9.1.7}}
\citation{VERBRUGGEN77}
\citation{VERBRUGGEN77}
\citation{VERBRUGGEN77}
\citation{VERBRUGGEN77}
\citation{VERBRUGGEN77}
\@writefile{toc}{\contentsline {subsubsection}{\numberline {9.1.8}Seconde ligne~: \IeC {\guillemotleft }~??~\IeC {\guillemotright }}{17}{subsubsection.9.1.8}}
\@writefile{toc}{\contentsline {subsubsection}{\numberline {9.1.9}Serrez les rangs~: \IeC {\guillemotleft }~??~\IeC {\guillemotright }}{17}{subsubsection.9.1.9}}
\@writefile{toc}{\contentsline {subsubsection}{\numberline {9.1.10}Ennemi en vue~: \IeC {\guillemotleft }~??~\IeC {\guillemotright }}{17}{subsubsection.9.1.10}}
\citation{VERBRUGGEN77}
\citation{VERBRUGGEN77}
\citation{VERBRUGGEN77}
\citation{VERBRUGGEN77}
\citation{VERBRUGGEN77}
\@writefile{toc}{\contentsline {subsubsection}{\numberline {9.1.11}Revenez dans les rangs~: \IeC {\guillemotleft }~??~\IeC {\guillemotright }}{18}{subsubsection.9.1.11}}
\@writefile{toc}{\contentsline {subsubsection}{\numberline {9.1.12}Maintenez le contact~: \IeC {\guillemotleft }~??~\IeC {\guillemotright }}{18}{subsubsection.9.1.12}}
\@writefile{toc}{\contentsline {subsubsection}{\numberline {9.1.13}Au pas~: \IeC {\guillemotleft }~Al\IeC {\'e}s le pas~\IeC {\guillemotright }}{18}{subsubsection.9.1.13}}
\citation{VERBRUGGEN77}
\citation{VERBRUGGEN77}
\citation{VERBRUGGEN77}
\citation{VERBRUGGEN77}
\@writefile{toc}{\contentsline {subsubsection}{\numberline {9.1.14}Chargez~: \IeC {\guillemotleft }~Poingni\IeC {\'e}s~\IeC {\guillemotright }}{19}{subsubsection.9.1.14}}
\@writefile{toc}{\contentsline {subsubsection}{\numberline {9.1.15}Regroupement~: \IeC {\guillemotleft }~??~\IeC {\guillemotright }}{19}{subsubsection.9.1.15}}
\@writefile{toc}{\contentsline {subsubsection}{\numberline {9.1.16}Retraite~: \IeC {\guillemotleft }~??~\IeC {\guillemotright }}{19}{subsubsection.9.1.16}}
\citation{VERBRUGGEN77}
\citation{VERBRUGGEN77}
\citation{VERBRUGGEN77}
\citation{VERBRUGGEN77}
\@writefile{toc}{\contentsline {section}{\numberline {10}Le r\IeC {\^o}le de chacune des unit\IeC {\'e}s}{20}{section.10}}
\@writefile{toc}{\contentsline {subsection}{\numberline {10.1}Les unit\IeC {\'e}s \IeC {\`a} pied}{20}{subsection.10.1}}
\@writefile{toc}{\contentsline {subsubsection}{\numberline {10.1.1}Les archers}{20}{subsubsection.10.1.1}}
\citation{VERBRUGGEN77}
\citation{VERBRUGGEN77}
\citation{VERBRUGGEN77}
\citation{VERBRUGGEN77}
\citation{VERBRUGGEN77}
\@writefile{toc}{\contentsline {subsubsection}{\numberline {10.1.2}Les fantassins}{21}{subsubsection.10.1.2}}
\citation{VERBRUGGEN77}
\citation{VERBRUGGEN77}
\citation{VERBRUGGEN77}
\citation{VERBRUGGEN77}
\citation{VERBRUGGEN77}
\bibdata{bibliographie}
\bibcite{asbridge2000}{Asb00}
\bibcite{audouin13}{Aud13}
\bibcite{CONTAMINE80}{{C}on94}
\bibcite{contamine1997}{Con97}
\bibcite{RICHARDOT98}{{Ric}98}
\bibcite{RICHARD45}{{R}ic99}
\bibcite{SMAIL56}{{S}ma96}
\bibcite{hagenmeyer1896}{tC96}
\bibcite{VERBRUGGEN77}{{Ver}77}
