<?xml version="1.0" encoding="UTF-8" standalone="no"?>
<!-- Created with Inkscape (http://www.inkscape.org/) -->

<svg
   xmlns:dc="http://purl.org/dc/elements/1.1/"
   xmlns:cc="http://creativecommons.org/ns#"
   xmlns:rdf="http://www.w3.org/1999/02/22-rdf-syntax-ns#"
   xmlns:svg="http://www.w3.org/2000/svg"
   xmlns="http://www.w3.org/2000/svg"
   xmlns:sodipodi="http://sodipodi.sourceforge.net/DTD/sodipodi-0.dtd"
   xmlns:inkscape="http://www.inkscape.org/namespaces/inkscape"
   width="69.130943mm"
   height="61.384892mm"
   viewBox="0 0 244.95216 217.50552"
   id="svg3400"
   version="1.1"
   inkscape:version="0.91 r13725"
   sodipodi:docname="logo.svg">
  <defs
     id="defs3402" />
  <sodipodi:namedview
     id="base"
     pagecolor="#ffffff"
     bordercolor="#666666"
     borderopacity="1.0"
     inkscape:pageopacity="0.0"
     inkscape:pageshadow="2"
     inkscape:zoom="1.979899"
     inkscape:cx="108.073"
     inkscape:cy="159.11788"
     inkscape:document-units="px"
     inkscape:current-layer="layer1"
     showgrid="false"
     fit-margin-left="0.1"
     fit-margin-top="0.1"
     fit-margin-bottom="0.1"
     fit-margin-right="0.1"
     inkscape:window-width="1680"
     inkscape:window-height="961"
     inkscape:window-x="1680"
     inkscape:window-y="35"
     inkscape:window-maximized="1" />
  <metadata
     id="metadata3405">
    <rdf:RDF>
      <cc:Work
         rdf:about="">
        <dc:format>image/svg+xml</dc:format>
        <dc:type
           rdf:resource="http://purl.org/dc/dcmitype/StillImage" />
        <dc:title></dc:title>
      </cc:Work>
    </rdf:RDF>
  </metadata>
  <g
     inkscape:label="Calque 1"
     inkscape:groupmode="layer"
     id="layer1"
     transform="translate(-234.66679,-316.22495)">
    <path
       style="color:#000000;display:inline;overflow:visible;visibility:visible;fill:#991a06;fill-opacity:1;fill-rule:nonzero;stroke:none;stroke-width:0.479;marker:none;enable-background:accumulate"
       d="m 347.86431,490.2731 56.41727,42.95779 8.1239,-72.18545 8.15535,-72.23382 8.16815,-72.23234 -64.52276,29.29465 -64.59968,29.28596 -64.58542,29.27458 56.4117,42.89223 z"
       id="path3897-1-8"
       inkscape:connector-curvature="0"
       sodipodi:nodetypes="cccccccccc"
       inkscape:transform-center-y="80.308414"
       inkscape:transform-center-x="-82.540035" />
    <path
       style="color:#000000;display:inline;overflow:visible;visibility:visible;fill:#fbeebb;fill-opacity:1;fill-rule:nonzero;stroke:none;stroke-width:0.479;marker:none;enable-background:accumulate"
       d="m 479.26461,398.18719 -57.30182,-21.74802 -65.94741,41.64212 57.64547,32.02238 z m -123.24973,19.89089 -2.0365,-67.56107 -73.56665,-27.92795 8.28982,57.1123 z m 2.6e-4,0.002 -58.45835,33.9066 10.78614,81.38946 47.15318,-37.2991 z"
       id="path3897-06-7"
       inkscape:connector-curvature="0"
       sodipodi:nodetypes="ccccccccccccccc" />
  </g>
</svg>
