\relax 
\providecommand\hyper@newdestlabel[2]{}
\bbl@cs{beforestart}
\catcode `:\active 
\catcode `;\active 
\catcode `!\active 
\catcode `?\active 
\providecommand\HyperFirstAtBeginDocument{\AtBeginDocument}
\HyperFirstAtBeginDocument{\ifx\hyper@anchor\@undefined
\global\let\oldcontentsline\contentsline
\gdef\contentsline#1#2#3#4{\oldcontentsline{#1}{#2}{#3}}
\global\let\oldnewlabel\newlabel
\gdef\newlabel#1#2{\newlabelxx{#1}#2}
\gdef\newlabelxx#1#2#3#4#5#6{\oldnewlabel{#1}{{#2}{#3}}}
\AtEndDocument{\ifx\hyper@anchor\@undefined
\let\contentsline\oldcontentsline
\let\newlabel\oldnewlabel
\fi}
\fi}
\global\let\hyper@last\relax 
\gdef\HyperFirstAtBeginDocument#1{#1}
\providecommand\HyField@AuxAddToFields[1]{}
\providecommand\HyField@AuxAddToCoFields[2]{}
\babel@aux{french}{}
\@writefile{toc}{\contentsline {chapter}{\numberline {1}Besace et bourdon}{1}{chapter.0.1}\protected@file@percent }
\@writefile{lof}{\addvspace {10\p@ }}
\@writefile{lot}{\addvspace {10\p@ }}
\newlabel{besace-et-bourdon}{{1}{1}{Besace et bourdon}{chapter.0.1}{}}
\@writefile{toc}{\contentsline {section}{\numberline {}Route du Vif (Châteauneuf-Val-de-Bargis), après-midi du jeudi~28~juin~1156}{1}{section.0.1.1}\protected@file@percent }
\newlabel{route-du-vif-chuxe2teauneuf-val-de-bargis-apruxe8s-midi-du-jeudi-28-juin-1156}{{}{1}{Route du Vif (Châteauneuf-Val-de-Bargis), après-midi du jeudi~28~juin~1156}{section.0.1.1}{}}
\@writefile{toc}{\contentsline {section}{\numberline {}Hôpital de la Charité, soirée du jeudi~28~juin~1156}{6}{section.0.1.2}\protected@file@percent }
\newlabel{huxf4pital-de-la-charituxe9-soiruxe9e-du-jeudi-28-juin-1156}{{}{6}{Hôpital de la Charité, soirée du jeudi~28~juin~1156}{section.0.1.2}{}}
\@writefile{toc}{\contentsline {section}{\numberline {}Hôpital de la Charité, nuit du jeudi~28~juin~1156}{9}{section.0.1.3}\protected@file@percent }
\newlabel{huxf4pital-de-la-charituxe9-nuit-du-jeudi-28-juin-1156}{{}{9}{Hôpital de la Charité, nuit du jeudi~28~juin~1156}{section.0.1.3}{}}
\@writefile{toc}{\contentsline {section}{\numberline {}Notes}{12}{section.0.1.4}\protected@file@percent }
\newlabel{notes}{{}{12}{Notes}{section.0.1.4}{}}
\@writefile{toc}{\contentsline {section}{\numberline {}Références}{13}{section.0.1.5}\protected@file@percent }
\newlabel{ruxe9fuxe9rences}{{}{13}{Références}{section.0.1.5}{}}
\@writefile{toc}{\contentsline {chapter}{\numberline {2}Faux espoirs}{15}{chapter.0.2}\protected@file@percent }
\@writefile{lof}{\addvspace {10\p@ }}
\@writefile{lot}{\addvspace {10\p@ }}
\newlabel{faux-espoirs}{{2}{15}{Faux espoirs}{chapter.0.2}{}}
\@writefile{toc}{\contentsline {section}{\numberline {}Cap de Gata, sud d'Almería, vendredi~25~juillet~1147}{15}{section.0.2.1}\protected@file@percent }
\newlabel{cap-de-gata-sud-dalmeruxeda-vendredi-25-juillet-1147}{{}{15}{Cap de Gata, sud d'Almería, vendredi~25~juillet~1147}{section.0.2.1}{}}
\@writefile{toc}{\contentsline {section}{\numberline {}Almería, mardi 19 août 1147}{17}{section.0.2.2}\protected@file@percent }
\newlabel{almeruxeda-mardi-19-aouxfbt-1147}{{}{17}{Almería, mardi 19 août 1147}{section.0.2.2}{}}
\@writefile{toc}{\contentsline {section}{\numberline {}Almería, matin du vendredi~17~octobre~1147}{19}{section.0.2.3}\protected@file@percent }
\newlabel{almeruxeda-matin-du-vendredi-17-octobre-1147}{{}{19}{Almería, matin du vendredi~17~octobre~1147}{section.0.2.3}{}}
\@writefile{toc}{\contentsline {section}{\numberline {}Almería, midi du vendredi~17~octobre~1147}{21}{section.0.2.4}\protected@file@percent }
\newlabel{almeruxeda-midi-du-vendredi-17-octobre-1147}{{}{21}{Almería, midi du vendredi~17~octobre~1147}{section.0.2.4}{}}
\@writefile{toc}{\contentsline {section}{\numberline {}Notes}{23}{section.0.2.5}\protected@file@percent }
\newlabel{notes-1}{{}{23}{Notes}{section.0.2.5}{}}
\@writefile{toc}{\contentsline {section}{\numberline {}Références}{23}{section.0.2.6}\protected@file@percent }
\newlabel{ruxe9fuxe9rences-1}{{}{23}{Références}{section.0.2.6}{}}
\@writefile{toc}{\contentsline {chapter}{\numberline {3}In pulverem reverteris}{25}{chapter.0.3}\protected@file@percent }
\@writefile{lof}{\addvspace {10\p@ }}
\@writefile{lot}{\addvspace {10\p@ }}
\newlabel{in-pulverem-reverteris}{{3}{25}{In pulverem reverteris}{chapter.0.3}{}}
\@writefile{toc}{\contentsline {section}{\numberline {}Gênes, soirée du jeudi~4~septembre~1155}{25}{section.0.3.1}\protected@file@percent }
\newlabel{guxeanes-soiruxe9e-du-jeudi-4-septembre-1155}{{}{25}{Gênes, soirée du jeudi~4~septembre~1155}{section.0.3.1}{}}
\@writefile{toc}{\contentsline {section}{\numberline {}Gênes, port, matin du mardi~28~février~1156}{30}{section.0.3.2}\protected@file@percent }
\newlabel{guxeanes-port-matin-du-mardi-28-fuxe9vrier-1156}{{}{30}{Gênes, port, matin du mardi~28~février~1156}{section.0.3.2}{}}
\@writefile{toc}{\contentsline {section}{\numberline {}Gênes, cathédrale San Laurenzo, matin du dimanche~3~juin~1156}{33}{section.0.3.3}\protected@file@percent }
\newlabel{guxeanes-cathuxe9drale-san-laurenzo-matin-du-dimanche-3-juin-1156}{{}{33}{Gênes, cathédrale San Laurenzo, matin du dimanche~3~juin~1156}{section.0.3.3}{}}
\@writefile{toc}{\contentsline {section}{\numberline {}Gênes, maison d'Alda la Joliette, nuit du mardi~31~juillet~1156}{37}{section.0.3.4}\protected@file@percent }
\newlabel{guxeanes-maison-dalda-la-joliette-nuit-du-mardi-31-juillet-1156}{{}{37}{Gênes, maison d'Alda la Joliette, nuit du mardi~31~juillet~1156}{section.0.3.4}{}}
\@writefile{toc}{\contentsline {section}{\numberline {}Gênes, port, matin du lundi~6~août~1156}{41}{section.0.3.5}\protected@file@percent }
\newlabel{guxeanes-port-matin-du-lundi-6-aouxfbt-1156}{{}{41}{Gênes, port, matin du lundi~6~août~1156}{section.0.3.5}{}}
\@writefile{toc}{\contentsline {section}{\numberline {}Notes}{43}{section.0.3.6}\protected@file@percent }
\newlabel{notes-2}{{}{43}{Notes}{section.0.3.6}{}}
\@writefile{toc}{\contentsline {section}{\numberline {}Références}{43}{section.0.3.7}\protected@file@percent }
\newlabel{ruxe9fuxe9rences-2}{{}{43}{Références}{section.0.3.7}{}}
\@writefile{toc}{\contentsline {chapter}{\numberline {4}Tortueuse âme}{45}{chapter.0.4}\protected@file@percent }
\@writefile{lof}{\addvspace {10\p@ }}
\@writefile{lot}{\addvspace {10\p@ }}
\newlabel{tortueuse-uxe2me}{{4}{45}{Tortueuse âme}{chapter.0.4}{}}
\@writefile{toc}{\contentsline {section}{\numberline {}Gibelet, soirée du mercredi~26~mai~1154}{45}{section.0.4.1}\protected@file@percent }
\newlabel{gibelet-soiruxe9e-du-mercredi-26-mai-1154}{{}{45}{Gibelet, soirée du mercredi~26~mai~1154}{section.0.4.1}{}}
\@writefile{toc}{\contentsline {section}{\numberline {}Gaza, nuit du lundi~7~juin~1154}{48}{section.0.4.2}\protected@file@percent }
\newlabel{gaza-nuit-du-lundi-7-juin-1154}{{}{48}{Gaza, nuit du lundi~7~juin~1154}{section.0.4.2}{}}
\@writefile{toc}{\contentsline {section}{\numberline {}Gênes, matin du mercredi~2~novembre~1155}{52}{section.0.4.3}\protected@file@percent }
\newlabel{guxeanes-matin-du-mercredi-2-novembre-1155}{{}{52}{Gênes, matin du mercredi~2~novembre~1155}{section.0.4.3}{}}
\@writefile{toc}{\contentsline {section}{\numberline {}Tripoli, matinée du lundi~24~décembre~1156}{55}{section.0.4.4}\protected@file@percent }
\newlabel{tripoli-matinuxe9e-du-lundi-24-duxe9cembre-1156}{{}{55}{Tripoli, matinée du lundi~24~décembre~1156}{section.0.4.4}{}}
\@writefile{toc}{\contentsline {section}{\numberline {}Notes}{59}{section.0.4.5}\protected@file@percent }
\newlabel{notes-3}{{}{59}{Notes}{section.0.4.5}{}}
\@writefile{toc}{\contentsline {section}{\numberline {}Références}{60}{section.0.4.6}\protected@file@percent }
\newlabel{ruxe9fuxe9rences-3}{{}{60}{Références}{section.0.4.6}{}}
\@writefile{toc}{\contentsline {chapter}{\numberline {5}Les croisés du Poron}{61}{chapter.0.5}\protected@file@percent }
\@writefile{lof}{\addvspace {10\p@ }}
\@writefile{lot}{\addvspace {10\p@ }}
\newlabel{les-croisuxe9s-du-poron}{{5}{61}{Les croisés du Poron}{chapter.0.5}{}}
\@writefile{toc}{\contentsline {section}{\numberline {}Lieu-dit du Poron, environs de Vézelay, après-midi du jeudi~6~juin~1146}{61}{section.0.5.1}\protected@file@percent }
\newlabel{lieu-dit-du-poron-environs-de-vuxe9zelay-apruxe8s-midi-du-jeudi-6-juin-1146}{{}{61}{Lieu-dit du Poron, environs de Vézelay, après-midi du jeudi~6~juin~1146}{section.0.5.1}{}}
\@writefile{toc}{\contentsline {section}{\numberline {}Abords du village de Saint-Pierre, matin du mardi~11~juin~1146}{65}{section.0.5.2}\protected@file@percent }
\newlabel{abords-du-village-de-saint-pierre-matin-du-mardi-11-juin-1146}{{}{65}{Abords du village de Saint-Pierre, matin du mardi~11~juin~1146}{section.0.5.2}{}}
\@writefile{toc}{\contentsline {section}{\numberline {}Notes}{68}{section.0.5.3}\protected@file@percent }
\newlabel{notes-4}{{}{68}{Notes}{section.0.5.3}{}}
\@writefile{toc}{\contentsline {section}{\numberline {}Références}{69}{section.0.5.4}\protected@file@percent }
\newlabel{ruxe9fuxe9rences-4}{{}{69}{Références}{section.0.5.4}{}}
\@writefile{toc}{\contentsline {chapter}{\numberline {6}Fils de moine}{71}{chapter.0.6}\protected@file@percent }
\@writefile{lof}{\addvspace {10\p@ }}
\@writefile{lot}{\addvspace {10\p@ }}
\newlabel{fils-de-moine}{{6}{71}{Fils de moine}{chapter.0.6}{}}
\@writefile{toc}{\contentsline {section}{\numberline {}Bords de Loire, matinée du mardi~9~mai~1133}{71}{section.0.6.1}\protected@file@percent }
\newlabel{bords-de-loire-matinuxe9e-du-mardi-9-mai-1133}{{}{71}{Bords de Loire, matinée du mardi~9~mai~1133}{section.0.6.1}{}}
\@writefile{toc}{\contentsline {section}{\numberline {}Prieurale Notre-Dame de la Charité-sur-Loire, midi du jeudi~11~mai~1133}{75}{section.0.6.2}\protected@file@percent }
\newlabel{prieurale-notre-dame-de-la-charituxe9-sur-loire-midi-du-jeudi-11-mai-1133}{{}{75}{Prieurale Notre-Dame de la Charité-sur-Loire, midi du jeudi~11~mai~1133}{section.0.6.2}{}}
\@writefile{toc}{\contentsline {section}{\numberline {}Cellier du prieuré Notre-Dame de la Charité-sur-Loire, après-midi du jeudi~11~mai~1133}{76}{section.0.6.3}\protected@file@percent }
\newlabel{cellier-du-prieuruxe9-notre-dame-de-la-charituxe9-sur-loire-apruxe8s-midi-du-jeudi-11-mai-1133}{{}{76}{Cellier du prieuré Notre-Dame de la Charité-sur-Loire, après-midi du jeudi~11~mai~1133}{section.0.6.3}{}}
\@writefile{toc}{\contentsline {section}{\numberline {}Notes}{79}{section.0.6.4}\protected@file@percent }
\newlabel{notes-5}{{}{79}{Notes}{section.0.6.4}{}}
\@writefile{toc}{\contentsline {section}{\numberline {}Références}{80}{section.0.6.5}\protected@file@percent }
\newlabel{ruxe9fuxe9rences-5}{{}{80}{Références}{section.0.6.5}{}}
\@writefile{toc}{\contentsline {chapter}{\numberline {7}Traîtres sentiers}{81}{chapter.0.7}\protected@file@percent }
\@writefile{lof}{\addvspace {10\p@ }}
\@writefile{lot}{\addvspace {10\p@ }}
\newlabel{trauxeetres-sentiers}{{7}{81}{Traîtres sentiers}{chapter.0.7}{}}
\@writefile{toc}{\contentsline {section}{\numberline {}Abords de Laodicée, plateaux anatoliens, nuit du samedi~3~janvier~1148}{81}{section.0.7.1}\protected@file@percent }
\newlabel{abords-de-laodicuxe9e-plateaux-anatoliens-nuit-du-samedi-3-janvier-1148}{{}{81}{Abords de Laodicée, plateaux anatoliens, nuit du samedi~3~janvier~1148}{section.0.7.1}{}}
\@writefile{toc}{\contentsline {section}{\numberline {}Mont Cadmus, jeudi~8~janvier~1148}{84}{section.0.7.2}\protected@file@percent }
\newlabel{mont-cadmus-jeudi-8-janvier-1148}{{}{84}{Mont Cadmus, jeudi~8~janvier~1148}{section.0.7.2}{}}
\@writefile{toc}{\contentsline {section}{\numberline {}Notes}{88}{section.0.7.3}\protected@file@percent }
\newlabel{notes-6}{{}{88}{Notes}{section.0.7.3}{}}
\@writefile{toc}{\contentsline {section}{\numberline {}Références}{89}{section.0.7.4}\protected@file@percent }
\newlabel{ruxe9fuxe9rences-6}{{}{89}{Références}{section.0.7.4}{}}
\@writefile{toc}{\contentsline {chapter}{\numberline {8}Le meilleur des fils}{91}{chapter.0.8}\protected@file@percent }
\@writefile{lof}{\addvspace {10\p@ }}
\@writefile{lot}{\addvspace {10\p@ }}
\newlabel{le-meilleur-des-fils}{{8}{91}{Le meilleur des fils}{chapter.0.8}{}}
\@writefile{toc}{\contentsline {section}{\numberline {}Césarée, mercredi~3~juillet~1140, après-midi}{91}{section.0.8.1}\protected@file@percent }
\newlabel{cuxe9saruxe9e-mercredi-3-juillet-1140-apruxe8s-midi}{{}{91}{Césarée, mercredi~3~juillet~1140, après-midi}{section.0.8.1}{}}
\@writefile{toc}{\contentsline {section}{\numberline {}Ascalon, jeudi~10~septembre~1153, matin}{95}{section.0.8.2}\protected@file@percent }
\newlabel{ascalon-jeudi-10-septembre-1153-matin}{{}{95}{Ascalon, jeudi~10~septembre~1153, matin}{section.0.8.2}{}}
\@writefile{toc}{\contentsline {section}{\numberline {}Notes}{99}{section.0.8.3}\protected@file@percent }
\newlabel{notes-7}{{}{99}{Notes}{section.0.8.3}{}}
\@writefile{toc}{\contentsline {section}{\numberline {}Références}{100}{section.0.8.4}\protected@file@percent }
\newlabel{ruxe9fuxe9rences-7}{{}{100}{Références}{section.0.8.4}{}}
\@writefile{toc}{\contentsline {chapter}{\numberline {9}Troubles}{101}{chapter.0.9}\protected@file@percent }
\@writefile{lof}{\addvspace {10\p@ }}
\@writefile{lot}{\addvspace {10\p@ }}
\newlabel{troubles}{{9}{101}{Troubles}{chapter.0.9}{}}
\@writefile{toc}{\contentsline {section}{\numberline {}Palais royal, Jérusalem, matinée du vendredi~16~avril~1154}{101}{section.0.9.1}\protected@file@percent }
\newlabel{palais-royal-juxe9rusalem-matinuxe9e-du-vendredi-16-avril-1154}{{}{101}{Palais royal, Jérusalem, matinée du vendredi~16~avril~1154}{section.0.9.1}{}}
\@writefile{toc}{\contentsline {section}{\numberline {}Parvis du Saint-Sépulcre, Jérusalem, midi du vendredi~16~avril~1154}{106}{section.0.9.2}\protected@file@percent }
\newlabel{parvis-du-saint-suxe9pulcre-juxe9rusalem-midi-du-vendredi-16-avril-1154}{{}{106}{Parvis du Saint-Sépulcre, Jérusalem, midi du vendredi~16~avril~1154}{section.0.9.2}{}}
\@writefile{toc}{\contentsline {section}{\numberline {}Notes}{110}{section.0.9.3}\protected@file@percent }
\newlabel{notes-8}{{}{110}{Notes}{section.0.9.3}{}}
\@writefile{toc}{\contentsline {section}{\numberline {}Références}{111}{section.0.9.4}\protected@file@percent }
\newlabel{ruxe9fuxe9rences-8}{{}{111}{Références}{section.0.9.4}{}}
\@writefile{toc}{\contentsline {chapter}{\numberline {10}Amis pour la vie}{113}{chapter.0.10}\protected@file@percent }
\@writefile{lof}{\addvspace {10\p@ }}
\@writefile{lot}{\addvspace {10\p@ }}
\newlabel{amis-pour-la-vie}{{10}{113}{Amis pour la vie}{chapter.0.10}{}}
\@writefile{toc}{\contentsline {section}{\numberline {}Abords du Bourg-l'Évêque, Bayeux, mercredi~3~novembre~1148}{113}{section.0.10.1}\protected@file@percent }
\newlabel{abords-du-bourg-luxe9vuxeaque-bayeux-mercredi-3-novembre-1148}{{}{113}{Abords du Bourg-l'Évêque, Bayeux, mercredi~3~novembre~1148}{section.0.10.1}{}}
\@writefile{toc}{\contentsline {section}{\numberline {}Bayeux, vendredi 5~novembre~1148}{116}{section.0.10.2}\protected@file@percent }
\newlabel{bayeux-vendredi-5-novembre-1148}{{}{116}{Bayeux, vendredi 5~novembre~1148}{section.0.10.2}{}}
\@writefile{toc}{\contentsline {section}{\numberline {}Bayeux, tôt le matin du jeudi~1\textsuperscript  {er}~mai~1152}{120}{section.0.10.3}\protected@file@percent }
\newlabel{bayeux-tuxf4t-le-matin-du-jeudi-1er-mai-1152}{{}{120}{Bayeux, tôt le matin du jeudi~1\textsuperscript {er}~mai~1152}{section.0.10.3}{}}
\@writefile{toc}{\contentsline {section}{\numberline {}Vézelay, après-midi du mardi~29~mai~1156}{123}{section.0.10.4}\protected@file@percent }
\newlabel{vuxe9zelay-apruxe8s-midi-du-mardi-29-mai-1156}{{}{123}{Vézelay, après-midi du mardi~29~mai~1156}{section.0.10.4}{}}
\@writefile{toc}{\contentsline {section}{\numberline {}Notes}{125}{section.0.10.5}\protected@file@percent }
\newlabel{notes-9}{{}{125}{Notes}{section.0.10.5}{}}
\@writefile{toc}{\contentsline {section}{\numberline {}Références}{125}{section.0.10.6}\protected@file@percent }
\newlabel{ruxe9fuxe9rences-9}{{}{125}{Références}{section.0.10.6}{}}
\@writefile{toc}{\contentsline {chapter}{\numberline {11}Délivrance}{127}{chapter.0.11}\protected@file@percent }
\@writefile{lof}{\addvspace {10\p@ }}
\@writefile{lot}{\addvspace {10\p@ }}
\newlabel{duxe9livrance}{{11}{127}{Délivrance}{chapter.0.11}{}}
\@writefile{toc}{\contentsline {section}{\numberline {}Large des côtes de Terre sainte, matin du dimanche~16~octobre~1155}{127}{section.0.11.1}\protected@file@percent }
\newlabel{large-des-cuxf4tes-de-terre-sainte-matin-du-dimanche-16-octobre-1155}{{}{127}{Large des côtes de Terre sainte, matin du dimanche~16~octobre~1155}{section.0.11.1}{}}
\@writefile{toc}{\contentsline {section}{\numberline {}À bord de la galée égyptienne, fin de matinée}{129}{section.0.11.2}\protected@file@percent }
\newlabel{uxe0-bord-de-la-galuxe9e-uxe9gyptienne-fin-de-matinuxe9e}{{}{129}{À bord de la galée égyptienne, fin de matinée}{section.0.11.2}{}}
\@writefile{toc}{\contentsline {section}{\numberline {}Cale du Peregrina, vers midi}{131}{section.0.11.3}\protected@file@percent }
\newlabel{cale-du-peregrina-vers-midi}{{}{131}{Cale du Peregrina, vers midi}{section.0.11.3}{}}
\@writefile{toc}{\contentsline {section}{\numberline {}Pont du Peregrina, midi}{133}{section.0.11.4}\protected@file@percent }
\newlabel{pont-du-peregrina-midi}{{}{133}{Pont du Peregrina, midi}{section.0.11.4}{}}
\@writefile{toc}{\contentsline {section}{\numberline {}Notes}{136}{section.0.11.5}\protected@file@percent }
\newlabel{notes-10}{{}{136}{Notes}{section.0.11.5}{}}
\@writefile{toc}{\contentsline {section}{\numberline {}Références}{137}{section.0.11.6}\protected@file@percent }
\newlabel{ruxe9fuxe9rences-10}{{}{137}{Références}{section.0.11.6}{}}
\@writefile{toc}{\contentsline {chapter}{\numberline {12}Là-bas}{139}{chapter.0.12}\protected@file@percent }
\@writefile{lof}{\addvspace {10\p@ }}
\@writefile{lot}{\addvspace {10\p@ }}
\newlabel{luxe0-bas}{{12}{139}{Là-bas}{chapter.0.12}{}}
\@writefile{toc}{\contentsline {section}{\numberline {}Le Monteil, mercredi~4~novembre~1142}{139}{section.0.12.1}\protected@file@percent }
\newlabel{le-monteil-mercredi-4-novembre-1142}{{}{139}{Le Monteil, mercredi~4~novembre~1142}{section.0.12.1}{}}
\@writefile{toc}{\contentsline {section}{\numberline {}Église de Dienne, dimanche~2~juillet~1144}{143}{section.0.12.2}\protected@file@percent }
\newlabel{uxe9glise-de-dienne-dimanche-2-juillet-1144}{{}{143}{Église de Dienne, dimanche~2~juillet~1144}{section.0.12.2}{}}
\@writefile{toc}{\contentsline {section}{\numberline {}Le Monteil, jeudi~19~décembre~1146}{148}{section.0.12.3}\protected@file@percent }
\newlabel{le-monteil-jeudi-19-duxe9cembre-1146}{{}{148}{Le Monteil, jeudi~19~décembre~1146}{section.0.12.3}{}}
\@writefile{toc}{\contentsline {section}{\numberline {}Notes}{152}{section.0.12.4}\protected@file@percent }
\newlabel{notes-11}{{}{152}{Notes}{section.0.12.4}{}}
\@writefile{toc}{\contentsline {section}{\numberline {}Références}{152}{section.0.12.5}\protected@file@percent }
\newlabel{ruxe9fuxe9rences-11}{{}{152}{Références}{section.0.12.5}{}}
\@writefile{toc}{\contentsline {chapter}{\numberline {13}Cœur vaillant}{153}{chapter.0.13}\protected@file@percent }
\@writefile{lof}{\addvspace {10\p@ }}
\@writefile{lot}{\addvspace {10\p@ }}
\newlabel{cux153ur-vaillant}{{13}{153}{Cœur vaillant}{chapter.0.13}{}}
\@writefile{toc}{\contentsline {section}{\numberline {}Bords de la Marne, environs de Meaux, mardi~17~avril~1151}{153}{section.0.13.1}\protected@file@percent }
\newlabel{bords-de-la-marne-environs-de-meaux-mardi-17-avril-1151}{{}{153}{Bords de la Marne, environs de Meaux, mardi~17~avril~1151}{section.0.13.1}{}}
\@writefile{toc}{\contentsline {section}{\numberline {}Meaux, jeudi~16~juillet~1153}{158}{section.0.13.2}\protected@file@percent }
\newlabel{meaux-jeudi-16-juillet-1153}{{}{158}{Meaux, jeudi~16~juillet~1153}{section.0.13.2}{}}
\@writefile{toc}{\contentsline {section}{\numberline {}Route de Jaffa à Jérusalem, mardi~21~août~1156}{161}{section.0.13.3}\protected@file@percent }
\newlabel{route-de-jaffa-uxe0-juxe9rusalem-mardi-21-aouxfbt-1156}{{}{161}{Route de Jaffa à Jérusalem, mardi~21~août~1156}{section.0.13.3}{}}
\@writefile{toc}{\contentsline {section}{\numberline {}Notes}{165}{section.0.13.4}\protected@file@percent }
\newlabel{notes-12}{{}{165}{Notes}{section.0.13.4}{}}
\@writefile{toc}{\contentsline {section}{\numberline {}Références}{166}{section.0.13.5}\protected@file@percent }
\newlabel{ruxe9fuxe9rences-12}{{}{166}{Références}{section.0.13.5}{}}
\@writefile{toc}{\contentsline {chapter}{\numberline {14}Charité bien ordonnée}{167}{chapter.0.14}\protected@file@percent }
\@writefile{lof}{\addvspace {10\p@ }}
\@writefile{lot}{\addvspace {10\p@ }}
\newlabel{charituxe9-bien-ordonnuxe9e}{{14}{167}{Charité bien ordonnée}{chapter.0.14}{}}
\@writefile{toc}{\contentsline {section}{\numberline {}Saint-Jean d'Acre, taverne d'Ayoul, mercredi~28~mai~1152}{167}{section.0.14.1}\protected@file@percent }
\newlabel{saint-jean-dacre-taverne-dayoul-mercredi-28-mai-1152}{{}{167}{Saint-Jean d'Acre, taverne d'Ayoul, mercredi~28~mai~1152}{section.0.14.1}{}}
\@writefile{toc}{\contentsline {section}{\numberline {}Jérusalem, Grand Hôpital de Saint-Jean, vendredi~30~octobre~1153}{170}{section.0.14.2}\protected@file@percent }
\newlabel{juxe9rusalem-grand-huxf4pital-de-saint-jean-vendredi-30-octobre-1153}{{}{170}{Jérusalem, Grand Hôpital de Saint-Jean, vendredi~30~octobre~1153}{section.0.14.2}{}}
\@writefile{toc}{\contentsline {section}{\numberline {}Notes}{174}{section.0.14.3}\protected@file@percent }
\newlabel{notes-13}{{}{174}{Notes}{section.0.14.3}{}}
\@writefile{toc}{\contentsline {section}{\numberline {}Références}{175}{section.0.14.4}\protected@file@percent }
\newlabel{ruxe9fuxe9rences-13}{{}{175}{Références}{section.0.14.4}{}}
\@writefile{toc}{\contentsline {chapter}{\numberline {15}Épineuse couronne}{177}{chapter.0.15}\protected@file@percent }
\@writefile{lof}{\addvspace {10\p@ }}
\@writefile{lot}{\addvspace {10\p@ }}
\newlabel{uxe9pineuse-couronne}{{15}{177}{Épineuse couronne}{chapter.0.15}{}}
\@writefile{toc}{\contentsline {section}{\numberline {}Abords du Saint-Sépulcre, Jérusalem, matin du lundi~31~mars~1152}{177}{section.0.15.1}\protected@file@percent }
\newlabel{abords-du-saint-suxe9pulcre-juxe9rusalem-matin-du-lundi-31-mars-1152}{{}{177}{Abords du Saint-Sépulcre, Jérusalem, matin du lundi~31~mars~1152}{section.0.15.1}{}}
\@writefile{toc}{\contentsline {section}{\numberline {}Maison de Pierre Salomon, Jérusalem, soir du mardi~8~avril~1152}{180}{section.0.15.2}\protected@file@percent }
\newlabel{maison-de-pierre-salomon-juxe9rusalem-soir-du-mardi-8-avril-1152}{{}{180}{Maison de Pierre Salomon, Jérusalem, soir du mardi~8~avril~1152}{section.0.15.2}{}}
\@writefile{toc}{\contentsline {section}{\numberline {}Abords de la tour de David, Jérusalem, fin de matinée du lundi~14~avril~1152}{183}{section.0.15.3}\protected@file@percent }
\newlabel{abords-de-la-tour-de-david-juxe9rusalem-fin-de-matinuxe9e-du-lundi-14-avril-1152}{{}{183}{Abords de la tour de David, Jérusalem, fin de matinée du lundi~14~avril~1152}{section.0.15.3}{}}
\@writefile{toc}{\contentsline {section}{\numberline {}Notes}{185}{section.0.15.4}\protected@file@percent }
\newlabel{notes-14}{{}{185}{Notes}{section.0.15.4}{}}
\@writefile{toc}{\contentsline {section}{\numberline {}Références}{186}{section.0.15.5}\protected@file@percent }
\newlabel{ruxe9fuxe9rences-14}{{}{186}{Références}{section.0.15.5}{}}
\@writefile{toc}{\contentsline {chapter}{\numberline {16}Léviathan}{189}{chapter.0.16}\protected@file@percent }
\@writefile{lof}{\addvspace {10\p@ }}
\@writefile{lot}{\addvspace {10\p@ }}
\newlabel{luxe9viathan}{{16}{189}{Léviathan}{chapter.0.16}{}}
\@writefile{toc}{\contentsline {section}{\numberline {}Port de Jaffa, matin du mercredi~27~novembre~1157}{189}{section.0.16.1}\protected@file@percent }
\newlabel{port-de-jaffa-matin-du-mercredi-27-novembre-1157}{{}{189}{Port de Jaffa, matin du mercredi~27~novembre~1157}{section.0.16.1}{}}
\@writefile{toc}{\contentsline {section}{\numberline {}Abords de la chapelle Saint-Nicolas, soir du mercredi~27~novembre~1157}{193}{section.0.16.2}\protected@file@percent }
\newlabel{abords-de-la-chapelle-saint-nicolas-soir-du-mercredi-27-novembre-1157}{{}{193}{Abords de la chapelle Saint-Nicolas, soir du mercredi~27~novembre~1157}{section.0.16.2}{}}
\@writefile{toc}{\contentsline {section}{\numberline {}Plage de Jaffa, nuit du mercredi 27 novembre}{195}{section.0.16.3}\protected@file@percent }
\newlabel{plage-de-jaffa-nuit-du-mercredi-27-novembre}{{}{195}{Plage de Jaffa, nuit du mercredi 27 novembre}{section.0.16.3}{}}
\@writefile{toc}{\contentsline {section}{\numberline {}Notes}{199}{section.0.16.4}\protected@file@percent }
\newlabel{notes-15}{{}{199}{Notes}{section.0.16.4}{}}
\@writefile{toc}{\contentsline {section}{\numberline {}Références}{200}{section.0.16.5}\protected@file@percent }
\newlabel{ruxe9fuxe9rences-15}{{}{200}{Références}{section.0.16.5}{}}
\@writefile{toc}{\contentsline {chapter}{\numberline {17}L'ennemi intime}{201}{chapter.0.17}\protected@file@percent }
\@writefile{lof}{\addvspace {10\p@ }}
\@writefile{lot}{\addvspace {10\p@ }}
\newlabel{lennemi-intime}{{17}{201}{L'ennemi intime}{chapter.0.17}{}}
\@writefile{toc}{\contentsline {section}{\numberline {}Abords du village de Rabwé, environ de Damas, matin du lundi~26~juillet~1148}{201}{section.0.17.1}\protected@file@percent }
\newlabel{abords-du-village-de-rabwuxe9-environ-de-damas-matin-du-lundi-26-juillet-1148}{{}{201}{Abords du village de Rabwé, environ de Damas, matin du lundi~26~juillet~1148}{section.0.17.1}{}}
\@writefile{toc}{\contentsline {section}{\numberline {}Village de Rabwé, soir du lundi~26~juillet}{204}{section.0.17.2}\protected@file@percent }
\newlabel{village-de-rabwuxe9-soir-du-lundi-26-juillet}{{}{204}{Village de Rabwé, soir du lundi~26~juillet}{section.0.17.2}{}}
\@writefile{toc}{\contentsline {section}{\numberline {}Oasis sud-ouest de Damas, matin du 29~juillet}{208}{section.0.17.3}\protected@file@percent }
\newlabel{oasis-sud-ouest-de-damas-matin-du-29-juillet}{{}{208}{Oasis sud-ouest de Damas, matin du 29~juillet}{section.0.17.3}{}}
\@writefile{toc}{\contentsline {section}{\numberline {}Notes}{209}{section.0.17.4}\protected@file@percent }
\newlabel{notes-16}{{}{209}{Notes}{section.0.17.4}{}}
\@writefile{toc}{\contentsline {section}{\numberline {}Références}{210}{section.0.17.5}\protected@file@percent }
\newlabel{ruxe9fuxe9rences-16}{{}{210}{Références}{section.0.17.5}{}}
\@writefile{toc}{\contentsline {chapter}{\numberline {18}Malquisinat}{211}{chapter.0.18}\protected@file@percent }
\@writefile{lof}{\addvspace {10\p@ }}
\@writefile{lot}{\addvspace {10\p@ }}
\newlabel{malquisinat}{{18}{211}{Malquisinat}{chapter.0.18}{}}
\@writefile{toc}{\contentsline {section}{\numberline {}Quartier du palais royal, Jérusalem, fin de matinée du lundi~3~mars~1158}{211}{section.0.18.1}\protected@file@percent }
\newlabel{quartier-du-palais-royal-juxe9rusalem-fin-de-matinuxe9e-du-lundi-3-mars-1158}{{}{211}{Quartier du palais royal, Jérusalem, fin de matinée du lundi~3~mars~1158}{section.0.18.1}{}}
\@writefile{toc}{\contentsline {section}{\numberline {}Malquisinat, Jérusalem, matin du mardi~4~mars~1158}{215}{section.0.18.2}\protected@file@percent }
\newlabel{malquisinat-juxe9rusalem-matin-du-mardi-4-mars-1158}{{}{215}{Malquisinat, Jérusalem, matin du mardi~4~mars~1158}{section.0.18.2}{}}
\@writefile{toc}{\contentsline {section}{\numberline {}Rue de David, près du change, début de soirée du jeudi~3~avril~1158}{218}{section.0.18.3}\protected@file@percent }
\newlabel{rue-de-david-pruxe8s-du-change-duxe9but-de-soiruxe9e-du-jeudi-3-avril-1158}{{}{218}{Rue de David, près du change, début de soirée du jeudi~3~avril~1158}{section.0.18.3}{}}
\@writefile{toc}{\contentsline {section}{\numberline {}Église Saint-Sauveur, Jardins de Gethsémani, après-midi du lundi~7~avril~1158}{221}{section.0.18.4}\protected@file@percent }
\newlabel{uxe9glise-saint-sauveur-jardins-de-gethsuxe9mani-apruxe8s-midi-du-lundi-7-avril-1158}{{}{221}{Église Saint-Sauveur, Jardins de Gethsémani, après-midi du lundi~7~avril~1158}{section.0.18.4}{}}
\@writefile{toc}{\contentsline {section}{\numberline {}Notes}{223}{section.0.18.5}\protected@file@percent }
\newlabel{notes-17}{{}{223}{Notes}{section.0.18.5}{}}
\@writefile{toc}{\contentsline {section}{\numberline {}Références}{225}{section.0.18.6}\protected@file@percent }
\newlabel{ruxe9fuxe9rences-17}{{}{225}{Références}{section.0.18.6}{}}
\@writefile{toc}{\contentsline {chapter}{\numberline {19}Mêh}{227}{chapter.0.19}\protected@file@percent }
\@writefile{lof}{\addvspace {10\p@ }}
\@writefile{lot}{\addvspace {10\p@ }}
\newlabel{muxeah}{{19}{227}{Mêh}{chapter.0.19}{}}
\@writefile{toc}{\contentsline {section}{\numberline {}Plateau du Golan, fin d'après-midi du mardi~12~février~1157}{227}{section.0.19.1}\protected@file@percent }
\newlabel{plateau-du-golan-fin-dapruxe8s-midi-du-mardi-12-fuxe9vrier-1157}{{}{227}{Plateau du Golan, fin d'après-midi du mardi~12~février~1157}{section.0.19.1}{}}
\@writefile{toc}{\contentsline {section}{\numberline {}Chateau Emmaüs, matinée du jeudi~16~mai~1157}{231}{section.0.19.2}\protected@file@percent }
\newlabel{chateau-emmauxfcs-matinuxe9e-du-jeudi-16-mai-1157}{{}{231}{Chateau Emmaüs, matinée du jeudi~16~mai~1157}{section.0.19.2}{}}
\@writefile{toc}{\contentsline {section}{\numberline {}Jérusalem, entrepôts des hospitaliers de Saint-Jean, après-midi du jeudi~20~juin~1157}{233}{section.0.19.3}\protected@file@percent }
\newlabel{juxe9rusalem-entrepuxf4ts-des-hospitaliers-de-saint-jean-apruxe8s-midi-du-jeudi-20-juin-1157}{{}{233}{Jérusalem, entrepôts des hospitaliers de Saint-Jean, après-midi du jeudi~20~juin~1157}{section.0.19.3}{}}
\@writefile{toc}{\contentsline {section}{\numberline {}Plaine d'Esdrelon, midi du mardi~15~octobre~1157}{236}{section.0.19.4}\protected@file@percent }
\newlabel{plaine-desdrelon-midi-du-mardi-15-octobre-1157}{{}{236}{Plaine d'Esdrelon, midi du mardi~15~octobre~1157}{section.0.19.4}{}}
\@writefile{toc}{\contentsline {section}{\numberline {}Notes}{239}{section.0.19.5}\protected@file@percent }
\newlabel{notes-18}{{}{239}{Notes}{section.0.19.5}{}}
\@writefile{toc}{\contentsline {section}{\numberline {}Références}{239}{section.0.19.6}\protected@file@percent }
\newlabel{ruxe9fuxe9rences-18}{{}{239}{Références}{section.0.19.6}{}}
\@writefile{toc}{\contentsline {chapter}{\numberline {20}Chétif destin}{241}{chapter.0.20}\protected@file@percent }
\@writefile{lof}{\addvspace {10\p@ }}
\@writefile{lot}{\addvspace {10\p@ }}
\newlabel{chuxe9tif-destin}{{20}{241}{Chétif destin}{chapter.0.20}{}}
\@writefile{toc}{\contentsline {section}{\numberline {}Meleha, abords du lac de Houla, soirée du mardi~18~juin~1157}{241}{section.0.20.1}\protected@file@percent }
\newlabel{meleha-abords-du-lac-de-houla-soiruxe9e-du-mardi-18-juin-1157}{{}{241}{Meleha, abords du lac de Houla, soirée du mardi~18~juin~1157}{section.0.20.1}{}}
\@writefile{toc}{\contentsline {section}{\numberline {}Abords du Jourdain, soir du mercredi~19~juin~1157}{244}{section.0.20.2}\protected@file@percent }
\newlabel{abords-du-jourdain-soir-du-mercredi-19-juin-1157}{{}{244}{Abords du Jourdain, soir du mercredi~19~juin~1157}{section.0.20.2}{}}
\@writefile{toc}{\contentsline {section}{\numberline {}Damas, matin du lundi~24~juin~1157}{246}{section.0.20.3}\protected@file@percent }
\newlabel{damas-matin-du-lundi-24-juin-1157}{{}{246}{Damas, matin du lundi~24~juin~1157}{section.0.20.3}{}}
\@writefile{toc}{\contentsline {section}{\numberline {}Notes}{248}{section.0.20.4}\protected@file@percent }
\newlabel{notes-19}{{}{248}{Notes}{section.0.20.4}{}}
\@writefile{toc}{\contentsline {section}{\numberline {}Références}{249}{section.0.20.5}\protected@file@percent }
\newlabel{ruxe9fuxe9rences-19}{{}{249}{Références}{section.0.20.5}{}}
\@writefile{toc}{\contentsline {chapter}{\numberline {21}Branleterre}{251}{chapter.0.21}\protected@file@percent }
\@writefile{lof}{\addvspace {10\p@ }}
\@writefile{lot}{\addvspace {10\p@ }}
\newlabel{branleterre}{{21}{251}{Branleterre}{chapter.0.21}{}}
\@writefile{toc}{\contentsline {section}{\numberline {}Damas, sud de la Ghûta, fin de matinée du lundi~12~août~1157}{251}{section.0.21.1}\protected@file@percent }
\newlabel{damas-sud-de-la-ghuxfbta-fin-de-matinuxe9e-du-lundi-12-aouxfbt-1157}{{}{251}{Damas, sud de la Ghûta, fin de matinée du lundi~12~août~1157}{section.0.21.1}{}}
\@writefile{toc}{\contentsline {section}{\numberline {}Damas, soirée du youm al~joumouia, 12~ramadan~552}{254}{section.0.21.2}\protected@file@percent }
\newlabel{damas-soiruxe9e-du-youm-al-joumouia-12-ramadan-55296}{{}{254}{Damas, soirée du youm al~joumouia, 12~ramadan~552}{section.0.21.2}{}}
\@writefile{toc}{\contentsline {section}{\numberline {}Shayzar, soir du vendredi~22~novembre~1157}{257}{section.0.21.3}\protected@file@percent }
\newlabel{shayzar-soir-du-vendredi-22-novembre-1157}{{}{257}{Shayzar, soir du vendredi~22~novembre~1157}{section.0.21.3}{}}
\@writefile{toc}{\contentsline {section}{\numberline {}Notes}{259}{section.0.21.4}\protected@file@percent }
\newlabel{notes-20}{{}{259}{Notes}{section.0.21.4}{}}
\@writefile{toc}{\contentsline {section}{\numberline {}Références}{260}{section.0.21.5}\protected@file@percent }
\newlabel{ruxe9fuxe9rences-20}{{}{260}{Références}{section.0.21.5}{}}
\@writefile{toc}{\contentsline {chapter}{\numberline {22}In vino veritas}{261}{chapter.0.22}\protected@file@percent }
\@writefile{lof}{\addvspace {10\p@ }}
\@writefile{lot}{\addvspace {10\p@ }}
\newlabel{in-vino-veritas}{{22}{261}{In vino veritas}{chapter.0.22}{}}
\@writefile{toc}{\contentsline {section}{\numberline {}Terre sainte, abords de Naplouse, après-midi du mercredi~22~février~1156}{261}{section.0.22.1}\protected@file@percent }
\newlabel{terre-sainte-abords-de-naplouse-apruxe8s-midi-du-mercredi-22-fuxe9vrier-1156}{{}{261}{Terre sainte, abords de Naplouse, après-midi du mercredi~22~février~1156}{section.0.22.1}{}}
\@writefile{toc}{\contentsline {section}{\numberline {}Naplouse, soirée du mercredi~22~février~1156}{263}{section.0.22.2}\protected@file@percent }
\newlabel{naplouse-soiruxe9e-du-mercredi-22-fuxe9vrier-1156}{{}{263}{Naplouse, soirée du mercredi~22~février~1156}{section.0.22.2}{}}
\@writefile{toc}{\contentsline {section}{\numberline {}Naplouse, après-midi du samedi~25~février~1156}{264}{section.0.22.3}\protected@file@percent }
\newlabel{naplouse-apruxe8s-midi-du-samedi-25-fuxe9vrier-1156}{{}{264}{Naplouse, après-midi du samedi~25~février~1156}{section.0.22.3}{}}
\@writefile{toc}{\contentsline {section}{\numberline {}Naplouse, soirée du samedi~25~février~1156}{266}{section.0.22.4}\protected@file@percent }
\newlabel{naplouse-soiruxe9e-du-samedi-25-fuxe9vrier-1156}{{}{266}{Naplouse, soirée du samedi~25~février~1156}{section.0.22.4}{}}
\@writefile{toc}{\contentsline {section}{\numberline {}Notes}{268}{section.0.22.5}\protected@file@percent }
\newlabel{notes-21}{{}{268}{Notes}{section.0.22.5}{}}
\@writefile{toc}{\contentsline {section}{\numberline {}Références}{268}{section.0.22.6}\protected@file@percent }
\newlabel{ruxe9fuxe9rences-21}{{}{268}{Références}{section.0.22.6}{}}
\@writefile{toc}{\contentsline {chapter}{\numberline {23}Graines d'espoir}{269}{chapter.0.23}\protected@file@percent }
\@writefile{lof}{\addvspace {10\p@ }}
\@writefile{lot}{\addvspace {10\p@ }}
\newlabel{graines-despoir}{{23}{269}{Graines d'espoir}{chapter.0.23}{}}
\@writefile{toc}{\contentsline {section}{\numberline {}Jérusalem, vendredi~26~avril~1157}{269}{section.0.23.1}\protected@file@percent }
\newlabel{juxe9rusalem-vendredi-26-avril-1157}{{}{269}{Jérusalem, vendredi~26~avril~1157}{section.0.23.1}{}}
\@writefile{toc}{\contentsline {section}{\numberline {}Jérusalem, matin du mardi~7~mai~1157}{271}{section.0.23.2}\protected@file@percent }
\newlabel{juxe9rusalem-matin-du-mardi-7-mai-1157}{{}{271}{Jérusalem, matin du mardi~7~mai~1157}{section.0.23.2}{}}
\@writefile{toc}{\contentsline {section}{\numberline {}Casal de la Mahomerie, midi du mercredi~29~mai~1157}{274}{section.0.23.3}\protected@file@percent }
\newlabel{casal-de-la-mahomerie-midi-du-mercredi-29-mai-1157}{{}{274}{Casal de la Mahomerie, midi du mercredi~29~mai~1157}{section.0.23.3}{}}
\@writefile{toc}{\contentsline {section}{\numberline {}Notes}{276}{section.0.23.4}\protected@file@percent }
\newlabel{notes-22}{{}{276}{Notes}{section.0.23.4}{}}
\@writefile{toc}{\contentsline {section}{\numberline {}Références}{276}{section.0.23.5}\protected@file@percent }
\newlabel{ruxe9fuxe9rences-22}{{}{276}{Références}{section.0.23.5}{}}
\@writefile{toc}{\contentsline {chapter}{\numberline {24}La reine du nord}{277}{chapter.0.24}\protected@file@percent }
\@writefile{lof}{\addvspace {10\p@ }}
\@writefile{lot}{\addvspace {10\p@ }}
\newlabel{la-reine-du-nord}{{24}{277}{La reine du nord}{chapter.0.24}{}}
\@writefile{toc}{\contentsline {section}{\numberline {}Jérusalem, matin du mardi~3~septembre~1157}{277}{section.0.24.1}\protected@file@percent }
\newlabel{juxe9rusalem-matin-du-mardi-3-septembre-1157}{{}{277}{Jérusalem, matin du mardi~3~septembre~1157}{section.0.24.1}{}}
\@writefile{toc}{\contentsline {section}{\numberline {}Naplouse, fin de journée du mardi~3~septembre~1157}{280}{section.0.24.2}\protected@file@percent }
\newlabel{naplouse-fin-de-journuxe9e-du-mardi-3-septembre-1157}{{}{280}{Naplouse, fin de journée du mardi~3~septembre~1157}{section.0.24.2}{}}
\@writefile{toc}{\contentsline {section}{\numberline {}Naplouse, matin du vendredi~6~septembre~1157}{283}{section.0.24.3}\protected@file@percent }
\newlabel{naplouse-matin-du-vendredi-6-septembre-1157}{{}{283}{Naplouse, matin du vendredi~6~septembre~1157}{section.0.24.3}{}}
\@writefile{toc}{\contentsline {section}{\numberline {}Notes}{286}{section.0.24.4}\protected@file@percent }
\newlabel{notes-23}{{}{286}{Notes}{section.0.24.4}{}}
\@writefile{toc}{\contentsline {section}{\numberline {}Références}{287}{section.0.24.5}\protected@file@percent }
\newlabel{ruxe9fuxe9rences-23}{{}{287}{Références}{section.0.24.5}{}}
\@writefile{toc}{\contentsline {chapter}{\numberline {25}Addenda}{289}{chapter.0.25}\protected@file@percent }
\@writefile{lof}{\addvspace {10\p@ }}
\@writefile{lot}{\addvspace {10\p@ }}
\newlabel{addenda}{{25}{289}{Addenda}{chapter.0.25}{}}
\@writefile{toc}{\contentsline {chapter}{\numberline {26}Un univers pour protagoniste~: Qit'a}{291}{chapter.0.26}\protected@file@percent }
\@writefile{lof}{\addvspace {10\p@ }}
\@writefile{lot}{\addvspace {10\p@ }}
\newlabel{un-univers-pour-protagoniste-qita}{{26}{291}{Un univers pour protagoniste~: Qit'a}{chapter.0.26}{}}
\@writefile{toc}{\contentsline {section}{\numberline {}Des textes courts et fréquents}{292}{section.0.26.1}\protected@file@percent }
\newlabel{des-textes-courts-et-fruxe9quents}{{}{292}{Des textes courts et fréquents}{section.0.26.1}{}}
\@writefile{toc}{\contentsline {section}{\numberline {}De la multiplicité des approches scripturales}{293}{section.0.26.2}\protected@file@percent }
\newlabel{de-la-multiplicituxe9-des-approches-scripturales}{{}{293}{De la multiplicité des approches scripturales}{section.0.26.2}{}}
\@writefile{toc}{\contentsline {section}{\numberline {}De la rigueur historique pour alimenter la cohérence}{294}{section.0.26.3}\protected@file@percent }
\newlabel{de-la-rigueur-historique-pour-alimenter-la-cohuxe9rence}{{}{294}{De la rigueur historique pour alimenter la cohérence}{section.0.26.3}{}}
\@writefile{toc}{\contentsline {section}{\numberline {}Une licence libre pour reverser au pot commun}{297}{section.0.26.4}\protected@file@percent }
\newlabel{une-licence-libre-pour-reverser-au-pot-commun}{{}{297}{Une licence libre pour reverser au pot commun}{section.0.26.4}{}}
\ttl@finishall
