\relax 
\providecommand\hyper@newdestlabel[2]{}
\bbl@cs{beforestart}
\catcode `:\active 
\catcode `;\active 
\catcode `!\active 
\catcode `?\active 
\providecommand\HyperFirstAtBeginDocument{\AtBeginDocument}
\HyperFirstAtBeginDocument{\ifx\hyper@anchor\@undefined
\global\let\oldcontentsline\contentsline
\gdef\contentsline#1#2#3#4{\oldcontentsline{#1}{#2}{#3}}
\global\let\oldnewlabel\newlabel
\gdef\newlabel#1#2{\newlabelxx{#1}#2}
\gdef\newlabelxx#1#2#3#4#5#6{\oldnewlabel{#1}{{#2}{#3}}}
\AtEndDocument{\ifx\hyper@anchor\@undefined
\let\contentsline\oldcontentsline
\let\newlabel\oldnewlabel
\fi}
\fi}
\global\let\hyper@last\relax 
\gdef\HyperFirstAtBeginDocument#1{#1}
\providecommand\HyField@AuxAddToFields[1]{}
\providecommand\HyField@AuxAddToCoFields[2]{}
\babel@aux{french}{}
\@writefile{toc}{\contentsline {chapter}{\numberline {1}Poing de trop}{1}{chapter.0.1}\protected@file@percent }
\@writefile{lof}{\addvspace {10\p@ }}
\@writefile{lot}{\addvspace {10\p@ }}
\newlabel{poing-de-trop}{{1}{1}{Poing de trop}{chapter.0.1}{}}
\@writefile{toc}{\contentsline {section}{\numberline {}Jéricho, midi du vendredi~27~juin~1158}{1}{section.0.1.1}\protected@file@percent }
\newlabel{juxe9richo-midi-du-vendredi-27-juin-1158}{{}{1}{Jéricho, midi du vendredi~27~juin~1158}{section.0.1.1}{}}
\@writefile{toc}{\contentsline {section}{\numberline {}Abords du Fier, matin du mardi~1\textsuperscript  {er}~juillet~1158}{3}{section.0.1.2}\protected@file@percent }
\newlabel{abords-du-fier-matin-du-mardi-1er-juillet-1158}{{}{3}{Abords du Fier, matin du mardi~1\textsuperscript {er}~juillet~1158}{section.0.1.2}{}}
\@writefile{toc}{\contentsline {section}{\numberline {}Château du Fier, fin d'après-midi jeudi~4~septembre~1158}{6}{section.0.1.3}\protected@file@percent }
\newlabel{chuxe2teau-du-fier-fin-dapruxe8s-midi-jeudi-4-septembre-1158}{{}{6}{Château du Fier, fin d'après-midi jeudi~4~septembre~1158}{section.0.1.3}{}}
\@writefile{toc}{\contentsline {section}{\numberline {}Désert d'al-Gifar, après-midi du vendredi~19~septembre~1158}{9}{section.0.1.4}\protected@file@percent }
\newlabel{duxe9sert-dal-gifar-apruxe8s-midi-du-vendredi-19-septembre-1158}{{}{9}{Désert d'al-Gifar, après-midi du vendredi~19~septembre~1158}{section.0.1.4}{}}
\@writefile{toc}{\contentsline {section}{\numberline {}Notes}{12}{section.0.1.5}\protected@file@percent }
\newlabel{notes}{{}{12}{Notes}{section.0.1.5}{}}
\@writefile{toc}{\contentsline {section}{\numberline {}Références}{12}{section.0.1.6}\protected@file@percent }
\newlabel{ruxe9fuxe9rences}{{}{12}{Références}{section.0.1.6}{}}
\@writefile{toc}{\contentsline {chapter}{\numberline {2}Omphalos}{13}{chapter.0.2}\protected@file@percent }
\@writefile{lof}{\addvspace {10\p@ }}
\@writefile{lot}{\addvspace {10\p@ }}
\newlabel{omphalos}{{2}{13}{Omphalos}{chapter.0.2}{}}
\@writefile{toc}{\contentsline {section}{\numberline {}Jérusalem, quartier Saint-Martin, aube du lundi~5~août~1157}{13}{section.0.2.1}\protected@file@percent }
\newlabel{juxe9rusalem-quartier-saint-martin-aube-du-lundi-5-aouxfbt-1157}{{}{13}{Jérusalem, quartier Saint-Martin, aube du lundi~5~août~1157}{section.0.2.1}{}}
\@writefile{toc}{\contentsline {section}{\numberline {}Jérusalem, porte de Sion, matin du lundi~5~août~1157}{15}{section.0.2.2}\protected@file@percent }
\newlabel{juxe9rusalem-porte-de-sion-matin-du-lundi-5-aouxfbt-1157}{{}{15}{Jérusalem, porte de Sion, matin du lundi~5~août~1157}{section.0.2.2}{}}
\@writefile{toc}{\contentsline {section}{\numberline {}Jérusalem, rue du Mont Sion, fin de matinée du lundi~5~août~1157}{18}{section.0.2.3}\protected@file@percent }
\newlabel{juxe9rusalem-rue-du-mont-sion-fin-de-matinuxe9e-du-lundi-5-aouxfbt-1157}{{}{18}{Jérusalem, rue du Mont Sion, fin de matinée du lundi~5~août~1157}{section.0.2.3}{}}
\@writefile{toc}{\contentsline {section}{\numberline {}Jérusalem, palais royal, après-midi du lundi~5~août~1157}{20}{section.0.2.4}\protected@file@percent }
\newlabel{juxe9rusalem-palais-royal-apruxe8s-midi-du-lundi-5-aouxfbt-1157}{{}{20}{Jérusalem, palais royal, après-midi du lundi~5~août~1157}{section.0.2.4}{}}
\@writefile{toc}{\contentsline {section}{\numberline {}Jérusalem, rue de David, fin d'après-midi du lundi~5~août~1157}{23}{section.0.2.5}\protected@file@percent }
\newlabel{juxe9rusalem-rue-de-david-fin-dapruxe8s-midi-du-lundi-5-aouxfbt-1157}{{}{23}{Jérusalem, rue de David, fin d'après-midi du lundi~5~août~1157}{section.0.2.5}{}}
\@writefile{toc}{\contentsline {section}{\numberline {}Notes}{25}{section.0.2.6}\protected@file@percent }
\newlabel{notes-1}{{}{25}{Notes}{section.0.2.6}{}}
\@writefile{toc}{\contentsline {section}{\numberline {}Références}{26}{section.0.2.7}\protected@file@percent }
\newlabel{ruxe9fuxe9rences-1}{{}{26}{Références}{section.0.2.7}{}}
\@writefile{toc}{\contentsline {chapter}{\numberline {3}Hostel et parentèle}{27}{chapter.0.3}\protected@file@percent }
\@writefile{lof}{\addvspace {10\p@ }}
\@writefile{lot}{\addvspace {10\p@ }}
\newlabel{hostel-et-parentuxe8le}{{3}{27}{Hostel et parentèle}{chapter.0.3}{}}
\@writefile{toc}{\contentsline {section}{\numberline {}Jérusalem, parvis du Temple, fin de matinée du samedi~9~janvier~1148}{27}{section.0.3.1}\protected@file@percent }
\newlabel{juxe9rusalem-parvis-du-temple-fin-de-matinuxe9e-du-samedi-9-janvier-1148}{{}{27}{Jérusalem, parvis du Temple, fin de matinée du samedi~9~janvier~1148}{section.0.3.1}{}}
\@writefile{toc}{\contentsline {section}{\numberline {}Jérusalem, cloître du \emph  {Templum Domini}, matin du mercredi 6 septembre 1150}{29}{section.0.3.2}\protected@file@percent }
\newlabel{juxe9rusalem-clouxeetre-du-templum-domini-matin-du-mercredi-6-septembre-1150}{{}{29}{\texorpdfstring {Jérusalem, cloître du \emph {Templum Domini}, matin du mercredi 6 septembre 1150}{Jérusalem, cloître du Templum Domini, matin du mercredi~6~septembre~1150}}{section.0.3.2}{}}
\@writefile{toc}{\contentsline {section}{\numberline {}Jérusalem, piscine de Siloé, soir du mardi~20~mars~1151}{32}{section.0.3.3}\protected@file@percent }
\newlabel{juxe9rusalem-piscine-de-silouxe9-soir-du-mardi-20-mars-1151}{{}{32}{Jérusalem, piscine de Siloé, soir du mardi~20~mars~1151}{section.0.3.3}{}}
\@writefile{toc}{\contentsline {section}{\numberline {}Jérusalem, quartier des tanneurs, veillée du lundi~4~avril~1155}{34}{section.0.3.4}\protected@file@percent }
\newlabel{juxe9rusalem-quartier-des-tanneurs-veilluxe9e-du-lundi-4-avril-1155}{{}{34}{Jérusalem, quartier des tanneurs, veillée du lundi~4~avril~1155}{section.0.3.4}{}}
\@writefile{toc}{\contentsline {section}{\numberline {}Notes}{37}{section.0.3.5}\protected@file@percent }
\newlabel{notes-2}{{}{37}{Notes}{section.0.3.5}{}}
\@writefile{toc}{\contentsline {section}{\numberline {}Références}{38}{section.0.3.6}\protected@file@percent }
\newlabel{ruxe9fuxe9rences-2}{{}{38}{Références}{section.0.3.6}{}}
\@writefile{toc}{\contentsline {chapter}{\numberline {4}Universelle aragne}{39}{chapter.0.4}\protected@file@percent }
\@writefile{lof}{\addvspace {10\p@ }}
\@writefile{lot}{\addvspace {10\p@ }}
\newlabel{universelle-aragne}{{4}{39}{Universelle aragne}{chapter.0.4}{}}
\@writefile{toc}{\contentsline {section}{\numberline {}Tripoli, demeure de Willelmo Marzonus, fin de journée du samedi~10~novembre~1156}{39}{section.0.4.1}\protected@file@percent }
\newlabel{tripoli-demeure-de-willelmo-marzonus-fin-de-journuxe9e-du-samedi-10-novembre-1156}{{}{39}{Tripoli, demeure de Willelmo Marzonus, fin de journée du samedi~10~novembre~1156}{section.0.4.1}{}}
\@writefile{toc}{\contentsline {section}{\numberline {}Shayzar, abords de la citadelle, matin du lundi~21~octobre~1157}{41}{section.0.4.2}\protected@file@percent }
\newlabel{shayzar-abords-de-la-citadelle-matin-du-lundi-21-octobre-1157}{{}{41}{Shayzar, abords de la citadelle, matin du lundi~21~octobre~1157}{section.0.4.2}{}}
\@writefile{toc}{\contentsline {section}{\numberline {}Pont du Fer, midi du mercredi~22~janvier~1158}{45}{section.0.4.3}\protected@file@percent }
\newlabel{pont-du-fer-midi-du-mercredi-22-janvier-1158}{{}{45}{Pont du Fer, midi du mercredi~22~janvier~1158}{section.0.4.3}{}}
\@writefile{toc}{\contentsline {section}{\numberline {}Tripoli, quartier du port, fin de journée du jeudi~27~février~1158}{48}{section.0.4.4}\protected@file@percent }
\newlabel{tripoli-quartier-du-port-fin-de-journuxe9e-du-jeudi-27-fuxe9vrier-1158}{{}{48}{Tripoli, quartier du port, fin de journée du jeudi~27~février~1158}{section.0.4.4}{}}
\@writefile{toc}{\contentsline {section}{\numberline {}Notes}{51}{section.0.4.5}\protected@file@percent }
\newlabel{notes-3}{{}{51}{Notes}{section.0.4.5}{}}
\@writefile{toc}{\contentsline {section}{\numberline {}Références}{52}{section.0.4.6}\protected@file@percent }
\newlabel{ruxe9fuxe9rences-3}{{}{52}{Références}{section.0.4.6}{}}
\@writefile{toc}{\contentsline {chapter}{\numberline {5}Ombres et lumières}{53}{chapter.0.5}\protected@file@percent }
\@writefile{lof}{\addvspace {10\p@ }}
\@writefile{lot}{\addvspace {10\p@ }}
\newlabel{ombres-et-lumiuxe8res}{{5}{53}{Ombres et lumières}{chapter.0.5}{}}
\@writefile{toc}{\contentsline {section}{\numberline {}Jérusalem, porte de David, matin du mardi~18~mars~1158}{53}{section.0.5.1}\protected@file@percent }
\newlabel{juxe9rusalem-porte-de-david-matin-du-mardi-18-mars-1158}{{}{53}{Jérusalem, porte de David, matin du mardi~18~mars~1158}{section.0.5.1}{}}
\@writefile{toc}{\contentsline {section}{\numberline {}Bethléem, palais de l'évêque Raoul, midi du lundi~14~juillet~1158}{57}{section.0.5.2}\protected@file@percent }
\newlabel{bethluxe9em-palais-de-luxe9vuxeaque-raoul-midi-du-lundi-14-juillet-1158}{{}{57}{Bethléem, palais de l'évêque Raoul, midi du lundi~14~juillet~1158}{section.0.5.2}{}}
\@writefile{toc}{\contentsline {section}{\numberline {}Casal de Saint-Gilles, taverne de Clarembaud, veillée du jeudi~11~septembre~1158}{59}{section.0.5.3}\protected@file@percent }
\newlabel{casal-de-saint-gilles-taverne-de-clarembaud-veilluxe9e-du-jeudi-11-septembre-1158}{{}{59}{Casal de Saint-Gilles, taverne de Clarembaud, veillée du jeudi~11~septembre~1158}{section.0.5.3}{}}
\@writefile{toc}{\contentsline {section}{\numberline {}Château de Naplouse, cuisines, soirée du samedi~27~décembre~1158}{62}{section.0.5.4}\protected@file@percent }
\newlabel{chuxe2teau-de-naplouse-cuisines-soiruxe9e-du-samedi-27-duxe9cembre-1158}{{}{62}{Château de Naplouse, cuisines, soirée du samedi~27~décembre~1158}{section.0.5.4}{}}
\@writefile{toc}{\contentsline {section}{\numberline {}Notes}{64}{section.0.5.5}\protected@file@percent }
\newlabel{notes-4}{{}{64}{Notes}{section.0.5.5}{}}
\@writefile{toc}{\contentsline {section}{\numberline {}Références}{64}{section.0.5.6}\protected@file@percent }
\newlabel{ruxe9fuxe9rences-4}{{}{64}{Références}{section.0.5.6}{}}
\@writefile{toc}{\contentsline {chapter}{\numberline {6}L'héritier}{65}{chapter.0.6}\protected@file@percent }
\@writefile{lof}{\addvspace {10\p@ }}
\@writefile{lot}{\addvspace {10\p@ }}
\newlabel{lhuxe9ritier}{{6}{65}{L'héritier}{chapter.0.6}{}}
\@writefile{toc}{\contentsline {section}{\numberline {}Naalein, maison-forte, fin d'après-midi du mardi 20 mai 1147}{65}{section.0.6.1}\protected@file@percent }
\newlabel{naalein-maison-forte-fin-dapruxe8s-midi-du-mardi-20-mai-1147}{{}{65}{Naalein, maison-forte, fin d'après-midi du mardi 20 mai 1147}{section.0.6.1}{}}
\@writefile{toc}{\contentsline {section}{\numberline {}Naalein, maison forte, fin de matinée du dimanche 28 août 1149}{69}{section.0.6.2}\protected@file@percent }
\newlabel{naalein-maison-forte-fin-de-matinuxe9e-du-dimanche-28-aouxfbt-1149}{{}{69}{Naalein, maison forte, fin de matinée du dimanche 28 août 1149}{section.0.6.2}{}}
\@writefile{toc}{\contentsline {section}{\numberline {}Jérusalem, rue de Josaphat, fin d'après-midi du mercredi 22 octobre 1152}{72}{section.0.6.3}\protected@file@percent }
\newlabel{juxe9rusalem-rue-de-josaphat-fin-dapruxe8s-midi-du-mercredi-22-octobre-1152}{{}{72}{Jérusalem, rue de Josaphat, fin d'après-midi du mercredi 22 octobre 1152}{section.0.6.3}{}}
\@writefile{toc}{\contentsline {section}{\numberline {}Jérusalem, palais royal, soirée du mardi 18 novembre 1158}{76}{section.0.6.4}\protected@file@percent }
\newlabel{juxe9rusalem-palais-royal-soiruxe9e-du-mardi-18-novembre-1158}{{}{76}{Jérusalem, palais royal, soirée du mardi 18 novembre 1158}{section.0.6.4}{}}
\@writefile{toc}{\contentsline {section}{\numberline {}Notes}{78}{section.0.6.5}\protected@file@percent }
\newlabel{notes}{{}{78}{Notes}{section.0.6.5}{}}
\@writefile{toc}{\contentsline {section}{\numberline {}Références}{79}{section.0.6.6}\protected@file@percent }
\newlabel{ruxe9fuxe9rences}{{}{79}{Références}{section.0.6.6}{}}
\@writefile{toc}{\contentsline {chapter}{\numberline {7}Gobelet rituel}{81}{chapter.0.7}\protected@file@percent }
\@writefile{lof}{\addvspace {10\p@ }}
\@writefile{lot}{\addvspace {10\p@ }}
\newlabel{gobelet-rituel}{{7}{81}{Gobelet rituel}{chapter.0.7}{}}
\@writefile{toc}{\contentsline {section}{\numberline {}Jérusalem, porte de David, matin du lundi~3~juin~1157}{81}{section.0.7.1}\protected@file@percent }
\newlabel{juxe9rusalem-porte-de-david-matin-du-lundi-3-juin-1157}{{}{81}{Jérusalem, porte de David, matin du lundi~3~juin~1157}{section.0.7.1}{}}
\@writefile{toc}{\contentsline {section}{\numberline {}Jérusalem, palais royal, entrepôts, midi du vendredi~7~juin~1157}{84}{section.0.7.2}\protected@file@percent }
\newlabel{juxe9rusalem-palais-royal-entrepuxf4ts-midi-du-vendredi-7-juin-1157}{{}{84}{Jérusalem, palais royal, entrepôts, midi du vendredi~7~juin~1157}{section.0.7.2}{}}
\@writefile{toc}{\contentsline {section}{\numberline {}Jérusalem, palais royal, cuisines, début d'après-midi du vendredi~7~juin~1157}{87}{section.0.7.3}\protected@file@percent }
\newlabel{juxe9rusalem-palais-royal-cuisines-duxe9but-dapruxe8s-midi-du-vendredi-7-juin-1157}{{}{87}{Jérusalem, palais royal, cuisines, début d'après-midi du vendredi~7~juin~1157}{section.0.7.3}{}}
\@writefile{toc}{\contentsline {section}{\numberline {}Jérusalem, palais royal, hôtellerie, après-midi du vendredi~7~juin~1157}{90}{section.0.7.4}\protected@file@percent }
\newlabel{juxe9rusalem-palais-royal-huxf4tellerie-apruxe8s-midi-du-vendredi-7-juin-1157}{{}{90}{Jérusalem, palais royal, hôtellerie, après-midi du vendredi~7~juin~1157}{section.0.7.4}{}}
\@writefile{toc}{\contentsline {section}{\numberline {}Jérusalem, taverne du père Josce, fin d'après-midi du vendredi~7~juin~1157}{91}{section.0.7.5}\protected@file@percent }
\newlabel{juxe9rusalem-taverne-du-puxe8re-josce-fin-dapruxe8s-midi-du-vendredi-7-juin-1157}{{}{91}{Jérusalem, taverne du père Josce, fin d'après-midi du vendredi~7~juin~1157}{section.0.7.5}{}}
\@writefile{toc}{\contentsline {section}{\numberline {}Notes}{93}{section.0.7.6}\protected@file@percent }
\newlabel{notes-5}{{}{93}{Notes}{section.0.7.6}{}}
\@writefile{toc}{\contentsline {section}{\numberline {}Références}{95}{section.0.7.7}\protected@file@percent }
\newlabel{ruxe9fuxe9rences-5}{{}{95}{Références}{section.0.7.7}{}}
\@writefile{toc}{\contentsline {chapter}{\numberline {8}Acédie}{97}{chapter.0.8}\protected@file@percent }
\@writefile{lof}{\addvspace {10\p@ }}
\@writefile{lot}{\addvspace {10\p@ }}
\newlabel{acuxe9die}{{8}{97}{Acédie}{chapter.0.8}{}}
\@writefile{toc}{\contentsline {section}{\numberline {}Baniyas, après-midi du mercredi~6~novembre~1140}{97}{section.0.8.1}\protected@file@percent }
\newlabel{baniyas-apruxe8s-midi-du-mercredi-6-novembre-1140}{{}{97}{Baniyas, après-midi du mercredi~6~novembre~1140}{section.0.8.1}{}}
\@writefile{toc}{\contentsline {section}{\numberline {}Baniyas, soir du vendredi~28~décembre~1151}{101}{section.0.8.2}\protected@file@percent }
\newlabel{baniyas-soir-du-vendredi-28-duxe9cembre-1151}{{}{101}{Baniyas, soir du vendredi~28~décembre~1151}{section.0.8.2}{}}
\@writefile{toc}{\contentsline {section}{\numberline {}Baniyas, cloître canonial, midi du vendredi~13~janvier~1156}{106}{section.0.8.3}\protected@file@percent }
\newlabel{baniyas-clouxeetre-canonial-midi-du-vendredi-13-janvier-1156}{{}{106}{Baniyas, cloître canonial, midi du vendredi~13~janvier~1156}{section.0.8.3}{}}
\@writefile{toc}{\contentsline {section}{\numberline {}Baniyas, souk des cordonniers, soir du lundi~20~mai~1157}{109}{section.0.8.4}\protected@file@percent }
\newlabel{baniyas-souk-des-cordonniers-soir-du-lundi-20-mai-1157}{{}{109}{Baniyas, souk des cordonniers, soir du lundi~20~mai~1157}{section.0.8.4}{}}
\@writefile{toc}{\contentsline {section}{\numberline {}Notes}{112}{section.0.8.5}\protected@file@percent }
\newlabel{notes-6}{{}{112}{Notes}{section.0.8.5}{}}
\@writefile{toc}{\contentsline {section}{\numberline {}Références}{113}{section.0.8.6}\protected@file@percent }
\newlabel{ruxe9fuxe9rences-6}{{}{113}{Références}{section.0.8.6}{}}
\@writefile{toc}{\contentsline {chapter}{\numberline {9}Liaisons dangereuses}{115}{chapter.0.9}\protected@file@percent }
\@writefile{lof}{\addvspace {10\p@ }}
\@writefile{lot}{\addvspace {10\p@ }}
\newlabel{liaisons-dangereuses}{{9}{115}{Liaisons dangereuses}{chapter.0.9}{}}
\@writefile{toc}{\contentsline {section}{\numberline {}Palais royal, salle basse, après-midi du samedi~2~février~1157}{115}{section.0.9.1}\protected@file@percent }
\newlabel{palais-royal-salle-basse-apruxe8s-midi-du-samedi-2-fuxe9vrier-1157}{{}{115}{Palais royal, salle basse, après-midi du samedi~2~février~1157}{section.0.9.1}{}}
\@writefile{toc}{\contentsline {section}{\numberline {}Jérusalem, palais royal, chambre du comte de Jaffa, matin du jeudi~20~juin~1157}{118}{section.0.9.2}\protected@file@percent }
\newlabel{juxe9rusalem-palais-royal-chambre-du-comte-de-jaffa-matin-du-jeudi-20-juin-1157}{{}{118}{Jérusalem, palais royal, chambre du comte de Jaffa, matin du jeudi~20~juin~1157}{section.0.9.2}{}}
\@writefile{toc}{\contentsline {section}{\numberline {}Jérusalem, église du Saint-Sépulcre, matin du vendredi~16~août~1157}{122}{section.0.9.3}\protected@file@percent }
\newlabel{juxe9rusalem-uxe9glise-du-saint-suxe9pulcre-matin-du-vendredi-16-aouxfbt-1157}{{}{122}{Jérusalem, église du Saint-Sépulcre, matin du vendredi~16~août~1157}{section.0.9.3}{}}
\@writefile{toc}{\contentsline {section}{\numberline {}Notes}{126}{section.0.9.4}\protected@file@percent }
\newlabel{notes-7}{{}{126}{Notes}{section.0.9.4}{}}
\@writefile{toc}{\contentsline {section}{\numberline {}Références}{127}{section.0.9.5}\protected@file@percent }
\newlabel{ruxe9fuxe9rences-7}{{}{127}{Références}{section.0.9.5}{}}
\@writefile{toc}{\contentsline {chapter}{\numberline {10}Fléau ballant}{129}{chapter.0.10}\protected@file@percent }
\@writefile{lof}{\addvspace {10\p@ }}
\@writefile{lot}{\addvspace {10\p@ }}
\newlabel{fluxe9au-ballant}{{10}{129}{Fléau ballant}{chapter.0.10}{}}
\@writefile{toc}{\contentsline {section}{\numberline {}Abords de Souq Wadi Barada, midi du youm~al~khemis 11~dhu~al-qi'dah~548}{129}{section.0.10.1}\protected@file@percent }
\newlabel{abords-de-souq-wadi-barada-midi-du-youm-al-khemis-11-dhu-al-qi'dah-54838}{{}{129}{Abords de Souq Wadi Barada, midi du youm~al~khemis 11~dhu~al-qi'dah~548}{section.0.10.1}{}}
\@writefile{toc}{\contentsline {section}{\numberline {}Village de Taranjeh, demeure du ra'is, soirée du youm~al~joumouia~16~muharram~549}{133}{section.0.10.2}\protected@file@percent }
\newlabel{village-de-taranjehtaranjeh-demeure-du-rais-soiruxe9e-du-youm-al-joumouia-16-muharram-549}{{}{133}{Village de Taranjeh, demeure du ra'is, soirée du youm~al~joumouia~16~muharram~549}{section.0.10.2}{}}
\@writefile{toc}{\contentsline {section}{\numberline {}Baniyas, après-midi du youm~el~itnine~19~muharram~549}{135}{section.0.10.3}\protected@file@percent }
\newlabel{baniyaspaneas-apruxe8s-midi-du-youm-el-itnine-19-muharram-549}{{}{135}{Baniyas, après-midi du youm~el~itnine~19~muharram~549}{section.0.10.3}{}}
\@writefile{toc}{\contentsline {section}{\numberline {}Baniyas, maison de Giorgos, soirée du youm~el~itnine~19~muharram~549}{139}{section.0.10.4}\protected@file@percent }
\newlabel{baniyas-maison-de-giorgos-soiruxe9e-du-youm-el-itnine-19-muharram-54949}{{}{139}{Baniyas, maison de Giorgos, soirée du youm~el~itnine~19~muharram~549}{section.0.10.4}{}}
\@writefile{toc}{\contentsline {section}{\numberline {}Notes}{140}{section.0.10.5}\protected@file@percent }
\newlabel{notes-8}{{}{140}{Notes}{section.0.10.5}{}}
\@writefile{toc}{\contentsline {section}{\numberline {}Références}{141}{section.0.10.6}\protected@file@percent }
\newlabel{ruxe9fuxe9rences-8}{{}{141}{Références}{section.0.10.6}{}}
\@writefile{toc}{\contentsline {chapter}{\numberline {11}Le disparu}{143}{chapter.0.11}\protected@file@percent }
\@writefile{lof}{\addvspace {10\p@ }}
\@writefile{lot}{\addvspace {10\p@ }}
\newlabel{le-disparu}{{11}{143}{Le disparu}{chapter.0.11}{}}
\@writefile{toc}{\contentsline {section}{\numberline {}Lydda, chambre de l'évêque, matin du mardi~23~septembre~1158}{143}{section.0.11.1}\protected@file@percent }
\newlabel{lydda-chambre-de-luxe9vuxeaque-matin-du-mardi-23-septembre-1158}{{}{143}{Lydda, chambre de l'évêque, matin du mardi~23~septembre~1158}{section.0.11.1}{}}
\@writefile{toc}{\contentsline {section}{\numberline {}Lydda, sacristie de l'église Saint-Georges, matinée du mardi~23~septembre~1158}{146}{section.0.11.2}\protected@file@percent }
\newlabel{lydda-sacristie-de-luxe9glise-saint-georges-matinuxe9e-du-mardi-23-septembre-1158}{{}{146}{Lydda, sacristie de l'église Saint-Georges, matinée du mardi~23~septembre~1158}{section.0.11.2}{}}
\@writefile{toc}{\contentsline {section}{\numberline {}Lydda, chantier de la nouvelle basilique Saint-Georges, fin de matinée du mardi~23~septembre~1158}{148}{section.0.11.3}\protected@file@percent }
\newlabel{lydda-chantier-de-la-nouvelle-basilique-saint-georges-fin-de-matinuxe9e-du-mardi-23-septembre-1158}{{}{148}{Lydda, chantier de la nouvelle basilique Saint-Georges, fin de matinée du mardi~23~septembre~1158}{section.0.11.3}{}}
\@writefile{toc}{\contentsline {section}{\numberline {}Lydda, salle d'audience du palais de l'évêque, après-midi du mardi~23~septembre~1158}{150}{section.0.11.4}\protected@file@percent }
\newlabel{lydda-salle-daudience-du-palais-de-luxe9vuxeaque-apruxe8s-midi-du-mardi-23-septembre-1158}{{}{150}{Lydda, salle d'audience du palais de l'évêque, après-midi du mardi~23~septembre~1158}{section.0.11.4}{}}
\@writefile{toc}{\contentsline {section}{\numberline {}Lydda, chambre de l'évêque, veillée du mardi~23~septembre~1158}{152}{section.0.11.5}\protected@file@percent }
\newlabel{lydda-chambre-de-luxe9vuxeaque-veilluxe9e-du-mardi-23-septembre-1158}{{}{152}{Lydda, chambre de l'évêque, veillée du mardi~23~septembre~1158}{section.0.11.5}{}}
\@writefile{toc}{\contentsline {section}{\numberline {}Lydda, chambre de l'évêque, nuit du mardi~23~septembre~1158}{155}{section.0.11.6}\protected@file@percent }
\newlabel{lydda-chambre-de-luxe9vuxeaque-nuit-du-mardi-23-septembre-1158}{{}{155}{Lydda, chambre de l'évêque, nuit du mardi~23~septembre~1158}{section.0.11.6}{}}
\@writefile{toc}{\contentsline {section}{\numberline {}Notes}{155}{section.0.11.7}\protected@file@percent }
\newlabel{notes-9}{{}{155}{Notes}{section.0.11.7}{}}
\@writefile{toc}{\contentsline {section}{\numberline {}Références}{156}{section.0.11.8}\protected@file@percent }
\newlabel{ruxe9fuxe9rences-9}{{}{156}{Références}{section.0.11.8}{}}
\@writefile{toc}{\contentsline {chapter}{\numberline {12}Basses eaux}{157}{chapter.0.12}\protected@file@percent }
\@writefile{lof}{\addvspace {10\p@ }}
\@writefile{lot}{\addvspace {10\p@ }}
\newlabel{basses-eaux}{{12}{157}{Basses eaux}{chapter.0.12}{}}
\@writefile{toc}{\contentsline {section}{\numberline {}Damas, fin de matinée du youm~el~itnine 10~chawwal~551}{157}{section.0.12.1}\protected@file@percent }
\newlabel{damas-fin-de-matinuxe9e-du-youm-el-itnine-10-chawwal-55156}{{}{157}{Damas, fin de matinée du youm~el~itnine 10~chawwal~551}{section.0.12.1}{}}
\@writefile{toc}{\contentsline {section}{\numberline {}Damas, après-midi du youm~al~had 29~dhu~al-qi’dah~551}{160}{section.0.12.2}\protected@file@percent }
\newlabel{damas-apruxe8s-midi-du-youm-al-had-29-dhu-al-qi’dah-55160}{{}{160}{Damas, après-midi du youm~al~had 29~dhu~al-qi’dah~551}{section.0.12.2}{}}
\@writefile{toc}{\contentsline {section}{\numberline {}Damas, fin d'après-midi du youm~al~sebt 11~muharram~552}{164}{section.0.12.3}\protected@file@percent }
\newlabel{damas-fin-dapruxe8s-midi-du-youm-al-sebt-11-muharram-55263}{{}{164}{Damas, fin d'après-midi du youm~al~sebt 11~muharram~552}{section.0.12.3}{}}
\@writefile{toc}{\contentsline {section}{\numberline {}Notes}{166}{section.0.12.4}\protected@file@percent }
\newlabel{notes-10}{{}{166}{Notes}{section.0.12.4}{}}
\@writefile{toc}{\contentsline {section}{\numberline {}Références}{167}{section.0.12.5}\protected@file@percent }
\newlabel{ruxe9fuxe9rences-10}{{}{167}{Références}{section.0.12.5}{}}
\@writefile{toc}{\contentsline {chapter}{\numberline {13}Petits dieux}{169}{chapter.0.13}\protected@file@percent }
\@writefile{lof}{\addvspace {10\p@ }}
\@writefile{lot}{\addvspace {10\p@ }}
\newlabel{petits-dieux}{{13}{169}{Petits dieux}{chapter.0.13}{}}
\@writefile{toc}{\contentsline {section}{\numberline {}Jérusalem, après-midi du mardi~27~août~1157}{169}{section.0.13.1}\protected@file@percent }
\newlabel{juxe9rusalem-apruxe8s-midi-du-mardi-27-aouxfbt-1157}{{}{169}{Jérusalem, après-midi du mardi~27~août~1157}{section.0.13.1}{}}
\@writefile{toc}{\contentsline {section}{\numberline {}Jérusalem, soirée du vendredi~27~juin~1158}{173}{section.0.13.2}\protected@file@percent }
\newlabel{juxe9rusalem-soiruxe9e-du-vendredi-27-juin-1158}{{}{173}{Jérusalem, soirée du vendredi~27~juin~1158}{section.0.13.2}{}}
\@writefile{toc}{\contentsline {section}{\numberline {}Colteja, nuit du mercredi~5~juin~1387}{174}{section.0.13.3}\protected@file@percent }
\newlabel{coltejacotteughes-nuit-du-mercredi-5-juin-1387}{{}{174}{Colteja, nuit du mercredi~5~juin~1387}{section.0.13.3}{}}
\@writefile{toc}{\contentsline {section}{\numberline {}Notes}{176}{section.0.13.4}\protected@file@percent }
\newlabel{notes-11}{{}{176}{Notes}{section.0.13.4}{}}
\@writefile{toc}{\contentsline {section}{\numberline {}Références}{177}{section.0.13.5}\protected@file@percent }
\newlabel{ruxe9fuxe9rences-11}{{}{177}{Références}{section.0.13.5}{}}
\@writefile{toc}{\contentsline {chapter}{\numberline {14}Oultre Jourdain}{179}{chapter.0.14}\protected@file@percent }
\@writefile{lof}{\addvspace {10\p@ }}
\@writefile{lot}{\addvspace {10\p@ }}
\newlabel{oultre-jourdain}{{14}{179}{Oultre Jourdain}{chapter.0.14}{}}
\@writefile{toc}{\contentsline {section}{\numberline {}Jérusalem, palais royal, après-midi du mercredi~26~février~1158}{179}{section.0.14.1}\protected@file@percent }
\newlabel{juxe9rusalem-palais-royal-apruxe8s-midi-du-mercredi-26-fuxe9vrier-1158}{{}{179}{Jérusalem, palais royal, après-midi du mercredi~26~février~1158}{section.0.14.1}{}}
\@writefile{toc}{\contentsline {section}{\numberline {}Terre de Suète, plaine de Bu\d {t}ay\d {h}a, début d'après-midi du mardi~8~juillet~1158}{183}{section.0.14.2}\protected@file@percent }
\newlabel{terre-de-suuxe8te-plaine-de-buux1e6dayux1e25a-duxe9but-dapruxe8s-midi-du-mardi-8-juillet-1158}{{}{183}{Terre de Suète, plaine de Bu\d {t}ay\d {h}a, début d'après-midi du mardi~8~juillet~1158}{section.0.14.2}{}}
\@writefile{toc}{\contentsline {section}{\numberline {}Terre de Suète, abords du Yarmūk près des caves de Suète, soirée du mercredi~9~juillet~1158}{185}{section.0.14.3}\protected@file@percent }
\newlabel{terre-de-suuxe8te-abords-du-yarmux16bk-pruxe8s-des-caves-de-suuxe8te-soiruxe9e-du-mercredi-9-juillet-1158}{{}{185}{Terre de Suète, abords du Yarmūk près des caves de Suète, soirée du mercredi~9~juillet~1158}{section.0.14.3}{}}
\@writefile{toc}{\contentsline {section}{\numberline {}Notes}{188}{section.0.14.4}\protected@file@percent }
\newlabel{notes-12}{{}{188}{Notes}{section.0.14.4}{}}
\@writefile{toc}{\contentsline {section}{\numberline {}Références}{189}{section.0.14.5}\protected@file@percent }
\newlabel{ruxe9fuxe9rences-12}{{}{189}{Références}{section.0.14.5}{}}
\@writefile{toc}{\contentsline {chapter}{\numberline {15}Dette d'honneur}{191}{chapter.0.15}\protected@file@percent }
\@writefile{lof}{\addvspace {10\p@ }}
\@writefile{lot}{\addvspace {10\p@ }}
\newlabel{dette-dhonneur}{{15}{191}{Dette d'honneur}{chapter.0.15}{}}
\@writefile{toc}{\contentsline {section}{\numberline {}Tyr, soirée du vendredi~18~juillet~1158}{191}{section.0.15.1}\protected@file@percent }
\newlabel{tyr-soiruxe9e-du-vendredi-18-juillet-1158}{{}{191}{Tyr, soirée du vendredi~18~juillet~1158}{section.0.15.1}{}}
\@writefile{toc}{\contentsline {section}{\numberline {}Tyr, boutique de al Faytrouni, midi du lundi~21~juillet~1158}{193}{section.0.15.2}\protected@file@percent }
\newlabel{tyr-boutique-de-al-faytrouni-midi-du-lundi-21-juillet-1158}{{}{193}{Tyr, boutique de al Faytrouni, midi du lundi~21~juillet~1158}{section.0.15.2}{}}
\@writefile{toc}{\contentsline {section}{\numberline {}Tyr, atelier de Fromont le braalier, matin du lundi~29~septembre~1158}{195}{section.0.15.3}\protected@file@percent }
\newlabel{tyr-atelier-de-fromont-le-braalier-matin-du-lundi-29-septembre-1158}{{}{195}{Tyr, atelier de Fromont le braalier, matin du lundi~29~septembre~1158}{section.0.15.3}{}}
\@writefile{toc}{\contentsline {section}{\numberline {}Palais de l'archevêque de Tyr, logement d'Herbelot Gonteux, après-midi du mercredi~1\textsuperscript  {er}~octobre~1158}{198}{section.0.15.4}\protected@file@percent }
\newlabel{palais-de-larchevuxeaque-de-tyr-logement-dherbelot-gonteux-apruxe8s-midi-du-mercredi-1er-octobre-1158}{{}{198}{Palais de l'archevêque de Tyr, logement d'Herbelot Gonteux, après-midi du mercredi~1\textsuperscript {er}~octobre~1158}{section.0.15.4}{}}
\@writefile{toc}{\contentsline {section}{\numberline {}Palais de Pierre de Tyr, bureau de l'archevêque, fin de matinée du jeudi~2~octobre~1158}{201}{section.0.15.5}\protected@file@percent }
\newlabel{palais-de-pierre-de-tyr-bureau-de-larchevuxeaque-fin-de-matinuxe9e-du-jeudi-2-octobre-1158}{{}{201}{Palais de Pierre de Tyr, bureau de l'archevêque, fin de matinée du jeudi~2~octobre~1158}{section.0.15.5}{}}
\@writefile{toc}{\contentsline {section}{\numberline {}Notes}{204}{section.0.15.6}\protected@file@percent }
\newlabel{notes-13}{{}{204}{Notes}{section.0.15.6}{}}
\@writefile{toc}{\contentsline {section}{\numberline {}Références}{204}{section.0.15.7}\protected@file@percent }
\newlabel{ruxe9fuxe9rences-13}{{}{204}{Références}{section.0.15.7}{}}
\@writefile{toc}{\contentsline {chapter}{\numberline {16}O Fortuna}{205}{chapter.0.16}\protected@file@percent }
\@writefile{lof}{\addvspace {10\p@ }}
\@writefile{lot}{\addvspace {10\p@ }}
\newlabel{o-fortuna}{{16}{205}{O Fortuna}{chapter.0.16}{}}
\@writefile{toc}{\contentsline {section}{\numberline {}Shayzar, pont sur l'Oronte, matin du samedi~8~mars~1147}{205}{section.0.16.1}\protected@file@percent }
\newlabel{shayzar-pont-sur-loronte-matin-du-samedi-8-mars-1147}{{}{205}{Shayzar, pont sur l'Oronte, matin du samedi~8~mars~1147}{section.0.16.1}{}}
\@writefile{toc}{\contentsline {section}{\numberline {}Apamée, fin de matinée du jeudi~28~juillet~1149}{208}{section.0.16.2}\protected@file@percent }
\newlabel{apamuxe9e-fin-de-matinuxe9e-du-jeudi-28-juillet-1149}{{}{208}{Apamée, fin de matinée du jeudi~28~juillet~1149}{section.0.16.2}{}}
\@writefile{toc}{\contentsline {section}{\numberline {}Apamée, ruines de la cité antique, début d'après-midi du dimanche~14~juillet~1157}{211}{section.0.16.3}\protected@file@percent }
\newlabel{apamuxe9e-ruines-de-la-cituxe9-antique-duxe9but-dapruxe8s-midi-du-dimanche-14-juillet-1157}{{}{211}{Apamée, ruines de la cité antique, début d'après-midi du dimanche~14~juillet~1157}{section.0.16.3}{}}
\@writefile{toc}{\contentsline {section}{\numberline {}Notes}{214}{section.0.16.4}\protected@file@percent }
\newlabel{notes-14}{{}{214}{Notes}{section.0.16.4}{}}
\@writefile{toc}{\contentsline {section}{\numberline {}Références}{217}{section.0.16.5}\protected@file@percent }
\newlabel{ruxe9fuxe9rences-14}{{}{217}{Références}{section.0.16.5}{}}
\@writefile{toc}{\contentsline {chapter}{\numberline {17}Mercator}{219}{chapter.0.17}\protected@file@percent }
\@writefile{lof}{\addvspace {10\p@ }}
\@writefile{lot}{\addvspace {10\p@ }}
\newlabel{mercator}{{17}{219}{Mercator}{chapter.0.17}{}}
\@writefile{toc}{\contentsline {section}{\numberline {}Alexandrie, fondaco des Pisans, matin du lundi~1\textsuperscript  {er}~avril~1157}{219}{section.0.17.1}\protected@file@percent }
\newlabel{alexandrie-fondaco-des-pisans-matin-du-lundi-1er-avril-1157}{{}{219}{Alexandrie, fondaco des Pisans, matin du lundi~1\textsuperscript {er}~avril~1157}{section.0.17.1}{}}
\@writefile{toc}{\contentsline {section}{\numberline {}Alexandrie, fondaco des Pisans, midi du mercredi~3~avril~1157}{221}{section.0.17.2}\protected@file@percent }
\newlabel{alexandrie-fondaco-des-pisans-midi-du-mercredi-3-avril-1157}{{}{221}{Alexandrie, fondaco des Pisans, midi du mercredi~3~avril~1157}{section.0.17.2}{}}
\@writefile{toc}{\contentsline {section}{\numberline {}Alexandrie, fondaco des Pisans, fin de soirée du samedi~6~avril~1157}{224}{section.0.17.3}\protected@file@percent }
\newlabel{alexandrie-fondaco-des-pisans-fin-de-soiruxe9e-du-samedi-6-avril-1157}{{}{224}{Alexandrie, fondaco des Pisans, fin de soirée du samedi~6~avril~1157}{section.0.17.3}{}}
\@writefile{toc}{\contentsline {section}{\numberline {}Alexandrie, fondaco pisan, midi du mercredi~24~avril~1157}{228}{section.0.17.4}\protected@file@percent }
\newlabel{alexandrie-fondaco-pisan-midi-du-mercredi-24-avril-1157}{{}{228}{Alexandrie, fondaco pisan, midi du mercredi~24~avril~1157}{section.0.17.4}{}}
\@writefile{toc}{\contentsline {section}{\numberline {}Notes}{231}{section.0.17.5}\protected@file@percent }
\newlabel{notes-15}{{}{231}{Notes}{section.0.17.5}{}}
\@writefile{toc}{\contentsline {section}{\numberline {}Références}{231}{section.0.17.6}\protected@file@percent }
\newlabel{ruxe9fuxe9rences-15}{{}{231}{Références}{section.0.17.6}{}}
\@writefile{toc}{\contentsline {chapter}{\numberline {18}Nobilis in nobili}{233}{chapter.0.18}\protected@file@percent }
\@writefile{lof}{\addvspace {10\p@ }}
\@writefile{lot}{\addvspace {10\p@ }}
\newlabel{nobilis-in-nobili}{{18}{233}{Nobilis in nobili}{chapter.0.18}{}}
\@writefile{toc}{\contentsline {section}{\numberline {}Jérusalem, tour de David, veillée du mercredi~27~août~1158}{233}{section.0.18.1}\protected@file@percent }
\newlabel{juxe9rusalem-tour-de-david-veilluxe9e-du-mercredi-27-aouxfbt-1158}{{}{233}{Jérusalem, tour de David, veillée du mercredi~27~août~1158}{section.0.18.1}{}}
\@writefile{toc}{\contentsline {section}{\numberline {}Jérusalem, palais royal, chambre du roi, matin du vendredi~17~octobre~1158}{236}{section.0.18.2}\protected@file@percent }
\newlabel{juxe9rusalem-palais-royal-chambre-du-roi-matin-du-vendredi-17-octobre-1158}{{}{236}{Jérusalem, palais royal, chambre du roi, matin du vendredi~17~octobre~1158}{section.0.18.2}{}}
\@writefile{toc}{\contentsline {section}{\numberline {}Antioche, porte Saint-Georges, midi du mercredi~27~mai~1159}{240}{section.0.18.3}\protected@file@percent }
\newlabel{antioche-porte-saint-georges-midi-du-mercredi-27-mai-1159}{{}{240}{Antioche, porte Saint-Georges, midi du mercredi~27~mai~1159}{section.0.18.3}{}}
\@writefile{toc}{\contentsline {section}{\numberline {}Notes}{243}{section.0.18.4}\protected@file@percent }
\newlabel{notes-16}{{}{243}{Notes}{section.0.18.4}{}}
\@writefile{toc}{\contentsline {section}{\numberline {}Références}{244}{section.0.18.5}\protected@file@percent }
\newlabel{ruxe9fuxe9rences-16}{{}{244}{Références}{section.0.18.5}{}}
\@writefile{toc}{\contentsline {chapter}{\numberline {19}Kleos}{245}{chapter.0.19}\protected@file@percent }
\@writefile{lof}{\addvspace {10\p@ }}
\@writefile{lot}{\addvspace {10\p@ }}
\newlabel{kleos}{{19}{245}{Kleos}{chapter.0.19}{}}
\@writefile{toc}{\contentsline {section}{\numberline {}Naplouse, demeure de la reine mère, soirée du lundi~19~avril~1154}{245}{section.0.19.1}\protected@file@percent }
\newlabel{naplouse-demeure-de-la-reine-muxe8re-soiruxe9e-du-lundi-19-avril-1154}{{}{245}{Naplouse, demeure de la reine mère, soirée du lundi~19~avril~1154}{section.0.19.1}{}}
\@writefile{toc}{\contentsline {section}{\numberline {}Naplouse, jardins de la demeure de la reine, après-midi du lundi~26~avril~1154}{248}{section.0.19.2}\protected@file@percent }
\newlabel{naplouse-jardins-de-la-demeure-de-la-reine-apruxe8s-midi-du-lundi-26-avril-1154}{{}{248}{Naplouse, jardins de la demeure de la reine, après-midi du lundi~26~avril~1154}{section.0.19.2}{}}
\@writefile{toc}{\contentsline {section}{\numberline {}Naplouse, demeure de la reine, soirée du jeudi~17~juin~1154}{251}{section.0.19.3}\protected@file@percent }
\newlabel{naplouse-demeure-de-la-reine-soiruxe9e-du-jeudi-17-juin-1154}{{}{251}{Naplouse, demeure de la reine, soirée du jeudi~17~juin~1154}{section.0.19.3}{}}
\@writefile{toc}{\contentsline {section}{\numberline {}Naplouse, demeure de la reine, veillée du lundi~16~avril~1156}{254}{section.0.19.4}\protected@file@percent }
\newlabel{naplouse-demeure-de-la-reine-veilluxe9e-du-lundi-16-avril-1156}{{}{254}{Naplouse, demeure de la reine, veillée du lundi~16~avril~1156}{section.0.19.4}{}}
\@writefile{toc}{\contentsline {section}{\numberline {}Jérusalem, palais royal, chambre d'Amaury, soirée du lundi~11~février~1157}{257}{section.0.19.5}\protected@file@percent }
\newlabel{juxe9rusalem-palais-royal-chambre-damaury-soiruxe9e-du-lundi-11-fuxe9vrier-1157}{{}{257}{Jérusalem, palais royal, chambre d'Amaury, soirée du lundi~11~février~1157}{section.0.19.5}{}}
\@writefile{toc}{\contentsline {section}{\numberline {}Notes}{258}{section.0.19.6}\protected@file@percent }
\newlabel{notes-17}{{}{258}{Notes}{section.0.19.6}{}}
\@writefile{toc}{\contentsline {section}{\numberline {}Références}{259}{section.0.19.7}\protected@file@percent }
\newlabel{ruxe9fuxe9rences-17}{{}{259}{Références}{section.0.19.7}{}}
\@writefile{toc}{\contentsline {chapter}{\numberline {20}Un royaume en oubli}{261}{chapter.0.20}\protected@file@percent }
\@writefile{lof}{\addvspace {10\p@ }}
\@writefile{lot}{\addvspace {10\p@ }}
\newlabel{un-royaume-en-oubli}{{20}{261}{Un royaume en oubli}{chapter.0.20}{}}
\@writefile{toc}{\contentsline {section}{\numberline {}Caves de Suète, tente chapelle du camp royal, matin du jeudi~10~juillet~1158}{261}{section.0.20.1}\protected@file@percent }
\newlabel{caves-de-suuxe8te-tente-chapelle-du-camp-royal-matin-du-jeudi-10-juillet-1158}{{}{261}{Caves de Suète, tente chapelle du camp royal, matin du jeudi~10~juillet~1158}{section.0.20.1}{}}
\@writefile{toc}{\contentsline {section}{\numberline {}Jérusalem, mont du Temple, après-midi du samedi~25~octobre~1158}{265}{section.0.20.2}\protected@file@percent }
\newlabel{juxe9rusalem-mont-du-temple-apruxe8s-midi-du-samedi-25-octobre-1158}{{}{265}{Jérusalem, mont du Temple, après-midi du samedi~25~octobre~1158}{section.0.20.2}{}}
\@writefile{toc}{\contentsline {section}{\numberline {}Tyr, palais de l'archevêque, après-midi du jeudi~6~novembre~1158}{269}{section.0.20.3}\protected@file@percent }
\newlabel{tyr-palais-de-larchevuxeaque-apruxe8s-midi-du-jeudi-6-novembre-1158}{{}{269}{Tyr, palais de l'archevêque, après-midi du jeudi~6~novembre~1158}{section.0.20.3}{}}
\@writefile{toc}{\contentsline {section}{\numberline {}Lydda, palais de l'évêque Constantin, début d'après-midi du vendredi~5~décembre~1158}{272}{section.0.20.4}\protected@file@percent }
\newlabel{lydda-palais-de-luxe9vuxeaque-constantin-duxe9but-dapruxe8s-midi-du-vendredi-5-duxe9cembre-1158}{{}{272}{Lydda, palais de l'évêque Constantin, début d'après-midi du vendredi~5~décembre~1158}{section.0.20.4}{}}
\@writefile{toc}{\contentsline {section}{\numberline {}Notes}{274}{section.0.20.5}\protected@file@percent }
\newlabel{notes-18}{{}{274}{Notes}{section.0.20.5}{}}
\@writefile{toc}{\contentsline {section}{\numberline {}Références}{275}{section.0.20.6}\protected@file@percent }
\newlabel{ruxe9fuxe9rences-18}{{}{275}{Références}{section.0.20.6}{}}
\@writefile{toc}{\contentsline {chapter}{\numberline {21}Boucles d'or}{277}{chapter.0.21}\protected@file@percent }
\@writefile{lof}{\addvspace {10\p@ }}
\@writefile{lot}{\addvspace {10\p@ }}
\newlabel{boucles-dor}{{21}{277}{Boucles d'or}{chapter.0.21}{}}
\@writefile{toc}{\contentsline {section}{\numberline {}Casal de Mimas, manse familial de Moryse, matin du lundi~9~février~1153}{277}{section.0.21.1}\protected@file@percent }
\newlabel{casal-de-mimas-manse-familial-de-moryse-matin-du-lundi-9-fuxe9vrier-1153}{{}{277}{Casal de Mimas, manse familial de Moryse, matin du lundi~9~février~1153}{section.0.21.1}{}}
\@writefile{toc}{\contentsline {section}{\numberline {}Jérusalem, réfectoire des indigents de Saint-Jean de l'Hôpital, milieu de matinée du lundi~9~mai~1155}{279}{section.0.21.2}\protected@file@percent }
\newlabel{juxe9rusalem-ruxe9fectoire-des-indigents-de-saint-jean-de-lhuxf4pital-milieu-de-matinuxe9e-du-lundi-9-mai-1155}{{}{279}{Jérusalem, réfectoire des indigents de Saint-Jean de l'Hôpital, milieu de matinée du lundi~9~mai~1155}{section.0.21.2}{}}
\@writefile{toc}{\contentsline {section}{\numberline {}Jérusalem, salle des malades de Saint-Jean de l'Hôpital, matin du mardi~9~juillet~1157}{282}{section.0.21.3}\protected@file@percent }
\newlabel{juxe9rusalem-salle-des-malades-de-saint-jean-de-lhuxf4pital-matin-du-mardi-9-juillet-1157}{{}{282}{Jérusalem, salle des malades de Saint-Jean de l'Hôpital, matin du mardi~9~juillet~1157}{section.0.21.3}{}}
\@writefile{toc}{\contentsline {section}{\numberline {}Montagnes de Samarie, matin du vendredi~26~juillet~1157}{285}{section.0.21.4}\protected@file@percent }
\newlabel{montagnes-de-samarie-matin-du-vendredi-26-juillet-1157}{{}{285}{Montagnes de Samarie, matin du vendredi~26~juillet~1157}{section.0.21.4}{}}
\@writefile{toc}{\contentsline {section}{\numberline {}Harim, marché du camp Latin, midi du mardi~7~janvier~1158}{288}{section.0.21.5}\protected@file@percent }
\newlabel{harim-marchuxe9-du-camp-latin-midi-du-mardi-7-janvier-1158}{{}{288}{Harim, marché du camp Latin, midi du mardi~7~janvier~1158}{section.0.21.5}{}}
\@writefile{toc}{\contentsline {section}{\numberline {}Notes}{292}{section.0.21.6}\protected@file@percent }
\newlabel{notes-19}{{}{292}{Notes}{section.0.21.6}{}}
\@writefile{toc}{\contentsline {section}{\numberline {}Références}{292}{section.0.21.7}\protected@file@percent }
\newlabel{ruxe9fuxe9rences-19}{{}{292}{Références}{section.0.21.7}{}}
\ttl@finishall
