<WRAP #shoutbox>
<WRAP group>
== Textes ==
{1}
</WRAP>

<WRAP group>
== Télécharger ==
  * {{{{:fr:qita:{0}.epub|Epub standard}}}}
  * {{{{:fr:qita:{0}_d.epub|Epub pour dyslexiques}}}}
</WRAP>
</WRAP>
