\relax 
\providecommand\hyper@newdestlabel[2]{}
\bbl@cs{beforestart}
\catcode `:\active 
\catcode `;\active 
\catcode `!\active 
\catcode `?\active 
\providecommand\HyperFirstAtBeginDocument{\AtBeginDocument}
\HyperFirstAtBeginDocument{\ifx\hyper@anchor\@undefined
\global\let\oldcontentsline\contentsline
\gdef\contentsline#1#2#3#4{\oldcontentsline{#1}{#2}{#3}}
\global\let\oldnewlabel\newlabel
\gdef\newlabel#1#2{\newlabelxx{#1}#2}
\gdef\newlabelxx#1#2#3#4#5#6{\oldnewlabel{#1}{{#2}{#3}}}
\AtEndDocument{\ifx\hyper@anchor\@undefined
\let\contentsline\oldcontentsline
\let\newlabel\oldnewlabel
\fi}
\fi}
\global\let\hyper@last\relax 
\gdef\HyperFirstAtBeginDocument#1{#1}
\providecommand\HyField@AuxAddToFields[1]{}
\providecommand\HyField@AuxAddToCoFields[2]{}
\babel@aux{french}{}
\@writefile{toc}{\contentsline {chapter}{\numberline {1}Jouvences}{1}{chapter.0.1}\protected@file@percent }
\@writefile{lof}{\addvspace {10\p@ }}
\@writefile{lot}{\addvspace {10\p@ }}
\newlabel{jouvences}{{1}{1}{Jouvences}{chapter.0.1}{}}
\@writefile{toc}{\contentsline {section}{\numberline {}Jérusalem, matin du mardi~16~avril~1157}{1}{section.0.1.1}\protected@file@percent }
\newlabel{juxe9rusalem-matin-du-mardi-16-avril-1157}{{}{1}{Jérusalem, matin du mardi~16~avril~1157}{section.0.1.1}{}}
\@writefile{toc}{\contentsline {section}{\numberline {}Mahomeriola, fin de matinée du dimanche~8~septembre~1157}{4}{section.0.1.2}\protected@file@percent }
\newlabel{mahomeriola-fin-de-matinuxe9e-du-dimanche-8-septembre-1157}{{}{4}{Mahomeriola, fin de matinée du dimanche~8~septembre~1157}{section.0.1.2}{}}
\@writefile{toc}{\contentsline {section}{\numberline {}Jérusalem, midi du jeudi~6~février~1158}{6}{section.0.1.3}\protected@file@percent }
\newlabel{juxe9rusalem-midi-du-jeudi-6-fuxe9vrier-1158}{{}{6}{Jérusalem, midi du jeudi~6~février~1158}{section.0.1.3}{}}
\@writefile{toc}{\contentsline {section}{\numberline {}Notes}{9}{section.0.1.4}\protected@file@percent }
\newlabel{notes}{{}{9}{Notes}{section.0.1.4}{}}
\@writefile{toc}{\contentsline {section}{\numberline {}Références}{10}{section.0.1.5}\protected@file@percent }
\newlabel{ruxe9fuxe9rences}{{}{10}{Références}{section.0.1.5}{}}
\@writefile{toc}{\contentsline {chapter}{\numberline {2}Frères ennemis}{11}{chapter.0.2}\protected@file@percent }
\@writefile{lof}{\addvspace {10\p@ }}
\@writefile{lot}{\addvspace {10\p@ }}
\newlabel{fruxe8res-ennemis}{{2}{11}{Frères ennemis}{chapter.0.2}{}}
\@writefile{toc}{\contentsline {section}{\numberline {}Jérusalem, après-midi du vendredi~19~juillet~1157}{11}{section.0.2.1}\protected@file@percent }
\newlabel{juxe9rusalem-apruxe8s-midi-du-vendredi-19-juillet-1157}{{}{11}{Jérusalem, après-midi du vendredi~19~juillet~1157}{section.0.2.1}{}}
\@writefile{toc}{\contentsline {section}{\numberline {}Jérusalem, soirée du mardi~23~juillet~1157}{14}{section.0.2.2}\protected@file@percent }
\newlabel{juxe9rusalem-soiruxe9e-du-mardi-23-juillet-1157}{{}{14}{Jérusalem, soirée du mardi~23~juillet~1157}{section.0.2.2}{}}
\@writefile{toc}{\contentsline {section}{\numberline {}Jérusalem, fin d'après-midi du mercredi 24 juillet 1157}{16}{section.0.2.3}\protected@file@percent }
\newlabel{juxe9rusalem-fin-dapruxe8s-midi-du-mercredi-24-juillet-1157}{{}{16}{Jérusalem, fin d'après-midi du mercredi 24 juillet 1157}{section.0.2.3}{}}
\@writefile{toc}{\contentsline {section}{\numberline {}Notes}{19}{section.0.2.4}\protected@file@percent }
\newlabel{notes-1}{{}{19}{Notes}{section.0.2.4}{}}
\@writefile{toc}{\contentsline {section}{\numberline {}Références}{20}{section.0.2.5}\protected@file@percent }
\newlabel{ruxe9fuxe9rences-1}{{}{20}{Références}{section.0.2.5}{}}
\@writefile{toc}{\contentsline {chapter}{\numberline {3}Eau de vie}{21}{chapter.0.3}\protected@file@percent }
\@writefile{lof}{\addvspace {10\p@ }}
\@writefile{lot}{\addvspace {10\p@ }}
\newlabel{eau-de-vie}{{3}{21}{Eau de vie}{chapter.0.3}{}}
\@writefile{toc}{\contentsline {section}{\numberline {}Jérusalem, porte de David, fin de matinée du mardi~15~avril~1158}{21}{section.0.3.1}\protected@file@percent }
\newlabel{juxe9rusalem-porte-de-david-fin-de-matinuxe9e-du-mardi-15-avril-1158}{{}{21}{Jérusalem, porte de David, fin de matinée du mardi~15~avril~1158}{section.0.3.1}{}}
\@writefile{toc}{\contentsline {section}{\numberline {}Jérusalem, porte de David, midi du mardi~15~avril~1158}{25}{section.0.3.2}\protected@file@percent }
\newlabel{juxe9rusalem-porte-de-david-midi-du-mardi-15-avril-1158}{{}{25}{Jérusalem, porte de David, midi du mardi~15~avril~1158}{section.0.3.2}{}}
\@writefile{toc}{\contentsline {section}{\numberline {}Bords du Jourdain, dimanche~27~avril~1158}{28}{section.0.3.3}\protected@file@percent }
\newlabel{bords-du-jourdain-dimanche-27-avril-1158}{{}{28}{Bords du Jourdain, dimanche~27~avril~1158}{section.0.3.3}{}}
\@writefile{toc}{\contentsline {section}{\numberline {}Notes}{32}{section.0.3.4}\protected@file@percent }
\newlabel{notes-2}{{}{32}{Notes}{section.0.3.4}{}}
\@writefile{toc}{\contentsline {section}{\numberline {}Références}{33}{section.0.3.5}\protected@file@percent }
\newlabel{ruxe9fuxe9rences-2}{{}{33}{Références}{section.0.3.5}{}}
\@writefile{toc}{\contentsline {chapter}{\numberline {4}Seul au monde}{35}{chapter.0.4}\protected@file@percent }
\@writefile{lof}{\addvspace {10\p@ }}
\@writefile{lot}{\addvspace {10\p@ }}
\newlabel{seul-au-monde}{{4}{35}{Seul au monde}{chapter.0.4}{}}
\@writefile{toc}{\contentsline {section}{\numberline {}Sarûdj, comté d'Édesse, matin du mardi~26~décembre~1144}{35}{section.0.4.1}\protected@file@percent }
\newlabel{saruxfbdj-comtuxe9-duxe9desse-matin-du-mardi-26-duxe9cembre-1144}{{}{35}{Sarûdj, comté d'Édesse, matin du mardi~26~décembre~1144}{section.0.4.1}{}}
\@writefile{toc}{\contentsline {section}{\numberline {}Édesse, midi du samedi~2~novembre~1146}{37}{section.0.4.2}\protected@file@percent }
\newlabel{uxe9desse-midi-du-samedi-2-novembre-1146}{{}{37}{Édesse, midi du samedi~2~novembre~1146}{section.0.4.2}{}}
\@writefile{toc}{\contentsline {section}{\numberline {}Route de Joha, après-midi, mardi~22~août~1150}{39}{section.0.4.3}\protected@file@percent }
\newlabel{route-de-joha-apruxe8s-midi-mardi-22-aouxfbt-1150}{{}{39}{Route de Joha, après-midi, mardi~22~août~1150}{section.0.4.3}{}}
\@writefile{toc}{\contentsline {section}{\numberline {}Notes}{42}{section.0.4.4}\protected@file@percent }
\newlabel{notes-3}{{}{42}{Notes}{section.0.4.4}{}}
\@writefile{toc}{\contentsline {section}{\numberline {}Références}{42}{section.0.4.5}\protected@file@percent }
\newlabel{ruxe9fuxe9rences-3}{{}{42}{Références}{section.0.4.5}{}}
\@writefile{toc}{\contentsline {chapter}{\numberline {5}Ost réal}{43}{chapter.0.5}\protected@file@percent }
\@writefile{lof}{\addvspace {10\p@ }}
\@writefile{lot}{\addvspace {10\p@ }}
\newlabel{ost-ruxe9al}{{5}{43}{Ost réal}{chapter.0.5}{}}
\@writefile{toc}{\contentsline {section}{\numberline {}Baisan, soir du vendredi~30~mai~1158}{43}{section.0.5.1}\protected@file@percent }
\newlabel{baisan-soir-du-vendredi-30-mai-1158}{{}{43}{Baisan, soir du vendredi~30~mai~1158}{section.0.5.1}{}}
\@writefile{toc}{\contentsline {section}{\numberline {}Tibériade, midi du samedi~31~mai~1158}{47}{section.0.5.2}\protected@file@percent }
\newlabel{tibuxe9riade-midi-du-samedi-31-mai-1158}{{}{47}{Tibériade, midi du samedi~31~mai~1158}{section.0.5.2}{}}
\@writefile{toc}{\contentsline {section}{\numberline {}Saint-Jean d'Acre, soirée du samedi~31~mai~1158}{51}{section.0.5.3}\protected@file@percent }
\newlabel{saint-jean-dacre-soiruxe9e-du-samedi-31-mai-1158}{{}{51}{Saint-Jean d'Acre, soirée du samedi~31~mai~1158}{section.0.5.3}{}}
\@writefile{toc}{\contentsline {section}{\numberline {}Notes}{54}{section.0.5.4}\protected@file@percent }
\newlabel{notes-4}{{}{54}{Notes}{section.0.5.4}{}}
\@writefile{toc}{\contentsline {section}{\numberline {}Références}{55}{section.0.5.5}\protected@file@percent }
\newlabel{ruxe9fuxe9rences-4}{{}{55}{Références}{section.0.5.5}{}}
\@writefile{toc}{\contentsline {chapter}{\numberline {6}Au nom du père}{57}{chapter.0.6}\protected@file@percent }
\@writefile{lof}{\addvspace {10\p@ }}
\@writefile{lot}{\addvspace {10\p@ }}
\newlabel{au-nom-du-puxe8re}{{6}{57}{Au nom du père}{chapter.0.6}{}}
\@writefile{toc}{\contentsline {section}{\numberline {}Jérusalem, soir du jeudi~21~novembre~1157}{57}{section.0.6.1}\protected@file@percent }
\newlabel{juxe9rusalem-soir-du-jeudi-21-novembre-1157}{{}{57}{Jérusalem, soir du jeudi~21~novembre~1157}{section.0.6.1}{}}
\@writefile{toc}{\contentsline {section}{\numberline {}Tyr, midi du mardi~7~janvier~1158}{60}{section.0.6.2}\protected@file@percent }
\newlabel{tyr-midi-du-mardi-7-janvier-1158}{{}{60}{Tyr, midi du mardi~7~janvier~1158}{section.0.6.2}{}}
\@writefile{toc}{\contentsline {section}{\numberline {}Bethléem, matin du mardi~18~février~1158}{64}{section.0.6.3}\protected@file@percent }
\newlabel{bethluxe9em-matin-du-mardi-18-fuxe9vrier-1158}{{}{64}{Bethléem, matin du mardi~18~février~1158}{section.0.6.3}{}}
\@writefile{toc}{\contentsline {section}{\numberline {}Notes}{66}{section.0.6.4}\protected@file@percent }
\newlabel{notes-5}{{}{66}{Notes}{section.0.6.4}{}}
\@writefile{toc}{\contentsline {section}{\numberline {}Références}{67}{section.0.6.5}\protected@file@percent }
\newlabel{ruxe9fuxe9rences-5}{{}{67}{Références}{section.0.6.5}{}}
\@writefile{toc}{\contentsline {chapter}{\numberline {7}Scripta manent}{69}{chapter.0.7}\protected@file@percent }
\@writefile{lof}{\addvspace {10\p@ }}
\@writefile{lot}{\addvspace {10\p@ }}
\newlabel{scripta-manent}{{7}{69}{Scripta manent}{chapter.0.7}{}}
\@writefile{toc}{\contentsline {section}{\numberline {}Saint Jean d'Acre, fin de matinée du jeudi~14~octobre~1154}{69}{section.0.7.1}\protected@file@percent }
\newlabel{saint-jean-dacre-fin-de-matinuxe9e-du-jeudi-14-octobre-1154}{{}{69}{Saint Jean d'Acre, fin de matinée du jeudi~14~octobre~1154}{section.0.7.1}{}}
\@writefile{toc}{\contentsline {section}{\numberline {}Plages au sud de Saint Jean d'Acre, après-midi du jeudi~14~octobre~1154}{72}{section.0.7.2}\protected@file@percent }
\newlabel{plages-au-sud-de-saint-jean-dacre-apruxe8s-midi-du-jeudi-14-octobre-1154}{{}{72}{Plages au sud de Saint Jean d'Acre, après-midi du jeudi~14~octobre~1154}{section.0.7.2}{}}
\@writefile{toc}{\contentsline {section}{\numberline {}Damas, fin d'après-midi de youm~al~arbia 3~rabi’~al-thani~584}{76}{section.0.7.3}\protected@file@percent }
\newlabel{damas-fin-dapruxe8s-midi-de-youm-al-arbia-3-rabi-al-thani-58436}{{}{76}{Damas, fin d'après-midi de youm~al~arbia 3~rabi’~al-thani~584}{section.0.7.3}{}}
\@writefile{toc}{\contentsline {section}{\numberline {}Notes}{79}{section.0.7.4}\protected@file@percent }
\newlabel{notes-6}{{}{79}{Notes}{section.0.7.4}{}}
\@writefile{toc}{\contentsline {section}{\numberline {}Références}{80}{section.0.7.5}\protected@file@percent }
\newlabel{ruxe9fuxe9rences-6}{{}{80}{Références}{section.0.7.5}{}}
\@writefile{toc}{\contentsline {chapter}{\numberline {8}Mal chancre}{81}{chapter.0.8}\protected@file@percent }
\@writefile{lof}{\addvspace {10\p@ }}
\@writefile{lot}{\addvspace {10\p@ }}
\newlabel{mal-chancre}{{8}{81}{Mal chancre}{chapter.0.8}{}}
\@writefile{toc}{\contentsline {section}{\numberline {}Césarée, midi du mercredi~3~août~1149}{81}{section.0.8.1}\protected@file@percent }
\newlabel{cuxe9saruxe9e-midi-du-mercredi-3-aouxfbt-1149}{{}{81}{Césarée, midi du mercredi~3~août~1149}{section.0.8.1}{}}
\@writefile{toc}{\contentsline {section}{\numberline {}Césarée, après-midi du dimanche~7~août~1149}{84}{section.0.8.2}\protected@file@percent }
\newlabel{cuxe9saruxe9e-apruxe8s-midi-du-dimanche-7-aouxfbt-1149}{{}{84}{Césarée, après-midi du dimanche~7~août~1149}{section.0.8.2}{}}
\@writefile{toc}{\contentsline {section}{\numberline {}Césarée, matin du lundi~8~août~1149}{86}{section.0.8.3}\protected@file@percent }
\newlabel{cuxe9saruxe9e-matin-du-lundi-8-aouxfbt-1149}{{}{86}{Césarée, matin du lundi~8~août~1149}{section.0.8.3}{}}
\@writefile{toc}{\contentsline {section}{\numberline {}Césarée, midi du lundi~8~août~1149}{89}{section.0.8.4}\protected@file@percent }
\newlabel{cuxe9saruxe9e-midi-du-lundi-8-aouxfbt-1149}{{}{89}{Césarée, midi du lundi~8~août~1149}{section.0.8.4}{}}
\@writefile{toc}{\contentsline {section}{\numberline {}Notes}{91}{section.0.8.5}\protected@file@percent }
\newlabel{notes-7}{{}{91}{Notes}{section.0.8.5}{}}
\@writefile{toc}{\contentsline {section}{\numberline {}Références}{92}{section.0.8.6}\protected@file@percent }
\newlabel{ruxe9fuxe9rences-7}{{}{92}{Références}{section.0.8.6}{}}
\@writefile{toc}{\contentsline {chapter}{\numberline {9}Les trois loups}{93}{chapter.0.9}\protected@file@percent }
\@writefile{lof}{\addvspace {10\p@ }}
\@writefile{lot}{\addvspace {10\p@ }}
\newlabel{les-trois-loups}{{9}{93}{Les trois loups}{chapter.0.9}{}}
\@writefile{toc}{\contentsline {section}{\numberline {}Apchon, fin d'après-midi du mercredi~25~juillet~1156}{93}{section.0.9.1}\protected@file@percent }
\newlabel{apchon-fin-dapruxe8s-midi-du-mercredi-25-juillet-1156}{{}{93}{Apchon, fin d'après-midi du mercredi~25~juillet~1156}{section.0.9.1}{}}
\@writefile{toc}{\contentsline {section}{\numberline {}Plateau du Limon, jeudi~26~juillet~1156}{97}{section.0.9.2}\protected@file@percent }
\newlabel{plateau-du-limon-jeudi-26-juillet-1156}{{}{97}{Plateau du Limon, jeudi~26~juillet~1156}{section.0.9.2}{}}
\@writefile{toc}{\contentsline {section}{\numberline {}Plateau du Limon, après-midi du jeudi~26~juillet~1156}{99}{section.0.9.3}\protected@file@percent }
\newlabel{plateau-du-limon-apruxe8s-midi-du-jeudi-26-juillet-1156}{{}{99}{Plateau du Limon, après-midi du jeudi~26~juillet~1156}{section.0.9.3}{}}
\@writefile{toc}{\contentsline {section}{\numberline {}La Bedice, soir du jeudi~26~juillet~1156}{102}{section.0.9.4}\protected@file@percent }
\newlabel{la-bedice-soir-du-jeudi-26-juillet-1156}{{}{102}{La Bedice, soir du jeudi~26~juillet~1156}{section.0.9.4}{}}
\@writefile{toc}{\contentsline {section}{\numberline {}Plateau du Limon, fin de matinée du vendredi~27~juillet~1156}{104}{section.0.9.5}\protected@file@percent }
\newlabel{plateau-du-limon-fin-de-matinuxe9e-du-vendredi-27-juillet-1156}{{}{104}{Plateau du Limon, fin de matinée du vendredi~27~juillet~1156}{section.0.9.5}{}}
\@writefile{toc}{\contentsline {section}{\numberline {}Plateau du Limon, après-midi du vendredi~27~juillet~1156}{107}{section.0.9.6}\protected@file@percent }
\newlabel{plateau-du-limon-apruxe8s-midi-du-vendredi-27-juillet-1156}{{}{107}{Plateau du Limon, après-midi du vendredi~27~juillet~1156}{section.0.9.6}{}}
\@writefile{toc}{\contentsline {section}{\numberline {}Plateau du Limon, soirée du vendredi~27~juillet~1156}{110}{section.0.9.7}\protected@file@percent }
\newlabel{plateau-du-limon-soiruxe9e-du-vendredi-27-juillet-1156}{{}{110}{Plateau du Limon, soirée du vendredi~27~juillet~1156}{section.0.9.7}{}}
\@writefile{toc}{\contentsline {section}{\numberline {}Notes}{112}{section.0.9.8}\protected@file@percent }
\newlabel{notes-8}{{}{112}{Notes}{section.0.9.8}{}}
\@writefile{toc}{\contentsline {section}{\numberline {}Références}{113}{section.0.9.9}\protected@file@percent }
\newlabel{ruxe9fuxe9rences-8}{{}{113}{Références}{section.0.9.9}{}}
\@writefile{toc}{\contentsline {chapter}{\numberline {10}Par delà les ombres}{115}{chapter.0.10}\protected@file@percent }
\@writefile{lof}{\addvspace {10\p@ }}
\@writefile{lot}{\addvspace {10\p@ }}
\newlabel{par-deluxe0-les-ombres}{{10}{115}{Par delà les ombres}{chapter.0.10}{}}
\@writefile{toc}{\contentsline {section}{\numberline {}Monts du Liban, mardi~10~décembre~1157}{115}{section.0.10.1}\protected@file@percent }
\newlabel{monts-du-liban-mardi-10-duxe9cembre-1157}{{}{115}{Monts du Liban, mardi~10~décembre~1157}{section.0.10.1}{}}
\@writefile{toc}{\contentsline {section}{\numberline {}Monts du Liban, mercredi~18~décembre~1157}{116}{section.0.10.2}\protected@file@percent }
\newlabel{monts-du-liban-mercredi-18-duxe9cembre-1157}{{}{116}{Monts du Liban, mercredi~18~décembre~1157}{section.0.10.2}{}}
\@writefile{toc}{\contentsline {section}{\numberline {}Monts du Liban, vendredi~20~décembre~1157}{118}{section.0.10.3}\protected@file@percent }
\newlabel{monts-du-liban-vendredi-20-duxe9cembre-1157}{{}{118}{Monts du Liban, vendredi~20~décembre~1157}{section.0.10.3}{}}
\@writefile{toc}{\contentsline {section}{\numberline {}Monts du Liban, vendredi~3~janvier~1158}{120}{section.0.10.4}\protected@file@percent }
\newlabel{monts-du-liban-vendredi-3-janvier-1158}{{}{120}{Monts du Liban, vendredi~3~janvier~1158}{section.0.10.4}{}}
\@writefile{toc}{\contentsline {section}{\numberline {}Sidon, mardi~16~septembre~1158}{122}{section.0.10.5}\protected@file@percent }
\newlabel{sidon-mardi-16-septembre-1158}{{}{122}{Sidon, mardi~16~septembre~1158}{section.0.10.5}{}}
\@writefile{toc}{\contentsline {section}{\numberline {}Notes}{124}{section.0.10.6}\protected@file@percent }
\newlabel{notes-9}{{}{124}{Notes}{section.0.10.6}{}}
\@writefile{toc}{\contentsline {section}{\numberline {}Références}{125}{section.0.10.7}\protected@file@percent }
\newlabel{ruxe9fuxe9rences-9}{{}{125}{Références}{section.0.10.7}{}}
\@writefile{toc}{\contentsline {chapter}{\numberline {11}Marchande d'oublies}{127}{chapter.0.11}\protected@file@percent }
\@writefile{lof}{\addvspace {10\p@ }}
\@writefile{lot}{\addvspace {10\p@ }}
\newlabel{marchande-doublies}{{11}{127}{Marchande d'oublies}{chapter.0.11}{}}
\@writefile{toc}{\contentsline {section}{\numberline {}Baisan, matin du jeudi~24~mars~1149}{127}{section.0.11.1}\protected@file@percent }
\newlabel{baisan-matin-du-jeudi-24-mars-1149}{{}{127}{Baisan, matin du jeudi~24~mars~1149}{section.0.11.1}{}}
\@writefile{toc}{\contentsline {section}{\numberline {}Baisan, fin de matinée du jeudi~24~mars~1149}{130}{section.0.11.2}\protected@file@percent }
\newlabel{baisan-fin-de-matinuxe9e-du-jeudi-24-mars-1149}{{}{130}{Baisan, fin de matinée du jeudi~24~mars~1149}{section.0.11.2}{}}
\@writefile{toc}{\contentsline {section}{\numberline {}Baisan, matin du vendredi 25 mars 1149}{133}{section.0.11.3}\protected@file@percent }
\newlabel{baisan-matin-du-vendredi-25-mars-1149}{{}{133}{Baisan, matin du vendredi 25 mars 1149}{section.0.11.3}{}}
\@writefile{toc}{\contentsline {section}{\numberline {}Jérusalem, midi du mardi~9~août~1149}{135}{section.0.11.4}\protected@file@percent }
\newlabel{juxe9rusalem-midi-du-mardi-9-aouxfbt-1149}{{}{135}{Jérusalem, midi du mardi~9~août~1149}{section.0.11.4}{}}
\@writefile{toc}{\contentsline {section}{\numberline {}Notes}{136}{section.0.11.5}\protected@file@percent }
\newlabel{notes-10}{{}{136}{Notes}{section.0.11.5}{}}
\@writefile{toc}{\contentsline {section}{\numberline {}Références}{137}{section.0.11.6}\protected@file@percent }
\newlabel{ruxe9fuxe9rences-10}{{}{137}{Références}{section.0.11.6}{}}
\@writefile{toc}{\contentsline {chapter}{\numberline {12}Liberté}{139}{chapter.0.12}\protected@file@percent }
\@writefile{lof}{\addvspace {10\p@ }}
\@writefile{lot}{\addvspace {10\p@ }}
\newlabel{libertuxe9}{{12}{139}{Liberté}{chapter.0.12}{}}
\@writefile{toc}{\contentsline {section}{\numberline {}Baalbek, nuit du youm~al~sebt 26~dhu~al-qi’dah~550}{139}{section.0.12.1}\protected@file@percent }
\newlabel{baalbek-nuit-du-youm-al-sebt-26-dhu-al-qidah-55057}{{}{139}{Baalbek, nuit du youm~al~sebt 26~dhu~al-qi’dah~550}{section.0.12.1}{}}
\@writefile{toc}{\contentsline {section}{\numberline {}Notes}{145}{section.0.12.2}\protected@file@percent }
\newlabel{notes-11}{{}{145}{Notes}{section.0.12.2}{}}
\@writefile{toc}{\contentsline {section}{\numberline {}Références}{146}{section.0.12.3}\protected@file@percent }
\newlabel{ruxe9fuxe9rences-11}{{}{146}{Références}{section.0.12.3}{}}
\@writefile{toc}{\contentsline {chapter}{\numberline {13}Fils de la louve}{147}{chapter.0.13}\protected@file@percent }
\@writefile{lof}{\addvspace {10\p@ }}
\@writefile{lot}{\addvspace {10\p@ }}
\newlabel{fils-de-la-louve}{{13}{147}{Fils de la louve}{chapter.0.13}{}}
\@writefile{toc}{\contentsline {section}{\numberline {}Rive de la Save, fin de matinée du mercredi~21~novembre~1151}{147}{section.0.13.1}\protected@file@percent }
\newlabel{rive-de-la-save-fin-de-matinuxe9e-du-mercredi-21-novembre-1151}{{}{147}{Rive de la Save, fin de matinée du mercredi~21~novembre~1151}{section.0.13.1}{}}
\@writefile{toc}{\contentsline {section}{\numberline {}Pélagonie, soirée du lundi~10~janvier~1155}{149}{section.0.13.2}\protected@file@percent }
\newlabel{puxe9lagonie-soiruxe9e-du-lundi-10-janvier-1155}{{}{149}{Pélagonie, soirée du lundi~10~janvier~1155}{section.0.13.2}{}}
\@writefile{toc}{\contentsline {section}{\numberline {}Venise, après-midi du mardi~31~mai~1155}{152}{section.0.13.3}\protected@file@percent }
\newlabel{venise-apruxe8s-midi-du-mardi-31-mai-1155}{{}{152}{Venise, après-midi du mardi~31~mai~1155}{section.0.13.3}{}}
\@writefile{toc}{\contentsline {section}{\numberline {}Abords de Sivas, fin d'après-midi du lundi~12~décembre~1155}{155}{section.0.13.4}\protected@file@percent }
\newlabel{abords-de-sivas-fin-dapruxe8s-midi-du-lundi-12-duxe9cembre-1155}{{}{155}{Abords de Sivas, fin d'après-midi du lundi~12~décembre~1155}{section.0.13.4}{}}
\@writefile{toc}{\contentsline {section}{\numberline {}Jérusalem, soirée du jeudi 1\textsuperscript  {er}~août~1157}{158}{section.0.13.5}\protected@file@percent }
\newlabel{juxe9rusalem-soiruxe9e-du-jeudi-1er-aouxfbt-1157}{{}{158}{Jérusalem, soirée du jeudi 1\textsuperscript {er}~août~1157}{section.0.13.5}{}}
\@writefile{toc}{\contentsline {section}{\numberline {}Notes}{161}{section.0.13.6}\protected@file@percent }
\newlabel{notes-12}{{}{161}{Notes}{section.0.13.6}{}}
\@writefile{toc}{\contentsline {section}{\numberline {}Références}{161}{section.0.13.7}\protected@file@percent }
\newlabel{ruxe9fuxe9rences-12}{{}{161}{Références}{section.0.13.7}{}}
\@writefile{toc}{\contentsline {chapter}{\numberline {14}Cens caché}{163}{chapter.0.14}\protected@file@percent }
\@writefile{lof}{\addvspace {10\p@ }}
\@writefile{lot}{\addvspace {10\p@ }}
\newlabel{cens-cachuxe9}{{14}{163}{Cens caché}{chapter.0.14}{}}
\@writefile{toc}{\contentsline {section}{\numberline {}Jérusalem, soirée du vendredi~1\textsuperscript  {er}~mars~1157}{163}{section.0.14.1}\protected@file@percent }
\newlabel{juxe9rusalem-soiruxe9e-du-vendredi-1er-mars-1157}{{}{163}{Jérusalem, soirée du vendredi~1\textsuperscript {er}~mars~1157}{section.0.14.1}{}}
\@writefile{toc}{\contentsline {section}{\numberline {}Jérusalem, après-midi du jeudi~21~mars~1157}{166}{section.0.14.2}\protected@file@percent }
\newlabel{juxe9rusalem-apruxe8s-midi-du-jeudi-21-mars-1157}{{}{166}{Jérusalem, après-midi du jeudi~21~mars~1157}{section.0.14.2}{}}
\@writefile{toc}{\contentsline {section}{\numberline {}Jérusalem, soirée du samedi~20~avril~1157}{169}{section.0.14.3}\protected@file@percent }
\newlabel{juxe9rusalem-soiruxe9e-du-samedi-20-avril-1157}{{}{169}{Jérusalem, soirée du samedi~20~avril~1157}{section.0.14.3}{}}
\@writefile{toc}{\contentsline {section}{\numberline {}Notes}{173}{section.0.14.4}\protected@file@percent }
\newlabel{notes-13}{{}{173}{Notes}{section.0.14.4}{}}
\@writefile{toc}{\contentsline {section}{\numberline {}Références}{174}{section.0.14.5}\protected@file@percent }
\newlabel{ruxe9fuxe9rences-13}{{}{174}{Références}{section.0.14.5}{}}
\@writefile{toc}{\contentsline {chapter}{\numberline {15}Sainte-Marie des Crocodiles}{175}{chapter.0.15}\protected@file@percent }
\@writefile{lof}{\addvspace {10\p@ }}
\@writefile{lot}{\addvspace {10\p@ }}
\newlabel{sainte-marie-des-crocodiles}{{15}{175}{Sainte-Marie des Crocodiles}{chapter.0.15}{}}
\@writefile{toc}{\contentsline {section}{\numberline {}Saint Jean d'Acre, après-midi du lundi~11~mars~1157}{175}{section.0.15.1}\protected@file@percent }
\newlabel{saint-jean-dacre-apruxe8s-midi-du-lundi-11-mars-1157}{{}{175}{Saint Jean d'Acre, après-midi du lundi~11~mars~1157}{section.0.15.1}{}}
\@writefile{toc}{\contentsline {section}{\numberline {}Saint-Jean de Tyre, après-midi du mercredi~13~mars~1157}{178}{section.0.15.2}\protected@file@percent }
\newlabel{saint-jean-de-tyre-apruxe8s-midi-du-mercredi-13-mars-1157}{{}{178}{Saint-Jean de Tyre, après-midi du mercredi~13~mars~1157}{section.0.15.2}{}}
\@writefile{toc}{\contentsline {section}{\numberline {}Abords de Castel-Fenouil, midi du jeudi~14~mars~1157}{181}{section.0.15.3}\protected@file@percent }
\newlabel{abords-de-castel-fenouil-midi-du-jeudi-14-mars-1157}{{}{181}{Abords de Castel-Fenouil, midi du jeudi~14~mars~1157}{section.0.15.3}{}}
\@writefile{toc}{\contentsline {section}{\numberline {}Notes}{185}{section.0.15.4}\protected@file@percent }
\newlabel{notes-14}{{}{185}{Notes}{section.0.15.4}{}}
\@writefile{toc}{\contentsline {section}{\numberline {}Références}{186}{section.0.15.5}\protected@file@percent }
\newlabel{ruxe9fuxe9rences-14}{{}{186}{Références}{section.0.15.5}{}}
\@writefile{toc}{\contentsline {chapter}{\numberline {16}L'ombre des puissants}{187}{chapter.0.16}\protected@file@percent }
\@writefile{lof}{\addvspace {10\p@ }}
\@writefile{lot}{\addvspace {10\p@ }}
\newlabel{lombre-des-puissants}{{16}{187}{L'ombre des puissants}{chapter.0.16}{}}
\@writefile{toc}{\contentsline {section}{\numberline {}Damas, fin d'après-midi du youm~al~had 7~jumada~al-thani~548}{187}{section.0.16.1}\protected@file@percent }
\newlabel{damas-fin-dapruxe8s-midi-du-youm-al-had-7-jumada-al-thani-54885}{{}{187}{Damas, fin d'après-midi du youm~al~had 7~jumada~al-thani~548}{section.0.16.1}{}}
\@writefile{toc}{\contentsline {section}{\numberline {}Damas, midi du youm~al~sebt 23~ramadan~548}{190}{section.0.16.2}\protected@file@percent }
\newlabel{damas-midi-du-youm-al-sebt-23-ramadan-54890}{{}{190}{Damas, midi du youm~al~sebt 23~ramadan~548}{section.0.16.2}{}}
\@writefile{toc}{\contentsline {section}{\numberline {}Damas, matinée du youm~el~itnine 10~safar~549}{194}{section.0.16.3}\protected@file@percent }
\newlabel{damas-matinuxe9e-du-youm-el-itnine-10-safar-54993}{{}{194}{Damas, matinée du youm~el~itnine 10~safar~549}{section.0.16.3}{}}
\@writefile{toc}{\contentsline {section}{\numberline {}Damas, soirée du youm~al~talata 8~rabi’~al-thani~549}{196}{section.0.16.4}\protected@file@percent }
\newlabel{damas-soiruxe9e-du-youm-al-talata-8-rabi-al-thani-54996}{{}{196}{Damas, soirée du youm~al~talata 8~rabi’~al-thani~549}{section.0.16.4}{}}
\@writefile{toc}{\contentsline {section}{\numberline {}Notes}{199}{section.0.16.5}\protected@file@percent }
\newlabel{notes-15}{{}{199}{Notes}{section.0.16.5}{}}
\@writefile{toc}{\contentsline {section}{\numberline {}Références}{200}{section.0.16.6}\protected@file@percent }
\newlabel{ruxe9fuxe9rences-15}{{}{200}{Références}{section.0.16.6}{}}
\@writefile{toc}{\contentsline {chapter}{\numberline {17}Retraite}{201}{chapter.0.17}\protected@file@percent }
\@writefile{lof}{\addvspace {10\p@ }}
\@writefile{lot}{\addvspace {10\p@ }}
\newlabel{retraite}{{17}{201}{Retraite}{chapter.0.17}{}}
\@writefile{toc}{\contentsline {section}{\numberline {}Château Emmaüs, fin de matinée du jeudi~9~mai~1157}{201}{section.0.17.1}\protected@file@percent }
\newlabel{chuxe2teau-emmauxfcs-fin-de-matinuxe9e-du-jeudi-9-mai-1157}{{}{201}{Château Emmaüs, fin de matinée du jeudi~9~mai~1157}{section.0.17.1}{}}
\@writefile{toc}{\contentsline {section}{\numberline {}Château Emmaüs, après-midi du samedi~11~mai~1157}{205}{section.0.17.2}\protected@file@percent }
\newlabel{chuxe2teau-emmauxfcs-apruxe8s-midi-du-samedi-11-mai-1157}{{}{205}{Château Emmaüs, après-midi du samedi~11~mai~1157}{section.0.17.2}{}}
\@writefile{toc}{\contentsline {section}{\numberline {}Aqua Bella, matin du samedi~25~mai~1157}{208}{section.0.17.3}\protected@file@percent }
\newlabel{aqua-bella-matin-du-samedi-25-mai-1157}{{}{208}{Aqua Bella, matin du samedi~25~mai~1157}{section.0.17.3}{}}
\@writefile{toc}{\contentsline {section}{\numberline {}Notes}{211}{section.0.17.4}\protected@file@percent }
\newlabel{notes-16}{{}{211}{Notes}{section.0.17.4}{}}
\@writefile{toc}{\contentsline {section}{\numberline {}Références}{212}{section.0.17.5}\protected@file@percent }
\newlabel{ruxe9fuxe9rences-16}{{}{212}{Références}{section.0.17.5}{}}
\@writefile{toc}{\contentsline {chapter}{\numberline {18}Legenda sanctorum}{213}{chapter.0.18}\protected@file@percent }
\@writefile{lof}{\addvspace {10\p@ }}
\@writefile{lot}{\addvspace {10\p@ }}
\newlabel{legenda-sanctorum}{{18}{213}{Legenda sanctorum}{chapter.0.18}{}}
\@writefile{toc}{\contentsline {section}{\numberline {}Jérusalem, veillée du vendredi~27~décembre~1157}{213}{section.0.18.1}\protected@file@percent }
\newlabel{juxe9rusalem-veilluxe9e-du-vendredi-27-duxe9cembre-1157}{{}{213}{Jérusalem, veillée du vendredi~27~décembre~1157}{section.0.18.1}{}}
\@writefile{toc}{\contentsline {section}{\numberline {}Jérusalem, après-midi du samedi~28~décembre~1157}{216}{section.0.18.2}\protected@file@percent }
\newlabel{juxe9rusalem-apruxe8s-midi-du-samedi-28-duxe9cembre-1157}{{}{216}{Jérusalem, après-midi du samedi~28~décembre~1157}{section.0.18.2}{}}
\@writefile{toc}{\contentsline {section}{\numberline {}Tyr, après-midi du jeudi~9~janvier~1158}{219}{section.0.18.3}\protected@file@percent }
\newlabel{tyr-apruxe8s-midi-du-jeudi-9-janvier-1158}{{}{219}{Tyr, après-midi du jeudi~9~janvier~1158}{section.0.18.3}{}}
\@writefile{toc}{\contentsline {section}{\numberline {}Tyr, veillée du mardi~25~février~1158}{221}{section.0.18.4}\protected@file@percent }
\newlabel{tyr-veilluxe9e-du-mardi-25-fuxe9vrier-1158}{{}{221}{Tyr, veillée du mardi~25~février~1158}{section.0.18.4}{}}
\@writefile{toc}{\contentsline {section}{\numberline {}Notes}{223}{section.0.18.5}\protected@file@percent }
\newlabel{notes-17}{{}{223}{Notes}{section.0.18.5}{}}
\@writefile{toc}{\contentsline {section}{\numberline {}Références}{224}{section.0.18.6}\protected@file@percent }
\newlabel{ruxe9fuxe9rences-17}{{}{224}{Références}{section.0.18.6}{}}
\@writefile{toc}{\contentsline {chapter}{\numberline {19}Marcheurs de lumière}{225}{chapter.0.19}\protected@file@percent }
\@writefile{lof}{\addvspace {10\p@ }}
\@writefile{lot}{\addvspace {10\p@ }}
\newlabel{marcheurs-de-lumiuxe8re}{{19}{225}{Marcheurs de lumière}{chapter.0.19}{}}
\@writefile{toc}{\contentsline {section}{\numberline {}Cathédrale de Beauvais, après-midi du dimanche~3~juin~1156}{225}{section.0.19.1}\protected@file@percent }
\newlabel{cathuxe9drale-de-beauvais-apruxe8s-midi-du-dimanche-3-juin-1156}{{}{225}{Cathédrale de Beauvais, après-midi du dimanche~3~juin~1156}{section.0.19.1}{}}
\@writefile{toc}{\contentsline {section}{\numberline {}Abords de Salzburg, midi du vendredi~6~juillet~1156}{229}{section.0.19.2}\protected@file@percent }
\newlabel{abords-de-salzburg-midi-du-vendredi-6-juillet-1156}{{}{229}{Abords de Salzburg, midi du vendredi~6~juillet~1156}{section.0.19.2}{}}
\@writefile{toc}{\contentsline {section}{\numberline {}Col de Chipka, fin de journée du vendredi~14~septembre~1156}{231}{section.0.19.3}\protected@file@percent }
\newlabel{col-de-chipka-fin-de-journuxe9e-du-vendredi-14-septembre-1156}{{}{231}{Col de Chipka, fin de journée du vendredi~14~septembre~1156}{section.0.19.3}{}}
\@writefile{toc}{\contentsline {section}{\numberline {}Faubourgs de Byzance, matin du samedi~29~septembre~1156}{234}{section.0.19.4}\protected@file@percent }
\newlabel{faubourgs-de-byzance-matin-du-samedi-29-septembre-1156}{{}{234}{Faubourgs de Byzance, matin du samedi~29~septembre~1156}{section.0.19.4}{}}
\@writefile{toc}{\contentsline {section}{\numberline {}Faubourg de l'Asnerie, Jérusalem, veillée du jeudi~20~décembre~1156}{236}{section.0.19.5}\protected@file@percent }
\newlabel{faubourg-de-lasnerie-juxe9rusalem-veilluxe9e-du-jeudi-20-duxe9cembre-1156}{{}{236}{Faubourg de l'Asnerie, Jérusalem, veillée du jeudi~20~décembre~1156}{section.0.19.5}{}}
\@writefile{toc}{\contentsline {section}{\numberline {}Notes}{238}{section.0.19.6}\protected@file@percent }
\newlabel{notes-18}{{}{238}{Notes}{section.0.19.6}{}}
\@writefile{toc}{\contentsline {section}{\numberline {}Références}{243}{section.0.19.7}\protected@file@percent }
\newlabel{ruxe9fuxe9rences-18}{{}{243}{Références}{section.0.19.7}{}}
\@writefile{toc}{\contentsline {chapter}{\numberline {20}Fil du temps}{245}{chapter.0.20}\protected@file@percent }
\@writefile{lof}{\addvspace {10\p@ }}
\@writefile{lot}{\addvspace {10\p@ }}
\newlabel{fil-du-temps}{{20}{245}{Fil du temps}{chapter.0.20}{}}
\@writefile{toc}{\contentsline {section}{\numberline {}Alexandrie, midi du youm~al~talata 12~jha'ban~489}{245}{section.0.20.1}\protected@file@percent }
\newlabel{alexandrie-midi-du-youm-al-talata-12-jhaban-489106}{{}{245}{Alexandrie, midi du youm~al~talata 12~jha'ban~489}{section.0.20.1}{}}
\@writefile{toc}{\contentsline {section}{\numberline {}Jérusalem, après midi du youm~al~khemis 22~jha'ban~492}{248}{section.0.20.2}\protected@file@percent }
\newlabel{juxe9rusalem-apruxe8s-midi-du-youm-al-khemis-22-jhaban-492113}{{}{248}{Jérusalem, après midi du youm~al~khemis 22~jha'ban~492}{section.0.20.2}{}}
\@writefile{toc}{\contentsline {section}{\numberline {}Clepsta, après-midi du samedi~8~septembre~1156}{250}{section.0.20.3}\protected@file@percent }
\newlabel{clepsta-apruxe8s-midi-du-samedi-8-septembre-1156}{{}{250}{Clepsta, après-midi du samedi~8~septembre~1156}{section.0.20.3}{}}
\@writefile{toc}{\contentsline {section}{\numberline {}Abords du Jourdain, près de Jéricho, soir du youm~al~sebt 27~jha'ban~658}{253}{section.0.20.4}\protected@file@percent }
\newlabel{abords-du-jourdain-pruxe8s-de-juxe9richo-soir-du-youm-al-sebt-27-jhaban-658114}{{}{253}{Abords du Jourdain, près de Jéricho, soir du youm~al~sebt 27~jha'ban~658}{section.0.20.4}{}}
\@writefile{toc}{\contentsline {section}{\numberline {}Caverne 38, falaise du Qarantal, près de Jéricho, mercredi~7~juillet~1993}{258}{section.0.20.5}\protected@file@percent }
\newlabel{caverne-38-falaise-du-qarantal-pruxe8s-de-juxe9richo-mercredi-7-juillet-1993}{{}{258}{Caverne 38, falaise du Qarantal, près de Jéricho, mercredi~7~juillet~1993}{section.0.20.5}{}}
\@writefile{toc}{\contentsline {section}{\numberline {}Notes}{259}{section.0.20.6}\protected@file@percent }
\newlabel{notes-19}{{}{259}{Notes}{section.0.20.6}{}}
\@writefile{toc}{\contentsline {section}{\numberline {}Références}{260}{section.0.20.7}\protected@file@percent }
\newlabel{ruxe9fuxe9rences-19}{{}{260}{Références}{section.0.20.7}{}}
\@writefile{toc}{\contentsline {chapter}{\numberline {21}Nœud gordien}{261}{chapter.0.21}\protected@file@percent }
\@writefile{lof}{\addvspace {10\p@ }}
\@writefile{lot}{\addvspace {10\p@ }}
\newlabel{nux153ud-gordien}{{21}{261}{Nœud gordien}{chapter.0.21}{}}
\@writefile{toc}{\contentsline {section}{\numberline {}Port de Gibelet, midi du lundi~19~juin~1150}{261}{section.0.21.1}\protected@file@percent }
\newlabel{port-de-gibelet-midi-du-lundi-19-juin-1150}{{}{261}{Port de Gibelet, midi du lundi~19~juin~1150}{section.0.21.1}{}}
\@writefile{toc}{\contentsline {section}{\numberline {}Tripoli, matin du mardi~7~octobre~1152}{263}{section.0.21.2}\protected@file@percent }
\newlabel{tripoli-matin-du-mardi-7-octobre-1152}{{}{263}{Tripoli, matin du mardi~7~octobre~1152}{section.0.21.2}{}}
\@writefile{toc}{\contentsline {section}{\numberline {}Tripoli, veillée du samedi~7~mars~1153}{266}{section.0.21.3}\protected@file@percent }
\newlabel{tripoli-veilluxe9e-du-samedi-7-mars-1153}{{}{266}{Tripoli, veillée du samedi~7~mars~1153}{section.0.21.3}{}}
\@writefile{toc}{\contentsline {section}{\numberline {}Côtes du royaume de Jérusalem, midi du jeudi~10~mars~1155}{268}{section.0.21.4}\protected@file@percent }
\newlabel{cuxf4tes-du-royaume-de-juxe9rusalem-midi-du-jeudi-10-mars-1155}{{}{268}{Côtes du royaume de Jérusalem, midi du jeudi~10~mars~1155}{section.0.21.4}{}}
\@writefile{toc}{\contentsline {section}{\numberline {}Tripoli, après-midi du lundi~6~février~1156}{270}{section.0.21.5}\protected@file@percent }
\newlabel{tripoli-apruxe8s-midi-du-lundi-6-fuxe9vrier-1156}{{}{270}{Tripoli, après-midi du lundi~6~février~1156}{section.0.21.5}{}}
\@writefile{toc}{\contentsline {section}{\numberline {}Notes}{272}{section.0.21.6}\protected@file@percent }
\newlabel{notes-20}{{}{272}{Notes}{section.0.21.6}{}}
\@writefile{toc}{\contentsline {section}{\numberline {}Références}{273}{section.0.21.7}\protected@file@percent }
\newlabel{ruxe9fuxe9rences-20}{{}{273}{Références}{section.0.21.7}{}}
\@writefile{toc}{\contentsline {chapter}{\numberline {22}Fille de Magdala}{275}{chapter.0.22}\protected@file@percent }
\@writefile{lof}{\addvspace {10\p@ }}
\@writefile{lot}{\addvspace {10\p@ }}
\newlabel{fille-de-magdala}{{22}{275}{Fille de Magdala}{chapter.0.22}{}}
\@writefile{toc}{\contentsline {section}{\numberline {}Césarée, matin du samedi~2~juin~1156}{275}{section.0.22.1}\protected@file@percent }
\newlabel{cuxe9saruxe9e-matin-du-samedi-2-juin-1156}{{}{275}{Césarée, matin du samedi~2~juin~1156}{section.0.22.1}{}}
\@writefile{toc}{\contentsline {section}{\numberline {}Environs de Caco, matin du mardi~8~janvier~1157}{278}{section.0.22.2}\protected@file@percent }
\newlabel{environs-de-caco-matin-du-mardi-8-janvier-1157}{{}{278}{Environs de Caco, matin du mardi~8~janvier~1157}{section.0.22.2}{}}
\@writefile{toc}{\contentsline {section}{\numberline {}Calanson, soir du lundi~22~avril~1157}{280}{section.0.22.3}\protected@file@percent }
\newlabel{calanson-soir-du-lundi-22-avril-1157}{{}{280}{Calanson, soir du lundi~22~avril~1157}{section.0.22.3}{}}
\@writefile{toc}{\contentsline {section}{\numberline {}Plaine de la Bocquée, matinée du dimanche~15~septembre~1157}{284}{section.0.22.4}\protected@file@percent }
\newlabel{plaine-de-la-bocquuxe9e-matinuxe9e-du-dimanche-15-septembre-1157}{{}{284}{Plaine de la Bocquée, matinée du dimanche~15~septembre~1157}{section.0.22.4}{}}
\@writefile{toc}{\contentsline {section}{\numberline {}Notes}{286}{section.0.22.5}\protected@file@percent }
\newlabel{notes-21}{{}{286}{Notes}{section.0.22.5}{}}
\@writefile{toc}{\contentsline {section}{\numberline {}Références}{287}{section.0.22.6}\protected@file@percent }
\newlabel{ruxe9fuxe9rences-21}{{}{287}{Références}{section.0.22.6}{}}
\ttl@finishall
