\relax 
\providecommand\hyper@newdestlabel[2]{}
\catcode `:\active 
\catcode `;\active 
\catcode `!\active 
\catcode `?\active 
\providecommand\HyperFirstAtBeginDocument{\AtBeginDocument}
\HyperFirstAtBeginDocument{\ifx\hyper@anchor\@undefined
\global\let\oldcontentsline\contentsline
\gdef\contentsline#1#2#3#4{\oldcontentsline{#1}{#2}{#3}}
\global\let\oldnewlabel\newlabel
\gdef\newlabel#1#2{\newlabelxx{#1}#2}
\gdef\newlabelxx#1#2#3#4#5#6{\oldnewlabel{#1}{{#2}{#3}}}
\AtEndDocument{\ifx\hyper@anchor\@undefined
\let\contentsline\oldcontentsline
\let\newlabel\oldnewlabel
\fi}
\fi}
\global\let\hyper@last\relax 
\gdef\HyperFirstAtBeginDocument#1{#1}
\providecommand\HyField@AuxAddToFields[1]{}
\providecommand\HyField@AuxAddToCoFields[2]{}
\babel@aux{french}{}
\@writefile{toc}{\contentsline {section}{Liste des personnages}{{\fontencoding  {T1}\selectfont  i}}{section*.3}\protected@file@percent }
\newlabel{liste-des-personnages}{{}{{\fontencoding  {T1}\selectfont  i}}{}{section*.3}{}}
\@writefile{toc}{\contentsline {chapter}{\numberline {1}Prologue}{1}{chapter.0.1}\protected@file@percent }
\@writefile{lof}{\addvspace {10\p@ }}
\@writefile{lot}{\addvspace {10\p@ }}
\newlabel{prologue}{{1}{1}{Prologue}{chapter.0.1}{}}
\@writefile{toc}{\contentsline {section}{\numberline {}Monast\IeC {\`e}re b\IeC {\'e}n\IeC {\'e}dictin de la Charit\IeC {\'e}-sur-Loire, hiver 1223}{1}{section.0.1.1}\protected@file@percent }
\newlabel{monastuxe8re-buxe9nuxe9dictin-de-la-charituxe9-sur-loire-hiver-1223}{{}{1}{Monastère bénédictin de la Charité-sur-Loire, hiver 1223}{section.0.1.1}{}}
\@writefile{toc}{\contentsline {chapter}{\numberline {2}Chapitre 1}{3}{chapter.0.2}\protected@file@percent }
\@writefile{lof}{\addvspace {10\p@ }}
\@writefile{lot}{\addvspace {10\p@ }}
\newlabel{chapitre-1}{{2}{3}{Chapitre 1}{chapter.0.2}{}}
\@writefile{toc}{\contentsline {section}{\numberline {}Lydda, chantier de construction de la cath\IeC {\'e}drale,\\ matin du mardi 9 d\IeC {\'e}cembre 1158}{3}{section.0.2.1}\protected@file@percent }
\newlabel{lydda-chantier-de-construction-de-la-cathuxe9drale-matin-du-mardi-9-duxe9cembre-1158}{{}{3}{Lydda, chantier de construction de la cathédrale,\\ matin du mardi 9 décembre 1158}{section.0.2.1}{}}
\@writefile{toc}{\contentsline {section}{\numberline {}J\IeC {\'e}rusalem, palais du Patriarche, fin de matin\IeC {\'e}e\\ du vendredi 12 d\IeC {\'e}cembre 1158}{6}{section.0.2.2}\protected@file@percent }
\newlabel{juxe9rusalem-palais-du-patriarche-fin-de-matinuxe9e-du-vendredi-12-duxe9cembre-1158}{{}{6}{Jérusalem, palais du Patriarche, fin de matinée\\ du vendredi 12 décembre 1158}{section.0.2.2}{}}
\@writefile{toc}{\contentsline {section}{\numberline {}J\IeC {\'e}rusalem, palais royal, matin\\ du dimanche 14 d\IeC {\'e}cembre 1158}{12}{section.0.2.3}\protected@file@percent }
\newlabel{juxe9rusalem-palais-royal-matin-du-dimanche-14-duxe9cembre-1158}{{}{12}{Jérusalem, palais royal, matin\\ du dimanche 14 décembre 1158}{section.0.2.3}{}}
\@writefile{toc}{\contentsline {section}{\numberline {}Lydda, abords du palais de l'\IeC {\'e}v\IeC {\^e}que,\\soir du dimanche 14 d\IeC {\'e}cembre 1158}{19}{section.0.2.4}\protected@file@percent }
\newlabel{lydda-abords-du-palais-de-luxe9vuxeaque-soir-du-dimanche-14-duxe9cembre-1158}{{}{19}{Lydda, abords du palais de l'évêque,\\soir du dimanche 14 décembre 1158}{section.0.2.4}{}}
\@writefile{toc}{\contentsline {section}{\numberline {}Lydda, h\IeC {\^o}tellerie du palais de l'\IeC {\'e}v\IeC {\^e}que,\\matin du lundi 15 d\IeC {\'e}cembre 1158}{26}{section.0.2.5}\protected@file@percent }
\newlabel{lydda-huxf4tellerie-du-palais-de-luxe9vuxeaque-matin-du-lundi-15-duxe9cembre-1158}{{}{26}{Lydda, hôtellerie du palais de l'évêque,\\matin du lundi 15 décembre 1158}{section.0.2.5}{}}
\@writefile{toc}{\contentsline {section}{\numberline {}Lydda, cour des Bourgeois, fin de matin\IeC {\'e}e\\du lundi 15 d\IeC {\'e}cembre 1158}{31}{section.0.2.6}\protected@file@percent }
\newlabel{lydda-cour-des-bourgeois-fin-de-matinuxe9e-du-lundi-15-duxe9cembre-1158}{{}{31}{Lydda, cour des Bourgeois, fin de matinée\\du lundi 15 décembre 1158}{section.0.2.6}{}}
\@writefile{toc}{\contentsline {chapter}{\numberline {3}Chapitre 2}{39}{chapter.0.3}\protected@file@percent }
\@writefile{lof}{\addvspace {10\p@ }}
\@writefile{lot}{\addvspace {10\p@ }}
\newlabel{chapitre-2}{{3}{39}{Chapitre 2}{chapter.0.3}{}}
\@writefile{toc}{\contentsline {section}{\numberline {}Lydda, r\IeC {\'e}fectoire du palais, apr\IeC {\`e}s-midi\\du lundi 15 d\IeC {\'e}cembre 1158}{39}{section.0.3.1}\protected@file@percent }
\newlabel{lydda-ruxe9fectoire-du-palais-apruxe8s-midi-du-lundi-15-duxe9cembre-1158}{{}{39}{Lydda, réfectoire du palais, après-midi\\du lundi 15 décembre 1158}{section.0.3.1}{}}
\@writefile{toc}{\contentsline {section}{\numberline {}Lydda, h\IeC {\^o}tellerie du palais \IeC {\'e}piscopal,\\fin d'apr\IeC {\`e}s-midi du lundi 15 d\IeC {\'e}cembre 1158}{46}{section.0.3.2}\protected@file@percent }
\newlabel{lydda-huxf4tellerie-du-palais-uxe9piscopal-fin-dapruxe8s-midi-du-lundi-15-duxe9cembre-1158}{{}{46}{Lydda, hôtellerie du palais épiscopal,\\fin d'après-midi du lundi 15 décembre 1158}{section.0.3.2}{}}
\@writefile{toc}{\contentsline {section}{\numberline {}Lydda, h\IeC {\^o}tellerie du palais \IeC {\'e}piscopal,\\veill\IeC {\'e}e du lundi 15 d\IeC {\'e}cembre 1158}{52}{section.0.3.3}\protected@file@percent }
\newlabel{lydda-huxf4tellerie-du-palais-uxe9piscopal-veilluxe9e-du-lundi-15-duxe9cembre-1158}{{}{52}{Lydda, hôtellerie du palais épiscopal,\\veillée du lundi 15 décembre 1158}{section.0.3.3}{}}
\@writefile{toc}{\contentsline {section}{\numberline {}Lydda, cour de l'h\IeC {\^o}tellerie du palais,\\nuit du lundi 15 d\IeC {\'e}cembre 1158}{59}{section.0.3.4}\protected@file@percent }
\newlabel{lydda-cour-de-lhuxf4tellerie-du-palais-nuit-du-lundi-15-duxe9cembre-1158}{{}{59}{Lydda, cour de l'hôtellerie du palais,\\nuit du lundi 15 décembre 1158}{section.0.3.4}{}}
\@writefile{toc}{\contentsline {section}{\numberline {}Lydda, h\IeC {\^o}tellerie du palais \IeC {\'e}piscopal,\\matin du mardi 16 d\IeC {\'e}cembre 1158}{63}{section.0.3.5}\protected@file@percent }
\newlabel{lydda-huxf4tellerie-du-palais-uxe9piscopal-matin-du-mardi-16-duxe9cembre-1158}{{}{63}{Lydda, hôtellerie du palais épiscopal,\\matin du mardi 16 décembre 1158}{section.0.3.5}{}}
\@writefile{toc}{\contentsline {section}{\numberline {}Lydda, chantier de la basilique Saint-Georges,\\fin de matin\IeC {\'e}e du mardi 16 d\IeC {\'e}cembre 1158}{71}{section.0.3.6}\protected@file@percent }
\newlabel{lydda-chantier-de-la-basilique-saint-georges-fin-de-matinuxe9e-du-mardi-16-duxe9cembre-1158}{{}{71}{Lydda, chantier de la basilique Saint-Georges,\\fin de matinée du mardi 16 décembre 1158}{section.0.3.6}{}}
\@writefile{toc}{\contentsline {section}{\numberline {}Lydda, clo\IeC {\^\i }tre du palais, fin d'apr\IeC {\`e}s-midi\\du mardi 16 d\IeC {\'e}cembre 1158}{78}{section.0.3.7}\protected@file@percent }
\newlabel{lydda-clouxeetre-du-palais-fin-dapruxe8s-midi-du-mardi-16-duxe9cembre-1158}{{}{78}{Lydda, cloître du palais, fin d'après-midi\\du mardi 16 décembre 1158}{section.0.3.7}{}}
\@writefile{toc}{\contentsline {chapter}{\numberline {4}Chapitre 3}{85}{chapter.0.4}\protected@file@percent }
\@writefile{lof}{\addvspace {10\p@ }}
\@writefile{lot}{\addvspace {10\p@ }}
\newlabel{chapitre-3}{{4}{85}{Chapitre 3}{chapter.0.4}{}}
\@writefile{toc}{\contentsline {section}{\numberline {}Lydda, palais \IeC {\'e}piscopal, matin\IeC {\'e}e\\du mercredi 17 d\IeC {\'e}cembre 1158}{85}{section.0.4.1}\protected@file@percent }
\newlabel{lydda-palais-uxe9piscopal-matinuxe9e-du-mercredi-17-duxe9cembre-1158}{{}{85}{Lydda, palais épiscopal, matinée\\du mercredi 17 décembre 1158}{section.0.4.1}{}}
\@writefile{toc}{\contentsline {section}{\numberline {}Lydda, cellules du dortoir canonial,\\apr\IeC {\`e}s-midi du mercredi 17 d\IeC {\'e}cembre 1158}{93}{section.0.4.2}\protected@file@percent }
\newlabel{lydda-cellules-du-dortoir-canonial-apruxe8s-midi-du-mercredi-17-duxe9cembre-1158}{{}{93}{Lydda, cellules du dortoir canonial,\\après-midi du mercredi 17 décembre 1158}{section.0.4.2}{}}
\@writefile{toc}{\contentsline {section}{\numberline {}Lydda, demeure du chanoine Waulsort,\\soir\IeC {\'e}e du mercredi 17 d\IeC {\'e}cembre 1158}{100}{section.0.4.3}\protected@file@percent }
\newlabel{lydda-demeure-du-chanoine-waulsort-soiruxe9e-du-mercredi-17-duxe9cembre-1158}{{}{100}{Lydda, demeure du chanoine Waulsort,\\soirée du mercredi 17 décembre 1158}{section.0.4.3}{}}
\@writefile{toc}{\contentsline {section}{\numberline {}Lydda, h\IeC {\^o}tellerie du palais \IeC {\'e}piscopal,\\nuit du mercredi 17 d\IeC {\'e}cembre 1158}{106}{section.0.4.4}\protected@file@percent }
\newlabel{lydda-huxf4tellerie-du-palais-uxe9piscopal-nuit-du-mercredi-17-duxe9cembre-1158}{{}{106}{Lydda, hôtellerie du palais épiscopal,\\nuit du mercredi 17 décembre 1158}{section.0.4.4}{}}
\@writefile{toc}{\contentsline {section}{\numberline {}Lydda, h\IeC {\^o}tellerie du palais \IeC {\'e}piscopal,\\matin du jeudi 18 d\IeC {\'e}cembre 1158}{111}{section.0.4.5}\protected@file@percent }
\newlabel{lydda-huxf4tellerie-du-palais-uxe9piscopal-matin-du-jeudi-18-duxe9cembre-1158}{{}{111}{Lydda, hôtellerie du palais épiscopal,\\matin du jeudi 18 décembre 1158}{section.0.4.5}{}}
\@writefile{toc}{\contentsline {section}{\numberline {}Lydda, quartier de Samarie,\\matin du jeudi 18 d\IeC {\'e}cembre 1158}{116}{section.0.4.6}\protected@file@percent }
\newlabel{lydda-quartier-de-samarie-matin-du-jeudi-18-duxe9cembre-1158}{{}{116}{Lydda, quartier de Samarie,\\matin du jeudi 18 décembre 1158}{section.0.4.6}{}}
\@writefile{toc}{\contentsline {section}{\numberline {}Lydda, palais \IeC {\'e}piscopal,\\soir\IeC {\'e}e du jeudi 18 d\IeC {\'e}cembre 1158}{123}{section.0.4.7}\protected@file@percent }
\newlabel{lydda-palais-uxe9piscopal-soiruxe9e-du-jeudi-18-duxe9cembre-1158}{{}{123}{Lydda, palais épiscopal,\\soirée du jeudi 18 décembre 1158}{section.0.4.7}{}}
\@writefile{toc}{\contentsline {chapter}{\numberline {5}Chapitre 4}{129}{chapter.0.5}\protected@file@percent }
\@writefile{lof}{\addvspace {10\p@ }}
\@writefile{lot}{\addvspace {10\p@ }}
\newlabel{chapitre-4}{{5}{129}{Chapitre 4}{chapter.0.5}{}}
\@writefile{toc}{\contentsline {section}{\numberline {}Lydda, h\IeC {\^o}tellerie du palais de l'archev\IeC {\^e}que,\\fin de matin\IeC {\'e}e du vendredi 19 d\IeC {\'e}cembre 1158}{129}{section.0.5.1}\protected@file@percent }
\newlabel{lydda-huxf4tellerie-du-palais-de-larchevuxeaque-fin-de-matinuxe9e-du-vendredi-19-duxe9cembre-1158}{{}{129}{Lydda, hôtellerie du palais de l'archevêque,\\fin de matinée du vendredi 19 décembre 1158}{section.0.5.1}{}}
\@writefile{toc}{\contentsline {section}{\numberline {}Lydda, chantier de la basilique Saint-Georges,\\apr\IeC {\`e}s-midi du vendredi 19 d\IeC {\'e}cembre 1158}{134}{section.0.5.2}\protected@file@percent }
\newlabel{lydda-chantier-de-la-basilique-saint-georges-apruxe8s-midi-du-vendredi-19-duxe9cembre-1158}{{}{134}{Lydda, chantier de la basilique Saint-Georges,\\après-midi du vendredi 19 décembre 1158}{section.0.5.2}{}}
\@writefile{toc}{\contentsline {section}{\numberline {}Lydda, h\IeC {\^o}tellerie du palais \IeC {\'e}piscopal,\\soir\IeC {\'e}e du vendredi 19 d\IeC {\'e}cembre 1158}{141}{section.0.5.3}\protected@file@percent }
\newlabel{lydda-huxf4tellerie-du-palais-uxe9piscopal-soiruxe9e-du-vendredi-19-duxe9cembre-1158}{{}{141}{Lydda, hôtellerie du palais épiscopal,\\soirée du vendredi 19 décembre 1158}{section.0.5.3}{}}
\@writefile{toc}{\contentsline {section}{\numberline {}Lydda, chambre de l'\IeC {\'e}v\IeC {\^e}que, veill\IeC {\'e}e\\du vendredi 19 d\IeC {\'e}cembre 1158}{145}{section.0.5.4}\protected@file@percent }
\newlabel{lydda-chambre-de-luxe9vuxeaque-veilluxe9e-du-vendredi-19-duxe9cembre-1158}{{}{145}{Lydda, chambre de l'évêque, veillée\\du vendredi 19 décembre 1158}{section.0.5.4}{}}
\@writefile{toc}{\contentsline {section}{\numberline {}Lydda, magasins du palais \IeC {\'e}piscopal,\\matin\IeC {\'e}e du samedi 20 d\IeC {\'e}cembre 1158}{151}{section.0.5.5}\protected@file@percent }
\newlabel{lydda-magasins-du-palais-uxe9piscopal-matinuxe9e-du-samedi-20-duxe9cembre-1158}{{}{151}{Lydda, magasins du palais épiscopal,\\matinée du samedi 20 décembre 1158}{section.0.5.5}{}}
\@writefile{toc}{\contentsline {chapter}{\numberline {6}Chapitre 5}{159}{chapter.0.6}\protected@file@percent }
\@writefile{lof}{\addvspace {10\p@ }}
\@writefile{lot}{\addvspace {10\p@ }}
\newlabel{chapitre-5}{{6}{159}{Chapitre 5}{chapter.0.6}{}}
\@writefile{toc}{\contentsline {section}{\numberline {}Lydda, quartiers des teinturiers,\\fin d'apr\IeC {\`e}s-midi du samedi 20 d\IeC {\'e}cembre 1158}{159}{section.0.6.1}\protected@file@percent }
\newlabel{lydda-quartiers-des-teinturiers-fin-dapruxe8s-midi-du-samedi-20-duxe9cembre-1158}{{}{159}{Lydda, quartiers des teinturiers,\\fin d'après-midi du samedi 20 décembre 1158}{section.0.6.1}{}}
\@writefile{toc}{\contentsline {section}{\numberline {}Lydda, quartier de la porte de Samarie,\\soir\IeC {\'e}e du samedi 20 d\IeC {\'e}cembre 1158}{166}{section.0.6.2}\protected@file@percent }
\newlabel{lydda-quartier-de-la-porte-de-samarie-soiruxe9e-du-samedi-20-duxe9cembre-1158}{{}{166}{Lydda, quartier de la porte de Samarie,\\soirée du samedi 20 décembre 1158}{section.0.6.2}{}}
\@writefile{toc}{\contentsline {section}{\numberline {}Lydda, palais \IeC {\'e}piscopal, veill\IeC {\'e}e\\du samedi 20 d\IeC {\'e}cembre 1158}{171}{section.0.6.3}\protected@file@percent }
\newlabel{lydda-palais-uxe9piscopal-veilluxe9e-du-samedi-20-duxe9cembre-1158}{{}{171}{Lydda, palais épiscopal, veillée\\du samedi 20 décembre 1158}{section.0.6.3}{}}
\@writefile{toc}{\contentsline {section}{\numberline {}Lydda, h\IeC {\^o}tellerie du palais de l'\IeC {\'e}v\IeC {\^e}que Constantin,\\fin de matin\IeC {\'e}e du dimanche 21 d\IeC {\'e}cembre 1158}{177}{section.0.6.4}\protected@file@percent }
\newlabel{lydda-huxf4tellerie-du-palais-de-luxe9vuxeaque-constantin-fin-de-matinuxe9e-du-dimanche-21-duxe9cembre-1158}{{}{177}{Lydda, hôtellerie du palais de l'évêque Constantin,\\fin de matinée du dimanche 21 décembre 1158}{section.0.6.4}{}}
\@writefile{toc}{\contentsline {chapter}{\numberline {7}Chapitre 6}{187}{chapter.0.7}\protected@file@percent }
\@writefile{lof}{\addvspace {10\p@ }}
\@writefile{lot}{\addvspace {10\p@ }}
\newlabel{chapitre-6}{{7}{187}{Chapitre 6}{chapter.0.7}{}}
\@writefile{toc}{\contentsline {section}{\numberline {}J\IeC {\'e}rusalem, porte de David, fin de matin\IeC {\'e}e\\du lundi 22 d\IeC {\'e}cembre 1158}{187}{section.0.7.1}\protected@file@percent }
\newlabel{juxe9rusalem-porte-de-david-fin-de-matinuxe9e-du-lundi-22-duxe9cembre-1158}{{}{187}{Jérusalem, porte de David, fin de matinée\\du lundi 22 décembre 1158}{section.0.7.1}{}}
\@writefile{toc}{\contentsline {section}{\numberline {}J\IeC {\'e}rusalem, palais du patriarche, fin de matin\IeC {\'e}e\\du mardi 23 d\IeC {\'e}cembre 1158}{194}{section.0.7.2}\protected@file@percent }
\newlabel{juxe9rusalem-palais-du-patriarche-fin-de-matinuxe9e-du-mardi-23-duxe9cembre-1158}{{}{194}{Jérusalem, palais du patriarche, fin de matinée\\du mardi 23 décembre 1158}{section.0.7.2}{}}
\@writefile{toc}{\contentsline {section}{\numberline {}J\IeC {\'e}rusalem, palais royal,\\mi-journ\IeC {\'e}e du mardi 23 d\IeC {\'e}cembre 1158}{200}{section.0.7.3}\protected@file@percent }
\newlabel{juxe9rusalem-palais-royal-mi-journuxe9e-du-mardi-23-duxe9cembre-1158}{{}{200}{Jérusalem, palais royal,\\mi-journée du mardi 23 décembre 1158}{section.0.7.3}{}}
\@writefile{toc}{\contentsline {section}{\numberline {}J\IeC {\'e}rusalem, demeure de Droart,\\soir\IeC {\'e}e du jeudi 25 d\IeC {\'e}cembre 1158}{204}{section.0.7.4}\protected@file@percent }
\newlabel{juxe9rusalem-demeure-de-droart-soiruxe9e-du-jeudi-25-duxe9cembre-1158}{{}{204}{Jérusalem, demeure de Droart,\\soirée du jeudi 25 décembre 1158}{section.0.7.4}{}}
\@writefile{toc}{\contentsline {section}{\numberline {}Lydda, palais \IeC {\'e}piscopal, fin d'apr\IeC {\`e}s-midi\\du samedi 27 d\IeC {\'e}cembre 1158}{210}{section.0.7.5}\protected@file@percent }
\newlabel{lydda-palais-uxe9piscopal-fin-dapruxe8s-midi-du-samedi-27-duxe9cembre-1158}{{}{210}{Lydda, palais épiscopal, fin d'après-midi\\du samedi 27 décembre 1158}{section.0.7.5}{}}
\@writefile{toc}{\contentsline {section}{\numberline {}Lydda, palais \IeC {\'e}piscopal, fin de matin\IeC {\'e}e\\du dimanche 28 d\IeC {\'e}cembre 1158}{216}{section.0.7.6}\protected@file@percent }
\newlabel{lydda-palais-uxe9piscopal-fin-de-matinuxe9e-du-dimanche-28-duxe9cembre-1158}{{}{216}{Lydda, palais épiscopal, fin de matinée\\du dimanche 28 décembre 1158}{section.0.7.6}{}}
\@writefile{toc}{\contentsline {section}{\numberline {}Lydda, quartier de la porte de Samarie,\\apr\IeC {\`e}s-midi du dimanche 28 d\IeC {\'e}cembre 1158}{222}{section.0.7.7}\protected@file@percent }
\newlabel{lydda-quartier-de-la-porte-de-samarie-apruxe8s-midi-du-dimanche-28-duxe9cembre-1158}{{}{222}{Lydda, quartier de la porte de Samarie,\\après-midi du dimanche 28 décembre 1158}{section.0.7.7}{}}
\@writefile{toc}{\contentsline {chapter}{\numberline {8}Chapitre 7}{227}{chapter.0.8}\protected@file@percent }
\@writefile{lof}{\addvspace {10\p@ }}
\@writefile{lot}{\addvspace {10\p@ }}
\newlabel{chapitre-7}{{8}{227}{Chapitre 7}{chapter.0.8}{}}
\@writefile{toc}{\contentsline {section}{\numberline {}Lydda, palais \IeC {\'e}piscopal, fin d'apr\IeC {\`e}s-midi\\du dimanche 28 d\IeC {\'e}cembre 1158}{227}{section.0.8.1}\protected@file@percent }
\newlabel{lydda-palais-uxe9piscopal-fin-dapruxe8s-midi-du-dimanche-28-duxe9cembre-1158}{{}{227}{Lydda, palais épiscopal, fin d'après-midi\\du dimanche 28 décembre 1158}{section.0.8.1}{}}
\@writefile{toc}{\contentsline {section}{\numberline {}Lydda, palais \IeC {\'e}piscopal, matin\\du lundi 29 d\IeC {\'e}cembre 1158}{232}{section.0.8.2}\protected@file@percent }
\newlabel{lydda-palais-uxe9piscopal-matin-du-lundi-29-duxe9cembre-1158}{{}{232}{Lydda, palais épiscopal, matin\\du lundi 29 décembre 1158}{section.0.8.2}{}}
\@writefile{toc}{\contentsline {section}{\numberline {}Lydda, palais \IeC {\'e}piscopal, fin de matin\IeC {\'e}e\\du lundi 29 d\IeC {\'e}cembre 1158}{238}{section.0.8.3}\protected@file@percent }
\newlabel{lydda-palais-uxe9piscopal-fin-de-matinuxe9e-du-lundi-29-duxe9cembre-1158}{{}{238}{Lydda, palais épiscopal, fin de matinée\\du lundi 29 décembre 1158}{section.0.8.3}{}}
\@writefile{toc}{\contentsline {chapter}{\numberline {9}Chapitre 8}{245}{chapter.0.9}\protected@file@percent }
\@writefile{lof}{\addvspace {10\p@ }}
\@writefile{lot}{\addvspace {10\p@ }}
\newlabel{chapitre-8}{{9}{245}{Chapitre 8}{chapter.0.9}{}}
\@writefile{toc}{\contentsline {section}{\numberline {}Lydda, palais \IeC {\'e}piscopal, apr\IeC {\`e}s-midi\\du lundi 29 d\IeC {\'e}cembre 1158}{245}{section.0.9.1}\protected@file@percent }
\newlabel{lydda-palais-uxe9piscopal-apruxe8s-midi-du-lundi-29-duxe9cembre-1158}{{}{245}{Lydda, palais épiscopal, après-midi\\du lundi 29 décembre 1158}{section.0.9.1}{}}
\@writefile{toc}{\contentsline {section}{\numberline {}Lydda, quartier des teinturiers,\\apr\IeC {\`e}s-midi du lundi 29 d\IeC {\'e}cembre 1158}{252}{section.0.9.2}\protected@file@percent }
\newlabel{lydda-quartier-des-teinturiers-apruxe8s-midi-du-lundi-29-duxe9cembre-1158}{{}{252}{Lydda, quartier des teinturiers,\\après-midi du lundi 29 décembre 1158}{section.0.9.2}{}}
\@writefile{toc}{\contentsline {section}{\numberline {}Lydda, jardins de l'\IeC {\'e}v\IeC {\^e}ch\IeC {\'e}, fin d'apr\IeC {\`e}s-midi\\du mardi 30 d\IeC {\'e}cembre 1158}{259}{section.0.9.3}\protected@file@percent }
\newlabel{lydda-jardins-de-luxe9vuxeachuxe9-fin-dapruxe8s-midi-du-mardi-30-duxe9cembre-1158}{{}{259}{Lydda, jardins de l'évêché, fin d'après-midi\\du mardi 30 décembre 1158}{section.0.9.3}{}}
\@writefile{toc}{\contentsline {section}{\numberline {}Lydda, clo\IeC {\^\i }tre canonial, fin d'apr\IeC {\`e}s-midi\\du mercredi 31 d\IeC {\'e}cembre 1158}{264}{section.0.9.4}\protected@file@percent }
\newlabel{lydda-clouxeetre-canonial-fin-dapruxe8s-midi-du-mercredi-31-duxe9cembre-1158}{{}{264}{Lydda, cloître canonial, fin d'après-midi\\du mercredi 31 décembre 1158}{section.0.9.4}{}}
\@writefile{toc}{\contentsline {section}{\numberline {}Lydda, h\IeC {\^o}tellerie du palais \IeC {\'e}piscopal,\\matin du jeudi 1er janvier 1159}{272}{section.0.9.5}\protected@file@percent }
\newlabel{lydda-huxf4tellerie-du-palais-uxe9piscopal-matin-du-jeudi-1er-janvier-1159}{{}{272}{Lydda, hôtellerie du palais épiscopal,\\matin du jeudi 1er janvier 1159}{section.0.9.5}{}}
\@writefile{toc}{\contentsline {chapter}{\numberline {10}Chapitre 9}{277}{chapter.0.10}\protected@file@percent }
\@writefile{lof}{\addvspace {10\p@ }}
\@writefile{lot}{\addvspace {10\p@ }}
\newlabel{chapitre-9}{{10}{277}{Chapitre 9}{chapter.0.10}{}}
\@writefile{toc}{\contentsline {section}{\numberline {}Lydda, palais \IeC {\'e}piscopal, fin d'apr\IeC {\`e}s-midi\\du samedi 3 janvier 1159}{277}{section.0.10.1}\protected@file@percent }
\newlabel{lydda-palais-uxe9piscopal-fin-dapruxe8s-midi-du-samedi-3-janvier-1159}{{}{277}{Lydda, palais épiscopal, fin d'après-midi\\du samedi 3 janvier 1159}{section.0.10.1}{}}
\@writefile{toc}{\contentsline {section}{\numberline {}Lydda, h\IeC {\^o}tellerie du palais \IeC {\'e}piscopal,\\matin du lundi 5 janvier 1159}{281}{section.0.10.2}\protected@file@percent }
\newlabel{lydda-huxf4tellerie-du-palais-uxe9piscopal-matin-du-lundi-5-janvier-1159}{{}{281}{Lydda, hôtellerie du palais épiscopal,\\matin du lundi 5 janvier 1159}{section.0.10.2}{}}
\@writefile{toc}{\contentsline {section}{\numberline {}J\IeC {\'e}rusalem, palais royal, midi\\du mardi 6 janvier 1159}{287}{section.0.10.3}\protected@file@percent }
\newlabel{juxe9rusalem-palais-royal-midi-du-mardi-6-janvier-1159}{{}{287}{Jérusalem, palais royal, midi\\du mardi 6 janvier 1159}{section.0.10.3}{}}
\@writefile{toc}{\contentsline {section}{\numberline {}Petite Mahomerie, demeure de Sanson de Brie,\\apr\IeC {\`e}s-midi du dimanche 11 janvier 1159}{293}{section.0.10.4}\protected@file@percent }
\newlabel{petite-mahomerie-demeure-de-sanson-de-brie-apruxe8s-midi-du-dimanche-11-janvier-1159}{{}{293}{Petite Mahomerie, demeure de Sanson de Brie,\\après-midi du dimanche 11 janvier 1159}{section.0.10.4}{}}
\@writefile{toc}{\contentsline {chapter}{\numberline {11}Chapitre 10}{299}{chapter.0.11}\protected@file@percent }
\@writefile{lof}{\addvspace {10\p@ }}
\@writefile{lot}{\addvspace {10\p@ }}
\newlabel{chapitre-10}{{11}{299}{Chapitre 10}{chapter.0.11}{}}
\@writefile{toc}{\contentsline {section}{\numberline {}J\IeC {\'e}rusalem, palais royal, fin de matin\IeC {\'e}e\\du lundi 12 janvier 1159}{299}{section.0.11.1}\protected@file@percent }
\newlabel{juxe9rusalem-palais-royal-fin-de-matinuxe9e-du-lundi-12-janvier-1159}{{}{299}{Jérusalem, palais royal, fin de matinée\\du lundi 12 janvier 1159}{section.0.11.1}{}}
\@writefile{toc}{\contentsline {section}{\numberline {}Palmeraie de Rama, fin d'apr\IeC {\`e}s-midi\\du lundi 26 janvier 1159}{302}{section.0.11.2}\protected@file@percent }
\newlabel{palmeraie-de-rama-fin-dapruxe8s-midi-du-lundi-26-janvier-1159}{{}{302}{Palmeraie de Rama, fin d'après-midi\\du lundi 26 janvier 1159}{section.0.11.2}{}}
\@writefile{toc}{\contentsline {chapter}{\numberline {12}\IeC {\'E}pilogue}{311}{chapter.0.12}\protected@file@percent }
\@writefile{lof}{\addvspace {10\p@ }}
\@writefile{lot}{\addvspace {10\p@ }}
\newlabel{uxe9pilogue}{{12}{311}{Épilogue}{chapter.0.12}{}}
\@writefile{toc}{\contentsline {section}{\numberline {}J\IeC {\'e}rusalem, h\IeC {\^o}tel de Philippe de Naplouse,\\soir du mercredi 28 janvier 1159}{311}{section.0.12.1}\protected@file@percent }
\newlabel{juxe9rusalem-huxf4tel-de-philippe-de-naplouse-soir-du-mercredi-28-janvier-1159}{{}{311}{Jérusalem, hôtel de Philippe de Naplouse,\\soir du mercredi 28 janvier 1159}{section.0.12.1}{}}
\@writefile{toc}{\contentsline {chapter}{\numberline {13}Addenda}{315}{chapter.0.13}\protected@file@percent }
\@writefile{lof}{\addvspace {10\p@ }}
\@writefile{lot}{\addvspace {10\p@ }}
\newlabel{addenda}{{13}{315}{Addenda}{chapter.0.13}{}}
\@writefile{toc}{\contentsline {section}{\numberline {}Notes de l'auteur}{315}{section.0.13.1}\protected@file@percent }
\newlabel{notes-de-lauteur}{{}{315}{Notes de l'auteur}{section.0.13.1}{}}
\ttl@finishall
