\babel@toc {french}{}
\contentsline {section}{Plan de la Mahomerie}{i}{section*.2}
\contentsline {section}{Liste des personnages}{iii}{section*.4}
\contentsline {chapter}{\numberline {1}Prologue}{1}{chapter.0.1}
\contentsline {section}{\numberline {}Monast\IeC {\`e}re b\IeC {\'e}n\IeC {\'e}dictin de la Charit\IeC {\'e}-sur-Loire, hiver 1223}{1}{section.0.1.1}
\contentsline {chapter}{\numberline {2}Chapitre 1}{5}{chapter.0.2}
\contentsline {section}{\numberline {}J\IeC {\'e}rusalem, mardi 10 juin 1158, fin de matin\IeC {\'e}e}{5}{section.0.2.1}
\contentsline {section}{\numberline {}Casal de la Mahomerie, mardi 10 juin 1158, fin d'apr\IeC {\`e}s-midi}{11}{section.0.2.2}
\contentsline {section}{\numberline {}Casal de la Mahomerie, mardi 10 juin 1158, d\IeC {\'e}but de soir\IeC {\'e}e}{17}{section.0.2.3}
\contentsline {section}{\numberline {}Casal de la Mahomerie, mardi 10 juin 1158, soir\IeC {\'e}e}{24}{section.0.2.4}
\contentsline {section}{\numberline {}Casal de la Mahomerie, mardi 10 juin 1158, veill\IeC {\'e}e}{30}{section.0.2.5}
\contentsline {section}{\numberline {}Casal de la Mahomerie, mercredi 11 juin, matin}{37}{section.0.2.6}
\contentsline {section}{\numberline {}Casal de la Mahomerie, mercredi 11 juin, matin\IeC {\'e}e}{43}{section.0.2.7}
\contentsline {chapter}{\numberline {3}Chapitre 2}{53}{chapter.0.3}
\contentsline {section}{\numberline {}Casal de la Mahomerie, mercredi 11 juin, apr\IeC {\`e}s-midi}{53}{section.0.3.1}
\contentsline {section}{\numberline {}Casal de la mahomerie, mercredi 11 juin, veill\IeC {\'e}e}{58}{section.0.3.2}
\contentsline {section}{\numberline {}Casal de la Mahomerie, mercredi 11 juin, nuit}{64}{section.0.3.3}
\contentsline {section}{\numberline {}Casal de la Mahomerie, jeudi 12 juin, matin}{70}{section.0.3.4}
\contentsline {section}{\numberline {}Casal de la Mahomerie, jeudi 12 juin, fin de matin\IeC {\'e}e}{75}{section.0.3.5}
\contentsline {section}{\numberline {}Casal de la Mahomerie, jeudi 12 juin, midi}{80}{section.0.3.6}
\contentsline {section}{\numberline {}Casal de la Mahomerie, jeudi 12 juin, apr\IeC {\`e}s-midi}{86}{section.0.3.7}
\contentsline {chapter}{\numberline {4}Chapitre 3}{95}{chapter.0.4}
\contentsline {section}{\numberline {}Casal de la Mahomerie, jeudi 12 juin, soir}{95}{section.0.4.1}
\contentsline {section}{\numberline {}Ch\IeC {\^a}teau de Salom\IeC {\'e},vendredi 13 juin, fin de matin\IeC {\'e}e}{100}{section.0.4.2}
\contentsline {section}{\numberline {}Abords de Salom\IeC {\'e},vendredi 13 juin, midi}{106}{section.0.4.3}
\contentsline {section}{\numberline {}Casal de Salom\IeC {\'e},vendredi 13 juin, apr\IeC {\`e}s-midi}{112}{section.0.4.4}
\contentsline {section}{\numberline {}Casal de Salom\IeC {\'e}, vendredi 13 juin, apr\IeC {\`e}s-midi}{119}{section.0.4.5}
\contentsline {section}{\numberline {}Environs du casal de la Mahomerie,vendredi 13 juin, d\IeC {\'e}but de soir\IeC {\'e}e}{125}{section.0.4.6}
\contentsline {section}{\numberline {}Casal de la Mahomerie, vendredi 13 juin, soir\IeC {\'e}e}{131}{section.0.4.7}
\contentsline {chapter}{\numberline {5}Chapitre 4}{139}{chapter.0.5}
\contentsline {section}{\numberline {}La Tour Baudoin, samedi 14 juin, matin}{139}{section.0.5.1}
\contentsline {section}{\numberline {}Casal de Saint-Gilles, samedi 14 juin, fin de matin\IeC {\'e}e}{145}{section.0.5.2}
\contentsline {section}{\numberline {}Casal de Saint-Gilles, samedi 14 juin, midi}{152}{section.0.5.3}
\contentsline {section}{\numberline {}Casal de Saint-Gilles, samedi 14 juin, d\IeC {\'e}but d'apr\IeC {\`e}s-midi}{158}{section.0.5.4}
\contentsline {section}{\numberline {}J\IeC {\'e}rusalem, samedi 14 juin, fin d'apr\IeC {\`e}s-midi}{164}{section.0.5.5}
\contentsline {section}{\numberline {}J\IeC {\'e}rusalem, samedi 14 juin, nuit}{170}{section.0.5.6}
\contentsline {section}{\numberline {}Casal de Mahomeriola, dimanche 15 juin, matin}{177}{section.0.5.7}
\contentsline {chapter}{\numberline {6}Chapitre 5}{185}{chapter.0.6}
\contentsline {section}{\numberline {}Casal de Salom\IeC {\'e}, dimanche 15 juin, midi}{185}{section.0.6.1}
\contentsline {section}{\numberline {}J\IeC {\'e}rusalem, dimanche 15 juin, fin d'apr\IeC {\`e}s-midi}{192}{section.0.6.2}
\contentsline {section}{\numberline {}J\IeC {\'e}rusalem, dimanche 15 juin, d\IeC {\'e}but de soir\IeC {\'e}e}{198}{section.0.6.3}
\contentsline {section}{\numberline {}Casal de Mahomeriola, dimanche 15 juin, veill\IeC {\'e}e}{205}{section.0.6.4}
\contentsline {section}{\numberline {}Casal de Saint-Gilles, lundi 16 juin, fin de matin\IeC {\'e}e}{211}{section.0.6.5}
\contentsline {section}{\numberline {}Abords de la Mahomerie, lundi 16 juin, d\IeC {\'e}but d'apr\IeC {\`e}s-midi}{217}{section.0.6.6}
\contentsline {section}{\numberline {}Casal de la Mahomerie, lundi 16 juin, apr\IeC {\`e}s-midi}{223}{section.0.6.7}
\contentsline {chapter}{\numberline {7}Chapitre 6}{231}{chapter.0.7}
\contentsline {section}{\numberline {}Casal de la Mahomerie, lundi 16 juin, apr\IeC {\`e}s-midi}{231}{section.0.7.1}
\contentsline {section}{\numberline {}Casal de la Mahomerie, lundi 16 juin, d\IeC {\'e}but de soir\IeC {\'e}e}{238}{section.0.7.2}
\contentsline {section}{\numberline {}Casal de la Mahomerie, lundi 16 juin, soir\IeC {\'e}e}{244}{section.0.7.3}
\contentsline {section}{\numberline {}Casal de la Mahomerie, lundi 16 juin, soir\IeC {\'e}e}{250}{section.0.7.4}
\contentsline {section}{\numberline {}Casal de Salom\IeC {\'e}, lundi 16 juin, soir}{257}{section.0.7.5}
\contentsline {section}{\numberline {}Collines et oued \IeC {\`a} l'ouest de J\IeC {\'e}richo, mardi 17 juin, midi}{264}{section.0.7.6}
\contentsline {section}{\numberline {}Environs du Wadi Qelt, mardi 17 juin, d\IeC {\'e}but d'apr\IeC {\`e}s-midi}{270}{section.0.7.7}
\contentsline {chapter}{\numberline {8}Chapitre 7}{277}{chapter.0.8}
\contentsline {section}{\numberline {}Casal de Seylon, mardi 17 juin, d\IeC {\'e}but de soir\IeC {\'e}e}{277}{section.0.8.1}
\contentsline {section}{\numberline {}Casal de Seylon, mardi 17 juin, soir\IeC {\'e}e}{283}{section.0.8.2}
\contentsline {section}{\numberline {}Casal de Saint-Gilles, mardi 17 juin, soir\IeC {\'e}e}{289}{section.0.8.3}
\contentsline {section}{\numberline {}Casal de Saint-Gilles, mercredi 18 juin, t\IeC {\^o}t le matin}{296}{section.0.8.4}
\contentsline {section}{\numberline {}Casal de la Mahomerie, mercredi 18 juin, matin\IeC {\'e}e}{302}{section.0.8.5}
\contentsline {section}{\numberline {}Casal de la Mahomerie, mercredi 18 juin, fin de matin\IeC {\'e}e}{308}{section.0.8.6}
\contentsline {section}{\numberline {}J\IeC {\'e}rusalem, mercredi 18 juin, soir}{315}{section.0.8.7}
\contentsline {chapter}{\numberline {9}Chapitre 8}{323}{chapter.0.9}
\contentsline {section}{\numberline {}Casal de la Mahomerie, jeudi 19 juin, matin}{323}{section.0.9.1}
\contentsline {section}{\numberline {}Casal de la Mahomerie, jeudi 19 juin, matin\IeC {\'e}e}{328}{section.0.9.2}
\contentsline {section}{\numberline {}Casal de la Mahomerie, jeudi 19 juin, fin de matin\IeC {\'e}e}{333}{section.0.9.3}
\contentsline {section}{\numberline {}Casal de la Mahomerie, jeudi 19 juin, midi}{338}{section.0.9.4}
\contentsline {section}{\numberline {}Casal de la Mahomerie, jeudi 19 juin, midi}{343}{section.0.9.5}
\contentsline {section}{\numberline {}Casal de la Mahomerie, jeudi 19 juin, d\IeC {\'e}but d'apr\IeC {\`e}s-midi}{348}{section.0.9.6}
\contentsline {chapter}{\numberline {10}\IeC {\'E}pilogue}{355}{chapter.0.10}
\contentsline {section}{\numberline {}Gawl\IeC {\^a}n, soir du yawm al-'ahad, 11 dhou al qi'da 552}{355}{section.0.10.1}
\contentsline {chapter}{\numberline {11}Addenda}{361}{chapter.0.11}
\contentsline {section}{\numberline {}Notes de l'auteur}{361}{section.0.11.1}
\contentsfinish 
