\relax 
\providecommand\hyper@newdestlabel[2]{}
\catcode `:\active 
\catcode `;\active 
\catcode `!\active 
\catcode `?\active 
\providecommand\HyperFirstAtBeginDocument{\AtBeginDocument}
\HyperFirstAtBeginDocument{\ifx\hyper@anchor\@undefined
\global\let\oldcontentsline\contentsline
\gdef\contentsline#1#2#3#4{\oldcontentsline{#1}{#2}{#3}}
\global\let\oldnewlabel\newlabel
\gdef\newlabel#1#2{\newlabelxx{#1}#2}
\gdef\newlabelxx#1#2#3#4#5#6{\oldnewlabel{#1}{{#2}{#3}}}
\AtEndDocument{\ifx\hyper@anchor\@undefined
\let\contentsline\oldcontentsline
\let\newlabel\oldnewlabel
\fi}
\fi}
\global\let\hyper@last\relax 
\gdef\HyperFirstAtBeginDocument#1{#1}
\providecommand\HyField@AuxAddToFields[1]{}
\providecommand\HyField@AuxAddToCoFields[2]{}
\babel@aux{french}{}
\@writefile{toc}{\contentsline {section}{Plan de la Mahomerie}{i}{section*.2}}
\newlabel{plan-de-la-mahomerie}{{}{i}{}{section*.2}{}}
\@writefile{toc}{\contentsline {section}{Liste des personnages}{iii}{section*.4}}
\newlabel{liste-des-personnages}{{}{iii}{}{section*.4}{}}
\@writefile{toc}{\contentsline {chapter}{\numberline {1}Prologue}{1}{chapter.0.1}}
\@writefile{lof}{\addvspace {10\p@ }}
\@writefile{lot}{\addvspace {10\p@ }}
\newlabel{prologue}{{1}{1}{Prologue}{chapter.0.1}{}}
\@writefile{toc}{\contentsline {section}{\numberline {}Monast\IeC {\`e}re b\IeC {\'e}n\IeC {\'e}dictin de la Charit\IeC {\'e}-sur-Loire, hiver 1223}{1}{section.0.1.1}}
\newlabel{monastuxe8re-buxe9nuxe9dictin-de-la-charituxe9-sur-loire-hiver-1223}{{}{1}{Monastère bénédictin de la Charité-sur-Loire, hiver 1223}{section.0.1.1}{}}
\@writefile{toc}{\contentsline {chapter}{\numberline {2}Chapitre 1}{5}{chapter.0.2}}
\@writefile{lof}{\addvspace {10\p@ }}
\@writefile{lot}{\addvspace {10\p@ }}
\newlabel{chapitre-1}{{2}{5}{Chapitre 1}{chapter.0.2}{}}
\@writefile{toc}{\contentsline {section}{\numberline {}J\IeC {\'e}rusalem, mardi 10 juin 1158, fin de matin\IeC {\'e}e}{5}{section.0.2.1}}
\newlabel{juxe9rusalem-mardi-10-juin-1158-fin-de-matinuxe9e}{{}{5}{Jérusalem, mardi 10 juin 1158, fin de matinée}{section.0.2.1}{}}
\@writefile{toc}{\contentsline {section}{\numberline {}Casal de la Mahomerie, mardi 10 juin 1158, fin d'apr\IeC {\`e}s-midi}{11}{section.0.2.2}}
\newlabel{casal-de-la-mahomerie-mardi-10-juin-1158-fin-dapruxe8s-midi}{{}{11}{Casal de la Mahomerie, mardi 10 juin 1158, fin d'après-midi}{section.0.2.2}{}}
\@writefile{toc}{\contentsline {section}{\numberline {}Casal de la Mahomerie, mardi 10 juin 1158, d\IeC {\'e}but de soir\IeC {\'e}e}{17}{section.0.2.3}}
\newlabel{casal-de-la-mahomerie-mardi-10-juin-1158-duxe9but-de-soiruxe9e}{{}{17}{Casal de la Mahomerie, mardi 10 juin 1158, début de soirée}{section.0.2.3}{}}
\@writefile{toc}{\contentsline {section}{\numberline {}Casal de la Mahomerie, mardi 10 juin 1158, soir\IeC {\'e}e}{24}{section.0.2.4}}
\newlabel{casal-de-la-mahomerie-mardi-10-juin-1158-soiruxe9e}{{}{24}{Casal de la Mahomerie, mardi 10 juin 1158, soirée}{section.0.2.4}{}}
\@writefile{toc}{\contentsline {section}{\numberline {}Casal de la Mahomerie, mardi 10 juin 1158, veill\IeC {\'e}e}{30}{section.0.2.5}}
\newlabel{casal-de-la-mahomerie-mardi-10-juin-1158-veilluxe9e}{{}{30}{Casal de la Mahomerie, mardi 10 juin 1158, veillée}{section.0.2.5}{}}
\@writefile{toc}{\contentsline {section}{\numberline {}Casal de la Mahomerie, mercredi 11 juin, matin}{37}{section.0.2.6}}
\newlabel{casal-de-la-mahomerie-mercredi-11-juin-matin}{{}{37}{Casal de la Mahomerie, mercredi 11 juin, matin}{section.0.2.6}{}}
\@writefile{toc}{\contentsline {section}{\numberline {}Casal de la Mahomerie, mercredi 11 juin, matin\IeC {\'e}e}{43}{section.0.2.7}}
\newlabel{casal-de-la-mahomerie-mercredi-11-juin-matinuxe9e}{{}{43}{Casal de la Mahomerie, mercredi 11 juin, matinée}{section.0.2.7}{}}
\@writefile{toc}{\contentsline {chapter}{\numberline {3}Chapitre 2}{53}{chapter.0.3}}
\@writefile{lof}{\addvspace {10\p@ }}
\@writefile{lot}{\addvspace {10\p@ }}
\newlabel{chapitre-2}{{3}{53}{Chapitre 2}{chapter.0.3}{}}
\@writefile{toc}{\contentsline {section}{\numberline {}Casal de la Mahomerie, mercredi 11 juin, apr\IeC {\`e}s-midi}{53}{section.0.3.1}}
\newlabel{casal-de-la-mahomerie-mercredi-11-juin-apruxe8s-midi}{{}{53}{Casal de la Mahomerie, mercredi 11 juin, après-midi}{section.0.3.1}{}}
\@writefile{toc}{\contentsline {section}{\numberline {}Casal de la mahomerie, mercredi 11 juin, veill\IeC {\'e}e}{58}{section.0.3.2}}
\newlabel{casal-de-la-mahomerie-mercredi-11-juin-veilluxe9e}{{}{58}{Casal de la mahomerie, mercredi 11 juin, veillée}{section.0.3.2}{}}
\@writefile{toc}{\contentsline {section}{\numberline {}Casal de la Mahomerie, mercredi 11 juin, nuit}{64}{section.0.3.3}}
\newlabel{casal-de-la-mahomerie-mercredi-11-juin-nuit}{{}{64}{Casal de la Mahomerie, mercredi 11 juin, nuit}{section.0.3.3}{}}
\@writefile{toc}{\contentsline {section}{\numberline {}Casal de la Mahomerie, jeudi 12 juin, matin}{70}{section.0.3.4}}
\newlabel{casal-de-la-mahomerie-jeudi-12-juin-matin}{{}{70}{Casal de la Mahomerie, jeudi 12 juin, matin}{section.0.3.4}{}}
\@writefile{toc}{\contentsline {section}{\numberline {}Casal de la Mahomerie, jeudi 12 juin, fin de matin\IeC {\'e}e}{75}{section.0.3.5}}
\newlabel{casal-de-la-mahomerie-jeudi-12-juin-fin-de-matinuxe9e}{{}{75}{Casal de la Mahomerie, jeudi 12 juin, fin de matinée}{section.0.3.5}{}}
\@writefile{toc}{\contentsline {section}{\numberline {}Casal de la Mahomerie, jeudi 12 juin, midi}{80}{section.0.3.6}}
\newlabel{casal-de-la-mahomerie-jeudi-12-juin-midi}{{}{80}{Casal de la Mahomerie, jeudi 12 juin, midi}{section.0.3.6}{}}
\@writefile{toc}{\contentsline {section}{\numberline {}Casal de la Mahomerie, jeudi 12 juin, apr\IeC {\`e}s-midi}{86}{section.0.3.7}}
\newlabel{casal-de-la-mahomerie-jeudi-12-juin-apruxe8s-midi}{{}{86}{Casal de la Mahomerie, jeudi 12 juin, après-midi}{section.0.3.7}{}}
\@writefile{toc}{\contentsline {chapter}{\numberline {4}Chapitre 3}{95}{chapter.0.4}}
\@writefile{lof}{\addvspace {10\p@ }}
\@writefile{lot}{\addvspace {10\p@ }}
\newlabel{chapitre-3}{{4}{95}{Chapitre 3}{chapter.0.4}{}}
\@writefile{toc}{\contentsline {section}{\numberline {}Casal de la Mahomerie, jeudi 12 juin, soir}{95}{section.0.4.1}}
\newlabel{casal-de-la-mahomerie-jeudi-12-juin-soir}{{}{95}{Casal de la Mahomerie, jeudi 12 juin, soir}{section.0.4.1}{}}
\@writefile{toc}{\contentsline {section}{\numberline {}Ch\IeC {\^a}teau de Salom\IeC {\'e},vendredi 13 juin, fin de matin\IeC {\'e}e}{100}{section.0.4.2}}
\newlabel{chuxe2teau-de-salomuxe9vendredi-13-juin-fin-de-matinuxe9e}{{}{100}{Château de Salomé,vendredi 13 juin, fin de matinée}{section.0.4.2}{}}
\@writefile{toc}{\contentsline {section}{\numberline {}Abords de Salom\IeC {\'e},vendredi 13 juin, midi}{106}{section.0.4.3}}
\newlabel{abords-de-salomuxe9vendredi-13-juin-midi}{{}{106}{Abords de Salomé,vendredi 13 juin, midi}{section.0.4.3}{}}
\@writefile{toc}{\contentsline {section}{\numberline {}Casal de Salom\IeC {\'e},vendredi 13 juin, apr\IeC {\`e}s-midi}{112}{section.0.4.4}}
\newlabel{casal-de-salomuxe9vendredi-13-juin-apruxe8s-midi}{{}{112}{Casal de Salomé,vendredi 13 juin, après-midi}{section.0.4.4}{}}
\@writefile{toc}{\contentsline {section}{\numberline {}Casal de Salom\IeC {\'e}, vendredi 13 juin, apr\IeC {\`e}s-midi}{119}{section.0.4.5}}
\newlabel{casal-de-salomuxe9-vendredi-13-juin-apruxe8s-midi}{{}{119}{Casal de Salomé, vendredi 13 juin, après-midi}{section.0.4.5}{}}
\@writefile{toc}{\contentsline {section}{\numberline {}Environs du casal de la Mahomerie,vendredi 13 juin, d\IeC {\'e}but de soir\IeC {\'e}e}{125}{section.0.4.6}}
\newlabel{environs-du-casal-de-la-mahomerievendredi-13-juin-duxe9but-de-soiruxe9e}{{}{125}{Environs du casal de la Mahomerie,vendredi 13 juin, début de soirée}{section.0.4.6}{}}
\@writefile{toc}{\contentsline {section}{\numberline {}Casal de la Mahomerie, vendredi 13 juin, soir\IeC {\'e}e}{131}{section.0.4.7}}
\newlabel{casal-de-la-mahomerie-vendredi-13-juin-soiruxe9e}{{}{131}{Casal de la Mahomerie, vendredi 13 juin, soirée}{section.0.4.7}{}}
\@writefile{toc}{\contentsline {chapter}{\numberline {5}Chapitre 4}{139}{chapter.0.5}}
\@writefile{lof}{\addvspace {10\p@ }}
\@writefile{lot}{\addvspace {10\p@ }}
\newlabel{chapitre-4}{{5}{139}{Chapitre 4}{chapter.0.5}{}}
\@writefile{toc}{\contentsline {section}{\numberline {}La Tour Baudoin, samedi 14 juin, matin}{139}{section.0.5.1}}
\newlabel{la-tour-baudoin-samedi-14-juin-matin}{{}{139}{La Tour Baudoin, samedi 14 juin, matin}{section.0.5.1}{}}
\@writefile{toc}{\contentsline {section}{\numberline {}Casal de Saint-Gilles, samedi 14 juin, fin de matin\IeC {\'e}e}{145}{section.0.5.2}}
\newlabel{casal-de-saint-gilles-samedi-14-juin-fin-de-matinuxe9e}{{}{145}{Casal de Saint-Gilles, samedi 14 juin, fin de matinée}{section.0.5.2}{}}
\@writefile{toc}{\contentsline {section}{\numberline {}Casal de Saint-Gilles, samedi 14 juin, midi}{152}{section.0.5.3}}
\newlabel{casal-de-saint-gilles-samedi-14-juin-midi}{{}{152}{Casal de Saint-Gilles, samedi 14 juin, midi}{section.0.5.3}{}}
\@writefile{toc}{\contentsline {section}{\numberline {}Casal de Saint-Gilles, samedi 14 juin, d\IeC {\'e}but d'apr\IeC {\`e}s-midi}{158}{section.0.5.4}}
\newlabel{casal-de-saint-gilles-samedi-14-juin-duxe9but-dapruxe8s-midi}{{}{158}{Casal de Saint-Gilles, samedi 14 juin, début d'après-midi}{section.0.5.4}{}}
\@writefile{toc}{\contentsline {section}{\numberline {}J\IeC {\'e}rusalem, samedi 14 juin, fin d'apr\IeC {\`e}s-midi}{164}{section.0.5.5}}
\newlabel{juxe9rusalem-samedi-14-juin-fin-dapruxe8s-midi}{{}{164}{Jérusalem, samedi 14 juin, fin d'après-midi}{section.0.5.5}{}}
\@writefile{toc}{\contentsline {section}{\numberline {}J\IeC {\'e}rusalem, samedi 14 juin, nuit}{170}{section.0.5.6}}
\newlabel{juxe9rusalem-samedi-14-juin-nuit}{{}{170}{Jérusalem, samedi 14 juin, nuit}{section.0.5.6}{}}
\@writefile{toc}{\contentsline {section}{\numberline {}Casal de Mahomeriola, dimanche 15 juin, matin}{177}{section.0.5.7}}
\newlabel{casal-de-mahomeriola-dimanche-15-juin-matin}{{}{177}{Casal de Mahomeriola, dimanche 15 juin, matin}{section.0.5.7}{}}
\@writefile{toc}{\contentsline {chapter}{\numberline {6}Chapitre 5}{185}{chapter.0.6}}
\@writefile{lof}{\addvspace {10\p@ }}
\@writefile{lot}{\addvspace {10\p@ }}
\newlabel{chapitre-5}{{6}{185}{Chapitre 5}{chapter.0.6}{}}
\@writefile{toc}{\contentsline {section}{\numberline {}Casal de Salom\IeC {\'e}, dimanche 15 juin, midi}{185}{section.0.6.1}}
\newlabel{casal-de-salomuxe9-dimanche-15-juin-midi}{{}{185}{Casal de Salomé, dimanche 15 juin, midi}{section.0.6.1}{}}
\@writefile{toc}{\contentsline {section}{\numberline {}J\IeC {\'e}rusalem, dimanche 15 juin, fin d'apr\IeC {\`e}s-midi}{192}{section.0.6.2}}
\newlabel{juxe9rusalem-dimanche-15-juin-fin-dapruxe8s-midi}{{}{192}{Jérusalem, dimanche 15 juin, fin d'après-midi}{section.0.6.2}{}}
\@writefile{toc}{\contentsline {section}{\numberline {}J\IeC {\'e}rusalem, dimanche 15 juin, d\IeC {\'e}but de soir\IeC {\'e}e}{198}{section.0.6.3}}
\newlabel{juxe9rusalem-dimanche-15-juin-duxe9but-de-soiruxe9e}{{}{198}{Jérusalem, dimanche 15 juin, début de soirée}{section.0.6.3}{}}
\@writefile{toc}{\contentsline {section}{\numberline {}Casal de Mahomeriola, dimanche 15 juin, veill\IeC {\'e}e}{205}{section.0.6.4}}
\newlabel{casal-de-mahomeriola-dimanche-15-juin-veilluxe9e}{{}{205}{Casal de Mahomeriola, dimanche 15 juin, veillée}{section.0.6.4}{}}
\@writefile{toc}{\contentsline {section}{\numberline {}Casal de Saint-Gilles, lundi 16 juin, fin de matin\IeC {\'e}e}{211}{section.0.6.5}}
\newlabel{casal-de-saint-gilles-lundi-16-juin-fin-de-matinuxe9e}{{}{211}{Casal de Saint-Gilles, lundi 16 juin, fin de matinée}{section.0.6.5}{}}
\@writefile{toc}{\contentsline {section}{\numberline {}Abords de la Mahomerie, lundi 16 juin, d\IeC {\'e}but d'apr\IeC {\`e}s-midi}{217}{section.0.6.6}}
\newlabel{abords-de-la-mahomerie-lundi-16-juin-duxe9but-dapruxe8s-midi}{{}{217}{Abords de la Mahomerie, lundi 16 juin, début d'après-midi}{section.0.6.6}{}}
\@writefile{toc}{\contentsline {section}{\numberline {}Casal de la Mahomerie, lundi 16 juin, apr\IeC {\`e}s-midi}{223}{section.0.6.7}}
\newlabel{casal-de-la-mahomerie-lundi-16-juin-apruxe8s-midi}{{}{223}{Casal de la Mahomerie, lundi 16 juin, après-midi}{section.0.6.7}{}}
\@writefile{toc}{\contentsline {chapter}{\numberline {7}Chapitre 6}{231}{chapter.0.7}}
\@writefile{lof}{\addvspace {10\p@ }}
\@writefile{lot}{\addvspace {10\p@ }}
\newlabel{chapitre-6}{{7}{231}{Chapitre 6}{chapter.0.7}{}}
\@writefile{toc}{\contentsline {section}{\numberline {}Casal de la Mahomerie, lundi 16 juin, apr\IeC {\`e}s-midi}{231}{section.0.7.1}}
\newlabel{casal-de-la-mahomerie-lundi-16-juin-apruxe8s-midi-1}{{}{231}{Casal de la Mahomerie, lundi 16 juin, après-midi}{section.0.7.1}{}}
\@writefile{toc}{\contentsline {section}{\numberline {}Casal de la Mahomerie, lundi 16 juin, d\IeC {\'e}but de soir\IeC {\'e}e}{238}{section.0.7.2}}
\newlabel{casal-de-la-mahomerie-lundi-16-juin-duxe9but-de-soiruxe9e}{{}{238}{Casal de la Mahomerie, lundi 16 juin, début de soirée}{section.0.7.2}{}}
\@writefile{toc}{\contentsline {section}{\numberline {}Casal de la Mahomerie, lundi 16 juin, soir\IeC {\'e}e}{244}{section.0.7.3}}
\newlabel{casal-de-la-mahomerie-lundi-16-juin-soiruxe9e}{{}{244}{Casal de la Mahomerie, lundi 16 juin, soirée}{section.0.7.3}{}}
\@writefile{toc}{\contentsline {section}{\numberline {}Casal de la Mahomerie, lundi 16 juin, soir\IeC {\'e}e}{250}{section.0.7.4}}
\newlabel{casal-de-la-mahomerie-lundi-16-juin-soiruxe9e-1}{{}{250}{Casal de la Mahomerie, lundi 16 juin, soirée}{section.0.7.4}{}}
\@writefile{toc}{\contentsline {section}{\numberline {}Casal de Salom\IeC {\'e}, lundi 16 juin, soir}{257}{section.0.7.5}}
\newlabel{casal-de-salomuxe9-lundi-16-juin-soir}{{}{257}{Casal de Salomé, lundi 16 juin, soir}{section.0.7.5}{}}
\@writefile{toc}{\contentsline {section}{\numberline {}Collines et oued \IeC {\`a} l'ouest de J\IeC {\'e}richo, mardi 17 juin, midi}{264}{section.0.7.6}}
\newlabel{collines-et-oued-uxe0-louest-de-juxe9richo-mardi-17-juin-midi}{{}{264}{Collines et oued à l'ouest de Jéricho, mardi 17 juin, midi}{section.0.7.6}{}}
\@writefile{toc}{\contentsline {section}{\numberline {}Environs du Wadi Qelt, mardi 17 juin, d\IeC {\'e}but d'apr\IeC {\`e}s-midi}{270}{section.0.7.7}}
\newlabel{environs-du-wadi-qelt-mardi-17-juin-duxe9but-dapruxe8s-midi}{{}{270}{Environs du Wadi Qelt, mardi 17 juin, début d'après-midi}{section.0.7.7}{}}
\@writefile{toc}{\contentsline {chapter}{\numberline {8}Chapitre 7}{277}{chapter.0.8}}
\@writefile{lof}{\addvspace {10\p@ }}
\@writefile{lot}{\addvspace {10\p@ }}
\newlabel{chapitre-7}{{8}{277}{Chapitre 7}{chapter.0.8}{}}
\@writefile{toc}{\contentsline {section}{\numberline {}Casal de Seylon, mardi 17 juin, d\IeC {\'e}but de soir\IeC {\'e}e}{277}{section.0.8.1}}
\newlabel{casal-de-seylon-mardi-17-juin-duxe9but-de-soiruxe9e}{{}{277}{Casal de Seylon, mardi 17 juin, début de soirée}{section.0.8.1}{}}
\@writefile{toc}{\contentsline {section}{\numberline {}Casal de Seylon, mardi 17 juin, soir\IeC {\'e}e}{283}{section.0.8.2}}
\newlabel{casal-de-seylon-mardi-17-juin-soiruxe9e}{{}{283}{Casal de Seylon, mardi 17 juin, soirée}{section.0.8.2}{}}
\@writefile{toc}{\contentsline {section}{\numberline {}Casal de Saint-Gilles, mardi 17 juin, soir\IeC {\'e}e}{289}{section.0.8.3}}
\newlabel{casal-de-saint-gilles-mardi-17-juin-soiruxe9e}{{}{289}{Casal de Saint-Gilles, mardi 17 juin, soirée}{section.0.8.3}{}}
\@writefile{toc}{\contentsline {section}{\numberline {}Casal de Saint-Gilles, mercredi 18 juin, t\IeC {\^o}t le matin}{296}{section.0.8.4}}
\newlabel{casal-de-saint-gilles-mercredi-18-juin-tuxf4t-le-matin}{{}{296}{Casal de Saint-Gilles, mercredi 18 juin, tôt le matin}{section.0.8.4}{}}
\@writefile{toc}{\contentsline {section}{\numberline {}Casal de la Mahomerie, mercredi 18 juin, matin\IeC {\'e}e}{302}{section.0.8.5}}
\newlabel{casal-de-la-mahomerie-mercredi-18-juin-matinuxe9e}{{}{302}{Casal de la Mahomerie, mercredi 18 juin, matinée}{section.0.8.5}{}}
\@writefile{toc}{\contentsline {section}{\numberline {}Casal de la Mahomerie, mercredi 18 juin, fin de matin\IeC {\'e}e}{308}{section.0.8.6}}
\newlabel{casal-de-la-mahomerie-mercredi-18-juin-fin-de-matinuxe9e}{{}{308}{Casal de la Mahomerie, mercredi 18 juin, fin de matinée}{section.0.8.6}{}}
\@writefile{toc}{\contentsline {section}{\numberline {}J\IeC {\'e}rusalem, mercredi 18 juin, soir}{315}{section.0.8.7}}
\newlabel{juxe9rusalem-mercredi-18-juin-soir}{{}{315}{Jérusalem, mercredi 18 juin, soir}{section.0.8.7}{}}
\@writefile{toc}{\contentsline {chapter}{\numberline {9}Chapitre 8}{323}{chapter.0.9}}
\@writefile{lof}{\addvspace {10\p@ }}
\@writefile{lot}{\addvspace {10\p@ }}
\newlabel{chapitre-8}{{9}{323}{Chapitre 8}{chapter.0.9}{}}
\@writefile{toc}{\contentsline {section}{\numberline {}Casal de la Mahomerie, jeudi 19 juin, matin}{323}{section.0.9.1}}
\newlabel{casal-de-la-mahomerie-jeudi-19-juin-matin}{{}{323}{Casal de la Mahomerie, jeudi 19 juin, matin}{section.0.9.1}{}}
\@writefile{toc}{\contentsline {section}{\numberline {}Casal de la Mahomerie, jeudi 19 juin, matin\IeC {\'e}e}{328}{section.0.9.2}}
\newlabel{casal-de-la-mahomerie-jeudi-19-juin-matinuxe9e}{{}{328}{Casal de la Mahomerie, jeudi 19 juin, matinée}{section.0.9.2}{}}
\@writefile{toc}{\contentsline {section}{\numberline {}Casal de la Mahomerie, jeudi 19 juin, fin de matin\IeC {\'e}e}{333}{section.0.9.3}}
\newlabel{casal-de-la-mahomerie-jeudi-19-juin-fin-de-matinuxe9e}{{}{333}{Casal de la Mahomerie, jeudi 19 juin, fin de matinée}{section.0.9.3}{}}
\@writefile{toc}{\contentsline {section}{\numberline {}Casal de la Mahomerie, jeudi 19 juin, midi}{338}{section.0.9.4}}
\newlabel{casal-de-la-mahomerie-jeudi-19-juin-midi}{{}{338}{Casal de la Mahomerie, jeudi 19 juin, midi}{section.0.9.4}{}}
\@writefile{toc}{\contentsline {section}{\numberline {}Casal de la Mahomerie, jeudi 19 juin, midi}{343}{section.0.9.5}}
\newlabel{casal-de-la-mahomerie-jeudi-19-juin-midi-1}{{}{343}{Casal de la Mahomerie, jeudi 19 juin, midi}{section.0.9.5}{}}
\@writefile{toc}{\contentsline {section}{\numberline {}Casal de la Mahomerie, jeudi 19 juin, d\IeC {\'e}but d'apr\IeC {\`e}s-midi}{348}{section.0.9.6}}
\newlabel{casal-de-la-mahomerie-jeudi-19-juin-duxe9but-dapruxe8s-midi}{{}{348}{Casal de la Mahomerie, jeudi 19 juin, début d'après-midi}{section.0.9.6}{}}
\@writefile{toc}{\contentsline {chapter}{\numberline {10}\IeC {\'E}pilogue}{355}{chapter.0.10}}
\@writefile{lof}{\addvspace {10\p@ }}
\@writefile{lot}{\addvspace {10\p@ }}
\newlabel{uxe9pilogue}{{10}{355}{Épilogue}{chapter.0.10}{}}
\@writefile{toc}{\contentsline {section}{\numberline {}Gawl\IeC {\^a}n, soir du yawm al-'ahad, 11 dhou al qi'da 552}{355}{section.0.10.1}}
\newlabel{gawluxe2n-soir-du-yawm-al-ahad-11-dhou-al-qida-552plateau-du-golan-soir-du-15-duxe9cembre-1157.}{{}{355}{Gawlân, soir du yawm al-'ahad, 11 dhou al qi'da 552}{section.0.10.1}{}}
\@writefile{toc}{\contentsline {chapter}{\numberline {11}Addenda}{361}{chapter.0.11}}
\@writefile{lof}{\addvspace {10\p@ }}
\@writefile{lot}{\addvspace {10\p@ }}
\newlabel{Addenda}{{11}{361}{Addenda}{chapter.0.11}{}}
\@writefile{toc}{\contentsline {section}{\numberline {}Notes de l'auteur}{361}{section.0.11.1}}
\newlabel{notesauteur}{{}{361}{Notes de l'auteur}{section.0.11.1}{}}
\ttl@finishall
