\relax 
\providecommand\hyper@newdestlabel[2]{}
\providecommand\babel@aux[2]{}
\@nameuse{bbl@beforestart}
\catcode `:\active 
\catcode `;\active 
\catcode `!\active 
\catcode `?\active 
\providecommand\HyperFirstAtBeginDocument{\AtBeginDocument}
\HyperFirstAtBeginDocument{\ifx\hyper@anchor\@undefined
\global\let\oldcontentsline\contentsline
\gdef\contentsline#1#2#3#4{\oldcontentsline{#1}{#2}{#3}}
\global\let\oldnewlabel\newlabel
\gdef\newlabel#1#2{\newlabelxx{#1}#2}
\gdef\newlabelxx#1#2#3#4#5#6{\oldnewlabel{#1}{{#2}{#3}}}
\AtEndDocument{\ifx\hyper@anchor\@undefined
\let\contentsline\oldcontentsline
\let\newlabel\oldnewlabel
\fi}
\fi}
\global\let\hyper@last\relax 
\gdef\HyperFirstAtBeginDocument#1{#1}
\providecommand\HyField@AuxAddToFields[1]{}
\providecommand\HyField@AuxAddToCoFields[2]{}
\babel@aux{french}{}
\@writefile{toc}{\contentsline {chapter}{\numberline {1}Basileia romaion}{1}{chapter.0.1}\protected@file@percent }
\@writefile{lof}{\addvspace {10\p@ }}
\@writefile{lot}{\addvspace {10\p@ }}
\newlabel{basileia-romaion}{{1}{1}{Basileia romaion}{chapter.0.1}{}}
\@writefile{toc}{\contentsline {section}{\numberline {}Jérusalem, quartier de la Juiverie, matin du jeudi 20 juin 1157}{1}{section.0.1.1}\protected@file@percent }
\newlabel{juxe9rusalem-quartier-de-la-juiverie-matin-du-jeudi-20-juin-1157}{{}{1}{Jérusalem, quartier de la Juiverie, matin du jeudi 20 juin 1157}{section.0.1.1}{}}
\@writefile{toc}{\contentsline {section}{\numberline {}Jérusalem, quartier de la Juiverie, après-midi du mercredi 26 février 1158}{3}{section.0.1.2}\protected@file@percent }
\newlabel{juxe9rusalem-quartier-de-la-juiverie-apruxe8s-midi-du-mercredi-26-fuxe9vrier-1158}{{}{3}{Jérusalem, quartier de la Juiverie, après-midi du mercredi 26 février 1158}{section.0.1.2}{}}
\@writefile{toc}{\contentsline {section}{\numberline {}Jérusalem, quartier de la Juiverie, fin d'après-midi du mardi 14 octobre 1158}{6}{section.0.1.3}\protected@file@percent }
\newlabel{juxe9rusalem-quartier-de-la-juiverie-fin-dapruxe8s-midi-du-mardi-14-octobre-1158}{{}{6}{Jérusalem, quartier de la Juiverie, fin d'après-midi du mardi 14 octobre 1158}{section.0.1.3}{}}
\@writefile{toc}{\contentsline {section}{\numberline {}Notes}{9}{section.0.1.4}\protected@file@percent }
\newlabel{notes}{{}{9}{Notes}{section.0.1.4}{}}
\@writefile{toc}{\contentsline {section}{\numberline {}Références}{10}{section.0.1.5}\protected@file@percent }
\newlabel{ruxe9fuxe9rences}{{}{10}{Références}{section.0.1.5}{}}
\@writefile{toc}{\contentsline {chapter}{\numberline {2}Fondation}{11}{chapter.0.2}\protected@file@percent }
\@writefile{lof}{\addvspace {10\p@ }}
\@writefile{lot}{\addvspace {10\p@ }}
\newlabel{fondation}{{2}{11}{Fondation}{chapter.0.2}{}}
\@writefile{toc}{\contentsline {section}{\numberline {}Jérusalem, sud du mont Sion, après-midi du dimanche 27 juillet 1158}{11}{section.0.2.1}\protected@file@percent }
\newlabel{juxe9rusalem-sud-du-mont-sion-apruxe8s-midi-du-dimanche-27-juillet-1158}{{}{11}{Jérusalem, sud du mont Sion, après-midi du dimanche 27 juillet 1158}{section.0.2.1}{}}
\@writefile{toc}{\contentsline {section}{\numberline {}Jérusalem, palais royal, après-midi du jeudi 25 juin 1159}{15}{section.0.2.2}\protected@file@percent }
\newlabel{juxe9rusalem-palais-royal-apruxe8s-midi-du-jeudi-25-juin-1159}{{}{15}{Jérusalem, palais royal, après-midi du jeudi 25 juin 1159}{section.0.2.2}{}}
\@writefile{toc}{\contentsline {section}{\numberline {}Jérusalem, quartier de la Juiverie, matin du vendredi 27 novembre 1159}{18}{section.0.2.3}\protected@file@percent }
\newlabel{juxe9rusalem-quartier-de-la-juiverie-matin-du-vendredi-27-novembre-1159}{{}{18}{Jérusalem, quartier de la Juiverie, matin du vendredi 27 novembre 1159}{section.0.2.3}{}}
\@writefile{toc}{\contentsline {section}{\numberline {}Mahomeriola, demeure de Sanson de Brie, soir du vendredi 25 décembre 1159}{20}{section.0.2.4}\protected@file@percent }
\newlabel{mahomeriola-demeure-de-sanson-de-brie-soir-du-vendredi-25-duxe9cembre-1159}{{}{20}{Mahomeriola, demeure de Sanson de Brie, soir du vendredi 25 décembre 1159}{section.0.2.4}{}}
\@writefile{toc}{\contentsline {section}{\numberline {}Notes}{22}{section.0.2.5}\protected@file@percent }
\newlabel{notes-1}{{}{22}{Notes}{section.0.2.5}{}}
\@writefile{toc}{\contentsline {section}{\numberline {}Références}{23}{section.0.2.6}\protected@file@percent }
\newlabel{ruxe9fuxe9rences-1}{{}{23}{Références}{section.0.2.6}{}}
\@writefile{toc}{\contentsline {chapter}{\numberline {3}Entéléchie}{25}{chapter.0.3}\protected@file@percent }
\@writefile{lof}{\addvspace {10\p@ }}
\@writefile{lot}{\addvspace {10\p@ }}
\newlabel{entuxe9luxe9chie}{{3}{25}{Entéléchie}{chapter.0.3}{}}
\@writefile{toc}{\contentsline {section}{\numberline {}Casal de Mahomeriola, fin d'après-midi du mardi 30 juillet 1157}{25}{section.0.3.1}\protected@file@percent }
\newlabel{casal-de-mahomeriola-fin-dapruxe8s-midi-du-mardi-30-juillet-1157}{{}{25}{Casal de Mahomeriola, fin d'après-midi du mardi 30 juillet 1157}{section.0.3.1}{}}
\@writefile{toc}{\contentsline {section}{\numberline {}Casal de Mahomeriola, église paroissiale, matin du lundi 8 décembre 1158}{28}{section.0.3.2}\protected@file@percent }
\newlabel{casal-de-mahomeriola-uxe9glise-paroissiale-matin-du-lundi-8-duxe9cembre-1158}{{}{28}{Casal de Mahomeriola, église paroissiale, matin du lundi 8 décembre 1158}{section.0.3.2}{}}
\@writefile{toc}{\contentsline {section}{\numberline {}Casal de Mahomeriola, demeure de Sanson de Brie, matin du jeudi 24 septembre 1159}{31}{section.0.3.3}\protected@file@percent }
\newlabel{casal-de-mahomeriola-demeure-de-sanson-de-brie-matin-du-jeudi-24-septembre-1159}{{}{31}{Casal de Mahomeriola, demeure de Sanson de Brie, matin du jeudi 24 septembre 1159}{section.0.3.3}{}}
\@writefile{toc}{\contentsline {section}{\numberline {}Mahomeriola, demeure de Sanson de Brie, soir du vendredi 25 décembre 1159}{33}{section.0.3.4}\protected@file@percent }
\newlabel{mahomeriola-demeure-de-sanson-de-brie-soir-du-vendredi-25-duxe9cembre-1159-1}{{}{33}{Mahomeriola, demeure de Sanson de Brie, soir du vendredi 25 décembre 1159}{section.0.3.4}{}}
\@writefile{toc}{\contentsline {section}{\numberline {}Notes}{35}{section.0.3.5}\protected@file@percent }
\newlabel{notes-2}{{}{35}{Notes}{section.0.3.5}{}}
\@writefile{toc}{\contentsline {section}{\numberline {}Références}{36}{section.0.3.6}\protected@file@percent }
\newlabel{ruxe9fuxe9rences-2}{{}{36}{Références}{section.0.3.6}{}}
\@writefile{toc}{\contentsline {chapter}{\numberline {4}Passage}{37}{chapter.0.4}\protected@file@percent }
\@writefile{lof}{\addvspace {10\p@ }}
\@writefile{lot}{\addvspace {10\p@ }}
\newlabel{passage}{{4}{37}{Passage}{chapter.0.4}{}}
\@writefile{toc}{\contentsline {section}{\numberline {}Casal de Mahomeriola, fin d'après-midi du mercredi 29 janvier 1158}{37}{section.0.4.1}\protected@file@percent }
\newlabel{casal-de-mahomeriola-fin-dapruxe8s-midi-du-mercredi-29-janvier-1158}{{}{37}{Casal de Mahomeriola, fin d'après-midi du mercredi 29 janvier 1158}{section.0.4.1}{}}
\@writefile{toc}{\contentsline {section}{\numberline {}Casal de Mahomeriola, demeure de Pariset, veillée du dimanche 7 septembre 1158}{40}{section.0.4.2}\protected@file@percent }
\newlabel{casal-de-mahomeriola-demeure-de-pariset-veilluxe9e-du-dimanche-7-septembre-1158}{{}{40}{Casal de Mahomeriola, demeure de Pariset, veillée du dimanche 7 septembre 1158}{section.0.4.2}{}}
\@writefile{toc}{\contentsline {section}{\numberline {}Casal de Mahomeriola, demeure de Sanson de Brie, fin d'après-midi du mardi 28 juillet 1159}{43}{section.0.4.3}\protected@file@percent }
\newlabel{casal-de-mahomeriola-demeure-de-sanson-de-brie-fin-dapruxe8s-midi-du-mardi-28-juillet-1159}{{}{43}{Casal de Mahomeriola, demeure de Sanson de Brie, fin d'après-midi du mardi 28 juillet 1159}{section.0.4.3}{}}
\@writefile{toc}{\contentsline {section}{\numberline {}Mahomeriola, demeure de Sanson de Brie, soir du vendredi 25 décembre 1159}{45}{section.0.4.4}\protected@file@percent }
\newlabel{mahomeriola-demeure-de-sanson-de-brie-soir-du-vendredi-25-duxe9cembre-1159-2}{{}{45}{Mahomeriola, demeure de Sanson de Brie, soir du vendredi 25 décembre 1159}{section.0.4.4}{}}
\@writefile{toc}{\contentsline {section}{\numberline {}Notes}{47}{section.0.4.5}\protected@file@percent }
\newlabel{notes-3}{{}{47}{Notes}{section.0.4.5}{}}
\@writefile{toc}{\contentsline {section}{\numberline {}Références}{48}{section.0.4.6}\protected@file@percent }
\newlabel{ruxe9fuxe9rences-3}{{}{48}{Références}{section.0.4.6}{}}
\@writefile{toc}{\contentsline {chapter}{\numberline {5}Maître de chapelle}{49}{chapter.0.5}\protected@file@percent }
\@writefile{lof}{\addvspace {10\p@ }}
\@writefile{lot}{\addvspace {10\p@ }}
\newlabel{mauxeetre-de-chapelle}{{5}{49}{Maître de chapelle}{chapter.0.5}{}}
\@writefile{toc}{\contentsline {section}{\numberline {}Lydda, palais de l'évêque, matin du lundi 9 mars 1159}{49}{section.0.5.1}\protected@file@percent }
\newlabel{lydda-palais-de-luxe9vuxeaque-matin-du-lundi-9-mars-1159}{{}{49}{Lydda, palais de l'évêque, matin du lundi 9 mars 1159}{section.0.5.1}{}}
\@writefile{toc}{\contentsline {section}{\numberline {}Château de Beaufort, après-midi du dimanche 14 juin 1159}{53}{section.0.5.2}\protected@file@percent }
\newlabel{chuxe2teau-de-beaufort-apruxe8s-midi-du-dimanche-14-juin-1159}{{}{53}{Château de Beaufort, après-midi du dimanche 14 juin 1159}{section.0.5.2}{}}
\@writefile{toc}{\contentsline {section}{\numberline {}Sagette, château de La Tour-Baudoin, veillée du jeudi 10 septembre 1159}{56}{section.0.5.3}\protected@file@percent }
\newlabel{sagette-chuxe2teau-de-la-tour-baudoin-veilluxe9e-du-jeudi-10-septembre-1159}{{}{56}{Sagette, château de La Tour-Baudoin, veillée du jeudi 10 septembre 1159}{section.0.5.3}{}}
\@writefile{toc}{\contentsline {section}{\numberline {}Sagette, château de La Tour-Baudoin, matinée du mardi 15 décembre 1159}{58}{section.0.5.4}\protected@file@percent }
\newlabel{sagette-chuxe2teau-de-la-tour-baudoin-matinuxe9e-du-mardi-15-duxe9cembre-1159}{{}{58}{Sagette, château de La Tour-Baudoin, matinée du mardi 15 décembre 1159}{section.0.5.4}{}}
\@writefile{toc}{\contentsline {section}{\numberline {}Notes}{60}{section.0.5.5}\protected@file@percent }
\newlabel{notes-4}{{}{60}{Notes}{section.0.5.5}{}}
\@writefile{toc}{\contentsline {section}{\numberline {}Références}{61}{section.0.5.6}\protected@file@percent }
\newlabel{ruxe9fuxe9rences-4}{{}{61}{Références}{section.0.5.6}{}}
\@writefile{toc}{\contentsline {chapter}{\numberline {6}Le lion et l'éléphant}{63}{chapter.0.6}\protected@file@percent }
\@writefile{lof}{\addvspace {10\p@ }}
\@writefile{lot}{\addvspace {10\p@ }}
\newlabel{le-lion-et-luxe9luxe9phant}{{6}{63}{Le lion et l'éléphant}{chapter.0.6}{}}
\@writefile{toc}{\contentsline {section}{\numberline {}Jérusalem, rue du Temple, aube du mercredi 15 avril 1159}{63}{section.0.6.1}\protected@file@percent }
\newlabel{juxe9rusalem-rue-du-temple-aube-du-mercredi-15-avril-1159}{{}{63}{Jérusalem, rue du Temple, aube du mercredi 15 avril 1159}{section.0.6.1}{}}
\@writefile{toc}{\contentsline {section}{\numberline {}Village de Hammam, gué de la Balanée, fin d'après-midi du lundi 25 mai 1159}{66}{section.0.6.2}\protected@file@percent }
\newlabel{village-de-hammam-guuxe9-de-la-balanuxe9e-fin-dapruxe8s-midi-du-lundi-25-mai-1159}{{}{66}{Village de Hammam, gué de la Balanée, fin d'après-midi du lundi 25 mai 1159}{section.0.6.2}{}}
\@writefile{toc}{\contentsline {section}{\numberline {}Village de Hammam, camp latin du gué de la Balanée, après-midi du samedi 30 mai 1159}{68}{section.0.6.3}\protected@file@percent }
\newlabel{village-de-hammam-camp-latin-du-guuxe9-de-la-balanuxe9e-apruxe8s-midi-du-samedi-30-mai-1159}{{}{68}{Village de Hammam, camp latin du gué de la Balanée, après-midi du samedi 30 mai 1159}{section.0.6.3}{}}
\@writefile{toc}{\contentsline {section}{\numberline {}Village de Hammam, camp latin du gué de la Balanée, veillée du samedi 30 mai 1159}{70}{section.0.6.4}\protected@file@percent }
\newlabel{village-de-hammam-camp-latin-du-guuxe9-de-la-balanuxe9e-veilluxe9e-du-samedi-30-mai-1159}{{}{70}{Village de Hammam, camp latin du gué de la Balanée, veillée du samedi 30 mai 1159}{section.0.6.4}{}}
\@writefile{toc}{\contentsline {section}{\numberline {}Notes}{73}{section.0.6.5}\protected@file@percent }
\newlabel{notes-5}{{}{73}{Notes}{section.0.6.5}{}}
\@writefile{toc}{\contentsline {section}{\numberline {}Références}{74}{section.0.6.6}\protected@file@percent }
\newlabel{ruxe9fuxe9rences-5}{{}{74}{Références}{section.0.6.6}{}}
\@writefile{toc}{\contentsline {chapter}{\numberline {7}En marche}{75}{chapter.0.7}\protected@file@percent }
\@writefile{lof}{\addvspace {10\p@ }}
\@writefile{lot}{\addvspace {10\p@ }}
\newlabel{en-marche}{{7}{75}{En marche}{chapter.0.7}{}}
\@writefile{toc}{\contentsline {section}{\numberline {}Chêne d'Abraham, faubourgs de Hébron, midi du jeudi 3 mai 1151}{75}{section.0.7.1}\protected@file@percent }
\newlabel{chuxeane-dabraham-faubourgs-de-huxe9bron-midi-du-jeudi-3-mai-1151}{{}{75}{Chêne d'Abraham, faubourgs de Hébron, midi du jeudi 3 mai 1151}{section.0.7.1}{}}
\@writefile{toc}{\contentsline {section}{\numberline {}Ascalon, camp de siège, veillée du lundi 17 août 1153}{77}{section.0.7.2}\protected@file@percent }
\newlabel{ascalon-camp-de-siuxe8ge-veilluxe9e-du-lundi-17-aouxfbt-1153}{{}{77}{Ascalon, camp de siège, veillée du lundi 17 août 1153}{section.0.7.2}{}}
\@writefile{toc}{\contentsline {section}{\numberline {}Région de Gaza, zone d'el Djifar, veillée du samedi 6 septembre 1158}{80}{section.0.7.3}\protected@file@percent }
\newlabel{ruxe9gion-de-gaza-zone-del-djifar-veilluxe9e-du-samedi-6-septembre-1158}{{}{80}{Région de Gaza, zone d'el Djifar, veillée du samedi 6 septembre 1158}{section.0.7.3}{}}
\@writefile{toc}{\contentsline {section}{\numberline {}Désert d'al-Gifar, fin d'après-midi du vendredi 19 septembre 1158}{82}{section.0.7.4}\protected@file@percent }
\newlabel{duxe9sert-dal-gifar-fin-dapruxe8s-midi-du-vendredi-19-septembre-1158}{{}{82}{Désert d'al-Gifar, fin d'après-midi du vendredi 19 septembre 1158}{section.0.7.4}{}}
\@writefile{toc}{\contentsline {section}{\numberline {}Notes}{84}{section.0.7.5}\protected@file@percent }
\newlabel{notes-6}{{}{84}{Notes}{section.0.7.5}{}}
\@writefile{toc}{\contentsline {section}{\numberline {}Références}{84}{section.0.7.6}\protected@file@percent }
\newlabel{ruxe9fuxe9rences-6}{{}{84}{Références}{section.0.7.6}{}}
\@writefile{toc}{\contentsline {chapter}{\numberline {8}La pierre et le puits}{87}{chapter.0.8}\protected@file@percent }
\@writefile{lof}{\addvspace {10\p@ }}
\@writefile{lot}{\addvspace {10\p@ }}
\newlabel{la-pierre-et-le-puits}{{8}{87}{La pierre et le puits}{chapter.0.8}{}}
\@writefile{toc}{\contentsline {section}{\numberline {}Jérusalem, abords de la rue des Arméniens, après-midi du youm al joumouia 23 jha'ban 492}{87}{section.0.8.1}\protected@file@percent }
\newlabel{juxe9rusalem-abords-de-la-rue-des-armuxe9niens-apruxe8s-midi-du-youm-al-joumouia-23-jhaban-49230}{{}{87}{Jérusalem, abords de la rue des Arméniens, après-midi du youm al joumouia 23 jha'ban 492}{section.0.8.1}{}}
\@writefile{toc}{\contentsline {section}{\numberline {}Jérusalem, quartier de Malquisinat, matin du lundi 7 juillet 1113}{90}{section.0.8.2}\protected@file@percent }
\newlabel{juxe9rusalem-quartier-de-malquisinat-matin-du-lundi-7-juillet-1113}{{}{90}{Jérusalem, quartier de Malquisinat, matin du lundi 7 juillet 1113}{section.0.8.2}{}}
\@writefile{toc}{\contentsline {section}{\numberline {}Jérusalem, quartier de l'hôpital Saint-Jean, matin du lundi 24 juin 1140}{93}{section.0.8.3}\protected@file@percent }
\newlabel{juxe9rusalem-quartier-de-lhuxf4pital-saint-jean-matin-du-lundi-24-juin-1140}{{}{93}{Jérusalem, quartier de l'hôpital Saint-Jean, matin du lundi 24 juin 1140}{section.0.8.3}{}}
\@writefile{toc}{\contentsline {section}{\numberline {}Jérusalem, quartier de l'hôpital Saint-Jean, midi du samedi 16 février 1157}{95}{section.0.8.4}\protected@file@percent }
\newlabel{juxe9rusalem-quartier-de-lhuxf4pital-saint-jean-midi-du-samedi-16-fuxe9vrier-1157}{{}{95}{Jérusalem, quartier de l'hôpital Saint-Jean, midi du samedi 16 février 1157}{section.0.8.4}{}}
\@writefile{toc}{\contentsline {section}{\numberline {}Notes}{97}{section.0.8.5}\protected@file@percent }
\newlabel{notes-7}{{}{97}{Notes}{section.0.8.5}{}}
\@writefile{toc}{\contentsline {section}{\numberline {}Références}{97}{section.0.8.6}\protected@file@percent }
\newlabel{ruxe9fuxe9rences-7}{{}{97}{Références}{section.0.8.6}{}}
\@writefile{toc}{\contentsline {chapter}{\numberline {9}Mon ennemi, mon frère}{99}{chapter.0.9}\protected@file@percent }
\@writefile{lof}{\addvspace {10\p@ }}
\@writefile{lot}{\addvspace {10\p@ }}
\newlabel{mon-ennemi-mon-fruxe8re}{{9}{99}{Mon ennemi, mon frère}{chapter.0.9}{}}
\@writefile{toc}{\contentsline {section}{\numberline {}Jérusalem, mont du Temple, après-midi du mardi 14 avril 1142}{99}{section.0.9.1}\protected@file@percent }
\newlabel{juxe9rusalem-mont-du-temple-apruxe8s-midi-du-mardi-14-avril-1142}{{}{99}{Jérusalem, mont du Temple, après-midi du mardi 14 avril 1142}{section.0.9.1}{}}
\@writefile{toc}{\contentsline {section}{\numberline {}Faubourg damascène, camp du Temple, matin du mardi 27 juillet 1148}{102}{section.0.9.2}\protected@file@percent }
\newlabel{faubourg-damascuxe8ne-camp-du-temple-matin-du-mardi-27-juillet-1148}{{}{102}{Faubourg damascène, camp du Temple, matin du mardi 27 juillet 1148}{section.0.9.2}{}}
\@writefile{toc}{\contentsline {section}{\numberline {}Wadi Arabah, camp de voyage, soir du mardi 10 août 1154}{105}{section.0.9.3}\protected@file@percent }
\newlabel{wadi-arabah-camp-de-voyage-soir-du-mardi-10-aouxfbt-1154}{{}{105}{Wadi Arabah, camp de voyage, soir du mardi 10 août 1154}{section.0.9.3}{}}
\@writefile{toc}{\contentsline {section}{\numberline {}Jaffa, maison du Temple, après-midi du mardi 14 octobre 1158}{108}{section.0.9.4}\protected@file@percent }
\newlabel{jaffa-maison-du-temple-apruxe8s-midi-du-mardi-14-octobre-1158}{{}{108}{Jaffa, maison du Temple, après-midi du mardi 14 octobre 1158}{section.0.9.4}{}}
\@writefile{toc}{\contentsline {section}{\numberline {}Notes}{111}{section.0.9.5}\protected@file@percent }
\newlabel{notes-8}{{}{111}{Notes}{section.0.9.5}{}}
\@writefile{toc}{\contentsline {section}{\numberline {}Références}{112}{section.0.9.6}\protected@file@percent }
\newlabel{ruxe9fuxe9rences-8}{{}{112}{Références}{section.0.9.6}{}}
\@writefile{toc}{\contentsline {chapter}{\numberline {10}Valeureux prince}{113}{chapter.0.10}\protected@file@percent }
\@writefile{lof}{\addvspace {10\p@ }}
\@writefile{lot}{\addvspace {10\p@ }}
\newlabel{valeureux-prince}{{10}{113}{Valeureux prince}{chapter.0.10}{}}
\@writefile{toc}{\contentsline {section}{\numberline {}Taverne du père Josce, veillée du jeudi 19 décembre 1157}{113}{section.0.10.1}\protected@file@percent }
\newlabel{taverne-du-puxe8re-josce-veilluxe9e-du-jeudi-19-duxe9cembre-1157}{{}{113}{Taverne du père Josce, veillée du jeudi 19 décembre 1157}{section.0.10.1}{}}
\@writefile{toc}{\contentsline {section}{\numberline {}Palais royal, soir du vendredi 17 janvier 1158}{116}{section.0.10.2}\protected@file@percent }
\newlabel{palais-royal-soir-du-vendredi-17-janvier-1158}{{}{116}{Palais royal, soir du vendredi 17 janvier 1158}{section.0.10.2}{}}
\@writefile{toc}{\contentsline {section}{\numberline {}Environs de la rue des Tanneurs, veillée du jeudi 30 janvier 1158}{117}{section.0.10.3}\protected@file@percent }
\newlabel{environs-de-la-rue-des-tanneurs-veilluxe9e-du-jeudi-30-janvier-1158}{{}{117}{Environs de la rue des Tanneurs, veillée du jeudi 30 janvier 1158}{section.0.10.3}{}}
\@writefile{toc}{\contentsline {section}{\numberline {}Notes}{120}{section.0.10.4}\protected@file@percent }
\newlabel{notes-9}{{}{120}{Notes}{section.0.10.4}{}}
\@writefile{toc}{\contentsline {section}{\numberline {}Références}{121}{section.0.10.5}\protected@file@percent }
\newlabel{ruxe9fuxe9rences-9}{{}{121}{Références}{section.0.10.5}{}}
\@writefile{toc}{\contentsline {chapter}{\numberline {11}Les chaussures du mort}{123}{chapter.0.11}\protected@file@percent }
\@writefile{lof}{\addvspace {10\p@ }}
\@writefile{lot}{\addvspace {10\p@ }}
\newlabel{les-chaussures-du-mort}{{11}{123}{Les chaussures du mort}{chapter.0.11}{}}
\@writefile{toc}{\contentsline {section}{\numberline {}Damas, maison d'al-Kāla, midi du youm el itnine 20 dhu al-hijjah 553}{123}{section.0.11.1}\protected@file@percent }
\newlabel{damas-maison-dal-kux101la-midi-du-youm-el-itnine-20-dhu-al-hijjah-55341}{{}{123}{Damas, maison d'al-Kāla, midi du youm el itnine 20 dhu al-hijjah 553}{section.0.11.1}{}}
\@writefile{toc}{\contentsline {section}{\numberline {}Damas, porte de Bāb al-Ğābiya, fin d'après-midi du youm al khemis 30 dhu al-hijjah 553}{126}{section.0.11.2}\protected@file@percent }
\newlabel{damas-porte-de-bux101b-al-ux11fux101biya-fin-dapruxe8s-midi-du-youm-al-khemis-30-dhu-al-hijjah-55343}{{}{126}{Damas, porte de Bāb al-Ğābiya, fin d'après-midi du youm al khemis 30 dhu al-hijjah 553}{section.0.11.2}{}}
\@writefile{toc}{\contentsline {section}{\numberline {}Damas, quartier du Marché aux oiseaux, soirée du youm al talata 12 muharram 553}{128}{section.0.11.3}\protected@file@percent }
\newlabel{damas-quartier-du-marchuxe9-aux-oiseaux-soiruxe9e-du-youm-al-talata-12-muharram-55345}{{}{128}{Damas, quartier du Marché aux oiseaux, soirée du youm al talata 12 muharram 553}{section.0.11.3}{}}
\@writefile{toc}{\contentsline {section}{\numberline {}Damas, citadelle, matin du youm al khemis 19 safar 554}{131}{section.0.11.4}\protected@file@percent }
\newlabel{damas-citadelle-matin-du-youm-al-khemis-19-safar-55446}{{}{131}{Damas, citadelle, matin du youm al khemis 19 safar 554}{section.0.11.4}{}}
\@writefile{toc}{\contentsline {section}{\numberline {}Notes}{133}{section.0.11.5}\protected@file@percent }
\newlabel{notes-10}{{}{133}{Notes}{section.0.11.5}{}}
\@writefile{toc}{\contentsline {section}{\numberline {}Références}{134}{section.0.11.6}\protected@file@percent }
\newlabel{ruxe9fuxe9rences-10}{{}{134}{Références}{section.0.11.6}{}}
\@writefile{toc}{\contentsline {chapter}{\numberline {12}Retour au siècle}{135}{chapter.0.12}\protected@file@percent }
\@writefile{lof}{\addvspace {10\p@ }}
\@writefile{lot}{\addvspace {10\p@ }}
\newlabel{retour-au-siuxe8cle}{{12}{135}{Retour au siècle}{chapter.0.12}{}}
\@writefile{toc}{\contentsline {section}{\numberline {}Calanson, cimetière paroissial des frères de Saint-Jean, après-midi du dimanche 3 avril 1160}{135}{section.0.12.1}\protected@file@percent }
\newlabel{calanson-cimetiuxe8re-paroissial-des-fruxe8res-de-saint-jean-apruxe8s-midi-du-dimanche-3-avril-1160}{{}{135}{Calanson, cimetière paroissial des frères de Saint-Jean, après-midi du dimanche 3 avril 1160}{section.0.12.1}{}}
\@writefile{toc}{\contentsline {section}{\numberline {}Aqua Bella, cellier des frères de Saint-Jean, soirée du jeudi 28 avril 1160}{137}{section.0.12.2}\protected@file@percent }
\newlabel{aqua-bella-cellier-des-fruxe8res-de-saint-jean-soiruxe9e-du-jeudi-28-avril-1160}{{}{137}{Aqua Bella, cellier des frères de Saint-Jean, soirée du jeudi 28 avril 1160}{section.0.12.2}{}}
\@writefile{toc}{\contentsline {section}{\numberline {}Calanson, cellier des frères de Saint-Jean, fin de veillée du jeudi 5 mai 1160}{140}{section.0.12.3}\protected@file@percent }
\newlabel{calanson-cellier-des-fruxe8res-de-saint-jean-fin-de-veilluxe9e-du-jeudi-5-mai-1160}{{}{140}{Calanson, cellier des frères de Saint-Jean, fin de veillée du jeudi 5 mai 1160}{section.0.12.3}{}}
\@writefile{toc}{\contentsline {section}{\numberline {}Césarée, hôtel de Garin la Sonnaille, veillée du mardi 21 juin 1160}{142}{section.0.12.4}\protected@file@percent }
\newlabel{cuxe9saruxe9e-huxf4tel-de-garin-la-sonnaille-veilluxe9e-du-mardi-21-juin-1160}{{}{142}{Césarée, hôtel de Garin la Sonnaille, veillée du mardi 21 juin 1160}{section.0.12.4}{}}
\@writefile{toc}{\contentsline {section}{\numberline {}Notes}{144}{section.0.12.5}\protected@file@percent }
\newlabel{notes-11}{{}{144}{Notes}{section.0.12.5}{}}
\@writefile{toc}{\contentsline {section}{\numberline {}Références}{145}{section.0.12.6}\protected@file@percent }
\newlabel{ruxe9fuxe9rences-11}{{}{145}{Références}{section.0.12.6}{}}
\@writefile{toc}{\contentsline {chapter}{\numberline {13}Le suc des roseaux}{147}{chapter.0.13}\protected@file@percent }
\@writefile{lof}{\addvspace {10\p@ }}
\@writefile{lot}{\addvspace {10\p@ }}
\newlabel{le-suc-des-roseaux}{{13}{147}{Le suc des roseaux}{chapter.0.13}{}}
\@writefile{toc}{\contentsline {section}{\numberline {}Château du Fier, après-midi du samedi 10 octobre 1159}{147}{section.0.13.1}\protected@file@percent }
\newlabel{chuxe2teau-du-fier-apruxe8s-midi-du-samedi-10-octobre-1159}{{}{147}{Château du Fier, après-midi du samedi 10 octobre 1159}{section.0.13.1}{}}
\@writefile{toc}{\contentsline {section}{\numberline {}Palmeraie de Segor, matin du lundi 8 février 1160}{149}{section.0.13.2}\protected@file@percent }
\newlabel{palmeraie-de-segor-matin-du-lundi-8-fuxe9vrier-1160}{{}{149}{Palmeraie de Segor, matin du lundi 8 février 1160}{section.0.13.2}{}}
\@writefile{toc}{\contentsline {section}{\numberline {}Segor, souk au sucre, début de soirée du samedi 8 juillet 1161}{152}{section.0.13.3}\protected@file@percent }
\newlabel{segor-souk-au-sucre-duxe9but-de-soiruxe9e-du-samedi-8-juillet-1161}{{}{152}{Segor, souk au sucre, début de soirée du samedi 8 juillet 1161}{section.0.13.3}{}}
\@writefile{toc}{\contentsline {section}{\numberline {}Segor, souk au sucre, début d'après-midi du mercredi 8 août 1161}{154}{section.0.13.4}\protected@file@percent }
\newlabel{segor-souk-au-sucre-duxe9but-dapruxe8s-midi-du-mercredi-8-aouxfbt-1161}{{}{154}{Segor, souk au sucre, début d'après-midi du mercredi 8 août 1161}{section.0.13.4}{}}
\@writefile{toc}{\contentsline {section}{\numberline {}Notes}{157}{section.0.13.5}\protected@file@percent }
\newlabel{notes-12}{{}{157}{Notes}{section.0.13.5}{}}
\@writefile{toc}{\contentsline {section}{\numberline {}Références}{157}{section.0.13.6}\protected@file@percent }
\newlabel{ruxe9fuxe9rences-12}{{}{157}{Références}{section.0.13.6}{}}
\@writefile{toc}{\contentsline {chapter}{\numberline {14}Le persan}{159}{chapter.0.14}\protected@file@percent }
\@writefile{lof}{\addvspace {10\p@ }}
\@writefile{lot}{\addvspace {10\p@ }}
\newlabel{le-persan}{{14}{159}{Le persan}{chapter.0.14}{}}
\@writefile{toc}{\contentsline {section}{\numberline {}Abords de Qasr-e Chirin, matin du youm el itnine 11 rabi' al-awwal 555}{159}{section.0.14.1}\protected@file@percent }
\newlabel{abords-de-qasr-e-chirin-matin-du-youm-el-itnine-11-rabi-al-awwal-55556}{{}{159}{Abords de Qasr-e Chirin, matin du youm el itnine 11 rabi' al-awwal 555}{section.0.14.1}{}}
\@writefile{toc}{\contentsline {section}{\numberline {}Abords de Tikrit, bords du Tigre, midi du youm al had 4 jadjab 555}{161}{section.0.14.2}\protected@file@percent }
\newlabel{abords-de-tikrit-bords-du-tigre-midi-du-youm-al-had-4-jadjab-55559}{{}{161}{Abords de Tikrit, bords du Tigre, midi du youm al had 4 jadjab 555}{section.0.14.2}{}}
\@writefile{toc}{\contentsline {section}{\numberline {}Jalula, bords du Tigre, soir du youm al sebt 23 jha'ban 555}{163}{section.0.14.3}\protected@file@percent }
\newlabel{jalula-bords-du-tigre-soir-du-youm-al-sebt-23-jhaban-55561}{{}{163}{Jalula, bords du Tigre, soir du youm al sebt 23 jha'ban 555}{section.0.14.3}{}}
\@writefile{toc}{\contentsline {section}{\numberline {}Notes}{166}{section.0.14.4}\protected@file@percent }
\newlabel{notes-13}{{}{166}{Notes}{section.0.14.4}{}}
\@writefile{toc}{\contentsline {section}{\numberline {}Références}{167}{section.0.14.5}\protected@file@percent }
\newlabel{ruxe9fuxe9rences-13}{{}{167}{Références}{section.0.14.5}{}}
\@writefile{toc}{\contentsline {chapter}{\numberline {15}Les murailles de Turbessel}{169}{chapter.0.15}\protected@file@percent }
\@writefile{lof}{\addvspace {10\p@ }}
\@writefile{lot}{\addvspace {10\p@ }}
\newlabel{les-murailles-de-turbessel}{{15}{169}{Les murailles de Turbessel}{chapter.0.15}{}}
\@writefile{toc}{\contentsline {section}{\numberline {}Forteresse de Turbessel, fin d'après-midi du jeudi 22 avril 1148}{169}{section.0.15.1}\protected@file@percent }
\newlabel{forteresse-de-turbessel-fin-dapruxe8s-midi-du-jeudi-22-avril-1148}{{}{169}{Forteresse de Turbessel, fin d'après-midi du jeudi 22 avril 1148}{section.0.15.1}{}}
\@writefile{toc}{\contentsline {section}{\numberline {}Forteresse de Turbessel, veillée du lundi 26 septembre 1149}{171}{section.0.15.2}\protected@file@percent }
\newlabel{forteresse-de-turbessel-veilluxe9e-du-lundi-26-septembre-1149}{{}{171}{Forteresse de Turbessel, veillée du lundi 26 septembre 1149}{section.0.15.2}{}}
\@writefile{toc}{\contentsline {section}{\numberline {}Forteresse de Turbessel, matin du mardi 15 août 1150}{174}{section.0.15.3}\protected@file@percent }
\newlabel{forteresse-de-turbessel-matin-du-mardi-15-aouxfbt-1150}{{}{174}{Forteresse de Turbessel, matin du mardi 15 août 1150}{section.0.15.3}{}}
\@writefile{toc}{\contentsline {section}{\numberline {}Jérusalem, palais des Courtenay, comtes d'Édesse, soir du jeudi 4 juillet 1157}{176}{section.0.15.4}\protected@file@percent }
\newlabel{juxe9rusalem-palais-des-courtenay-comtes-duxe9desse-soir-du-jeudi-4-juillet-1157}{{}{176}{Jérusalem, palais des Courtenay, comtes d'Édesse, soir du jeudi 4 juillet 1157}{section.0.15.4}{}}
\@writefile{toc}{\contentsline {section}{\numberline {}Jérusalem, palais royal, chambre du roi Baudoin, matin du mercredi 8 février 1161}{179}{section.0.15.5}\protected@file@percent }
\newlabel{juxe9rusalem-palais-royal-chambre-du-roi-baudoin-matin-du-mercredi-8-fuxe9vrier-1161}{{}{179}{Jérusalem, palais royal, chambre du roi Baudoin, matin du mercredi 8 février 1161}{section.0.15.5}{}}
\@writefile{toc}{\contentsline {section}{\numberline {}Notes}{182}{section.0.15.6}\protected@file@percent }
\newlabel{notes-14}{{}{182}{Notes}{section.0.15.6}{}}
\@writefile{toc}{\contentsline {section}{\numberline {}Références}{182}{section.0.15.7}\protected@file@percent }
\newlabel{ruxe9fuxe9rences-14}{{}{182}{Références}{section.0.15.7}{}}
\@writefile{toc}{\contentsline {chapter}{\numberline {16}Accordailles}{185}{chapter.0.16}\protected@file@percent }
\@writefile{lof}{\addvspace {10\p@ }}
\@writefile{lot}{\addvspace {10\p@ }}
\newlabel{accordailles}{{16}{185}{Accordailles}{chapter.0.16}{}}
\@writefile{toc}{\contentsline {section}{\numberline {}Jérusalem, cour de l'église Sainte-Agnès, matin du dimanche 24 avril 1160}{185}{section.0.16.1}\protected@file@percent }
\newlabel{juxe9rusalem-cour-de-luxe9glise-sainte-agnuxe8s-matin-du-dimanche-24-avril-1160}{{}{185}{Jérusalem, cour de l'église Sainte-Agnès, matin du dimanche 24 avril 1160}{section.0.16.1}{}}
\@writefile{toc}{\contentsline {section}{\numberline {}Jérusalem, hostel d'Ernaut et Libourc, veillée du dimanche 24 avril 1160}{190}{section.0.16.2}\protected@file@percent }
\newlabel{juxe9rusalem-hostel-dernaut-et-libourc-veilluxe9e-du-dimanche-24-avril-1160}{{}{190}{Jérusalem, hostel d'Ernaut et Libourc, veillée du dimanche 24 avril 1160}{section.0.16.2}{}}
\@writefile{toc}{\contentsline {section}{\numberline {}Notes}{193}{section.0.16.3}\protected@file@percent }
\newlabel{notes-15}{{}{193}{Notes}{section.0.16.3}{}}
\@writefile{toc}{\contentsline {section}{\numberline {}Références}{194}{section.0.16.4}\protected@file@percent }
\newlabel{ruxe9fuxe9rences-15}{{}{194}{Références}{section.0.16.4}{}}
\@writefile{toc}{\contentsline {chapter}{\numberline {17}La vigie du Levant}{195}{chapter.0.17}\protected@file@percent }
\@writefile{lof}{\addvspace {10\p@ }}
\@writefile{lot}{\addvspace {10\p@ }}
\newlabel{la-vigie-du-levant}{{17}{195}{La vigie du Levant}{chapter.0.17}{}}
\@writefile{toc}{\contentsline {section}{\numberline {}Château d'Harim, début de soirée du jeudi 15 novembre 1162}{195}{section.0.17.1}\protected@file@percent }
\newlabel{chuxe2teau-dharim-duxe9but-de-soiruxe9e-du-jeudi-15-novembre-1162}{{}{195}{Château d'Harim, début de soirée du jeudi 15 novembre 1162}{section.0.17.1}{}}
\@writefile{toc}{\contentsline {section}{\numberline {}Château d'Harim, soir du vendredi 16 novembre 1162}{198}{section.0.17.2}\protected@file@percent }
\newlabel{chuxe2teau-dharim-soir-du-vendredi-16-novembre-1162}{{}{198}{Château d'Harim, soir du vendredi 16 novembre 1162}{section.0.17.2}{}}
\@writefile{toc}{\contentsline {section}{\numberline {}Château d'Harim, nuit du mardi 27 novembre 1162}{201}{section.0.17.3}\protected@file@percent }
\newlabel{chuxe2teau-dharim-nuit-du-mardi-27-novembre-1162}{{}{201}{Château d'Harim, nuit du mardi 27 novembre 1162}{section.0.17.3}{}}
\@writefile{toc}{\contentsline {section}{\numberline {}Château d'Harim, nuit du jeudi 29 novembre 1162}{204}{section.0.17.4}\protected@file@percent }
\newlabel{chuxe2teau-dharim-nuit-du-jeudi-29-novembre-1162}{{}{204}{Château d'Harim, nuit du jeudi 29 novembre 1162}{section.0.17.4}{}}
\@writefile{toc}{\contentsline {section}{\numberline {}Notes}{205}{section.0.17.5}\protected@file@percent }
\newlabel{notes-16}{{}{205}{Notes}{section.0.17.5}{}}
\@writefile{toc}{\contentsline {section}{\numberline {}Références}{206}{section.0.17.6}\protected@file@percent }
\newlabel{ruxe9fuxe9rences-16}{{}{206}{Références}{section.0.17.6}{}}
\@writefile{toc}{\contentsline {chapter}{\numberline {18}Ultra}{207}{chapter.0.18}\protected@file@percent }
\@writefile{lof}{\addvspace {10\p@ }}
\@writefile{lot}{\addvspace {10\p@ }}
\newlabel{ultra}{{18}{207}{Ultra}{chapter.0.18}{}}
\@writefile{toc}{\contentsline {section}{\numberline {}Jérusalem, hostel d'Ernaut, début de soirée du vendredi 5 février 1160}{207}{section.0.18.1}\protected@file@percent }
\newlabel{juxe9rusalem-hostel-dernaut-duxe9but-de-soiruxe9e-du-vendredi-5-fuxe9vrier-1160}{{}{207}{Jérusalem, hostel d'Ernaut, début de soirée du vendredi 5 février 1160}{section.0.18.1}{}}
\@writefile{toc}{\contentsline {section}{\numberline {}Damas, sud de la Ghûta, veillée du jeudi 25 février 1160}{210}{section.0.18.2}\protected@file@percent }
\newlabel{damas-sud-de-la-ghuxfbta-veilluxe9e-du-jeudi-25-fuxe9vrier-1160}{{}{210}{Damas, sud de la Ghûta, veillée du jeudi 25 février 1160}{section.0.18.2}{}}
\@writefile{toc}{\contentsline {section}{\numberline {}Damas, ouest de la Ghûta, veillée du vendredi 10 juin 1160}{213}{section.0.18.3}\protected@file@percent }
\newlabel{damas-ouest-de-la-ghuxfbta-veilluxe9e-du-vendredi-10-juin-1160}{{}{213}{Damas, ouest de la Ghûta, veillée du vendredi 10 juin 1160}{section.0.18.3}{}}
\@writefile{toc}{\contentsline {section}{\numberline {}Notes}{216}{section.0.18.4}\protected@file@percent }
\newlabel{notes-17}{{}{216}{Notes}{section.0.18.4}{}}
\@writefile{toc}{\contentsline {section}{\numberline {}Références}{217}{section.0.18.5}\protected@file@percent }
\newlabel{ruxe9fuxe9rences-17}{{}{217}{Références}{section.0.18.5}{}}
\@writefile{toc}{\contentsline {chapter}{\numberline {19}Flamme, fumée et cendre}{219}{chapter.0.19}\protected@file@percent }
\@writefile{lof}{\addvspace {10\p@ }}
\@writefile{lot}{\addvspace {10\p@ }}
\newlabel{flamme-fumuxe9e-et-cendre}{{19}{219}{Flamme, fumée et cendre}{chapter.0.19}{}}
\@writefile{toc}{\contentsline {section}{\numberline {}Bilbais, berges du Nil, fin de journée du jeudi 21 septembre 1161}{219}{section.0.19.1}\protected@file@percent }
\newlabel{bilbais-berges-du-nil-fin-de-journuxe9e-du-jeudi-21-septembre-1161}{{}{219}{Bilbais, berges du Nil, fin de journée du jeudi 21 septembre 1161}{section.0.19.1}{}}
\@writefile{toc}{\contentsline {section}{\numberline {}Faubourgs de Gaza, camp nomade, matin du vendredi 9 novembre 1162}{223}{section.0.19.2}\protected@file@percent }
\newlabel{faubourgs-de-gaza-camp-nomade-matin-du-vendredi-9-novembre-1162}{{}{223}{Faubourgs de Gaza, camp nomade, matin du vendredi 9 novembre 1162}{section.0.19.2}{}}
\@writefile{toc}{\contentsline {section}{\numberline {}Désert du Negev, abords du canyon du Nahal Zin, nuit du youm al arbia 10 chawwal 558}{226}{section.0.19.3}\protected@file@percent }
\newlabel{duxe9sert-du-negev-abords-du-canyon-du-nahal-zin-nuit-du-youm-al-arbia-10-chawwal-558116}{{}{226}{Désert du Negev, abords du canyon du Nahal Zin, nuit du youm al arbia 10 chawwal 558}{section.0.19.3}{}}
\@writefile{toc}{\contentsline {section}{\numberline {}Notes}{228}{section.0.19.4}\protected@file@percent }
\newlabel{notes-18}{{}{228}{Notes}{section.0.19.4}{}}
\@writefile{toc}{\contentsline {section}{\numberline {}Références}{229}{section.0.19.5}\protected@file@percent }
\newlabel{ruxe9fuxe9rences-18}{{}{229}{Références}{section.0.19.5}{}}
\@writefile{toc}{\contentsline {chapter}{\numberline {20}La main gauche de la nuit}{231}{chapter.0.20}\protected@file@percent }
\@writefile{lof}{\addvspace {10\p@ }}
\@writefile{lot}{\addvspace {10\p@ }}
\newlabel{la-main-gauche-de-la-nuit}{{20}{231}{La main gauche de la nuit}{chapter.0.20}{}}
\@writefile{toc}{\contentsline {section}{\numberline {}Jaffa, faubourgs, abords du quartier hospitalier, tôt le matin du mercredi 16 novembre 1138}{231}{section.0.20.1}\protected@file@percent }
\newlabel{jaffa-faubourgs-abords-du-quartier-hospitalier-tuxf4t-le-matin-du-mercredi-16-novembre-1138}{{}{231}{Jaffa, faubourgs, abords du quartier hospitalier, tôt le matin du mercredi 16 novembre 1138}{section.0.20.1}{}}
\@writefile{toc}{\contentsline {section}{\numberline {}Tyr, plage septentrionale, début d'après-midi du lundi 6 janvier 1141}{234}{section.0.20.2}\protected@file@percent }
\newlabel{tyr-plage-septentrionale-duxe9but-dapruxe8s-midi-du-lundi-6-janvier-1141}{{}{234}{Tyr, plage septentrionale, début d'après-midi du lundi 6 janvier 1141}{section.0.20.2}{}}
\@writefile{toc}{\contentsline {section}{\numberline {}Jérusalem, parvis du Saint-Sépulcre, fin de matinée du vendredi 13 avril 1145}{236}{section.0.20.3}\protected@file@percent }
\newlabel{juxe9rusalem-parvis-du-saint-suxe9pulcre-fin-de-matinuxe9e-du-vendredi-13-avril-1145}{{}{236}{Jérusalem, parvis du Saint-Sépulcre, fin de matinée du vendredi 13 avril 1145}{section.0.20.3}{}}
\@writefile{toc}{\contentsline {section}{\numberline {}La Mahomerie, église paroissiale Sainte-Marie, veillée du mercredi 17 mai 1150}{239}{section.0.20.4}\protected@file@percent }
\newlabel{la-mahomerie-uxe9glise-paroissiale-sainte-marie-veilluxe9e-du-mercredi-17-mai-1150}{{}{239}{La Mahomerie, église paroissiale Sainte-Marie, veillée du mercredi 17 mai 1150}{section.0.20.4}{}}
\@writefile{toc}{\contentsline {section}{\numberline {}Notes}{240}{section.0.20.5}\protected@file@percent }
\newlabel{notes-19}{{}{240}{Notes}{section.0.20.5}{}}
\@writefile{toc}{\contentsline {section}{\numberline {}Références}{241}{section.0.20.6}\protected@file@percent }
\newlabel{ruxe9fuxe9rences-19}{{}{241}{Références}{section.0.20.6}{}}
\@writefile{toc}{\contentsline {chapter}{\numberline {21}Les fruits du labeur}{243}{chapter.0.21}\protected@file@percent }
\@writefile{lof}{\addvspace {10\p@ }}
\@writefile{lot}{\addvspace {10\p@ }}
\newlabel{les-fruits-du-labeur}{{21}{243}{Les fruits du labeur}{chapter.0.21}{}}
\@writefile{toc}{\contentsline {section}{\numberline {}Édesse, demeure de Roupen, abords de la citadelle de Thoros, soir du vendredi 15 septembre 1122}{243}{section.0.21.1}\protected@file@percent }
\newlabel{uxe9desse-demeure-de-roupen-abords-de-la-citadelle-de-thoros-soir-du-vendredi-15-septembre-1122}{{}{243}{Édesse, demeure de Roupen, abords de la citadelle de Thoros, soir du vendredi 15 septembre 1122}{section.0.21.1}{}}
\@writefile{toc}{\contentsline {section}{\numberline {}Turbessel, écuries de Mesrob, après-midi du dimanche 20 août 1150}{247}{section.0.21.2}\protected@file@percent }
\newlabel{turbessel-uxe9curies-de-mesrob-apruxe8s-midi-du-dimanche-20-aouxfbt-1150}{{}{247}{Turbessel, écuries de Mesrob, après-midi du dimanche 20 août 1150}{section.0.21.2}{}}
\@writefile{toc}{\contentsline {section}{\numberline {}Jérusalem, rue de David, matinée du vendredi 3 juillet 1153}{250}{section.0.21.3}\protected@file@percent }
\newlabel{juxe9rusalem-rue-de-david-matinuxe9e-du-vendredi-3-juillet-1153}{{}{250}{Jérusalem, rue de David, matinée du vendredi 3 juillet 1153}{section.0.21.3}{}}
\@writefile{toc}{\contentsline {section}{\numberline {}Notes}{254}{section.0.21.4}\protected@file@percent }
\newlabel{notes-20}{{}{254}{Notes}{section.0.21.4}{}}
\@writefile{toc}{\contentsline {section}{\numberline {}Références}{255}{section.0.21.5}\protected@file@percent }
\newlabel{ruxe9fuxe9rences-20}{{}{255}{Références}{section.0.21.5}{}}
\@writefile{toc}{\contentsline {chapter}{\numberline {22}Commère}{257}{chapter.0.22}\protected@file@percent }
\@writefile{lof}{\addvspace {10\p@ }}
\@writefile{lot}{\addvspace {10\p@ }}
\newlabel{commuxe8re}{{22}{257}{Commère}{chapter.0.22}{}}
\@writefile{toc}{\contentsline {section}{\numberline {}Clepsta, hostel de Girout et Clarin, soirée du dimanche 6 avril 1158}{257}{section.0.22.1}\protected@file@percent }
\newlabel{clepsta-hostel-de-girout-et-clarin-soiruxe9e-du-dimanche-6-avril-1158}{{}{257}{Clepsta, hostel de Girout et Clarin, soirée du dimanche 6 avril 1158}{section.0.22.1}{}}
\@writefile{toc}{\contentsline {section}{\numberline {}Mirabel, manse des Terres d'Épines, matin du mercredi 3 septembre 1158}{260}{section.0.22.2}\protected@file@percent }
\newlabel{mirabel-manse-des-terres-duxe9pines-matin-du-mercredi-3-septembre-1158}{{}{260}{Mirabel, manse des Terres d'Épines, matin du mercredi 3 septembre 1158}{section.0.22.2}{}}
\@writefile{toc}{\contentsline {section}{\numberline {}Clepsta, terres de Girout et Clarin, midi du jeudi 2 octobre 1158}{263}{section.0.22.3}\protected@file@percent }
\newlabel{clepsta-terres-de-girout-et-clarin-midi-du-jeudi-2-octobre-1158}{{}{263}{Clepsta, terres de Girout et Clarin, midi du jeudi 2 octobre 1158}{section.0.22.3}{}}
\@writefile{toc}{\contentsline {section}{\numberline {}Mirabel, manse des Terres d'Épines, soir du mardi 27 janvier 1159}{265}{section.0.22.4}\protected@file@percent }
\newlabel{mirabel-manse-des-terres-duxe9pines-soir-du-mardi-27-janvier-1159}{{}{265}{Mirabel, manse des Terres d'Épines, soir du mardi 27 janvier 1159}{section.0.22.4}{}}
\@writefile{toc}{\contentsline {section}{\numberline {}Notes}{268}{section.0.22.5}\protected@file@percent }
\newlabel{notes-21}{{}{268}{Notes}{section.0.22.5}{}}
\@writefile{toc}{\contentsline {section}{\numberline {}Références}{269}{section.0.22.6}\protected@file@percent }
\newlabel{ruxe9fuxe9rences-21}{{}{269}{Références}{section.0.22.6}{}}
\@writefile{toc}{\contentsline {chapter}{\numberline {23}Nonette suis}{271}{chapter.0.23}\protected@file@percent }
\@writefile{lof}{\addvspace {10\p@ }}
\@writefile{lot}{\addvspace {10\p@ }}
\newlabel{nonette-suis}{{23}{271}{Nonette suis}{chapter.0.23}{}}
\@writefile{toc}{\contentsline {section}{\numberline {}Jérusalem, palais royal, après-midi du vendredi 24 mai 1129}{271}{section.0.23.1}\protected@file@percent }
\newlabel{juxe9rusalem-palais-royal-apruxe8s-midi-du-vendredi-24-mai-1129}{{}{271}{Jérusalem, palais royal, après-midi du vendredi 24 mai 1129}{section.0.23.1}{}}
\@writefile{toc}{\contentsline {section}{\numberline {}Jérusalem, palais royal, matin du mardi 8 octobre 1146}{274}{section.0.23.2}\protected@file@percent }
\newlabel{juxe9rusalem-palais-royal-matin-du-mardi-8-octobre-1146}{{}{274}{Jérusalem, palais royal, matin du mardi 8 octobre 1146}{section.0.23.2}{}}
\@writefile{toc}{\contentsline {section}{\numberline {}Béthanie, couvent des Saint-Lazare-Marthe-et-Marie, après-midi du lundi 7 octobre 1157}{277}{section.0.23.3}\protected@file@percent }
\newlabel{buxe9thanie-couvent-des-saint-lazare-marthe-et-marie-apruxe8s-midi-du-lundi-7-octobre-1157}{{}{277}{Béthanie, couvent des Saint-Lazare-Marthe-et-Marie, après-midi du lundi 7 octobre 1157}{section.0.23.3}{}}
\@writefile{toc}{\contentsline {section}{\numberline {}Béthanie, couvent des Saint-Lazare-Marthe-et-Marie, matin du jeudi 11 mai 1161}{280}{section.0.23.4}\protected@file@percent }
\newlabel{buxe9thanie-couvent-des-saint-lazare-marthe-et-marie-matin-du-jeudi-11-mai-1161}{{}{280}{Béthanie, couvent des Saint-Lazare-Marthe-et-Marie, matin du jeudi 11 mai 1161}{section.0.23.4}{}}
\@writefile{toc}{\contentsline {section}{\numberline {}Notes}{282}{section.0.23.5}\protected@file@percent }
\newlabel{notes-22}{{}{282}{Notes}{section.0.23.5}{}}
\@writefile{toc}{\contentsline {section}{\numberline {}Références}{283}{section.0.23.6}\protected@file@percent }
\newlabel{ruxe9fuxe9rences-22}{{}{283}{Références}{section.0.23.6}{}}
\@writefile{toc}{\contentsline {chapter}{\numberline {24}La raison des femmes}{285}{chapter.0.24}\protected@file@percent }
\@writefile{lof}{\addvspace {10\p@ }}
\@writefile{lot}{\addvspace {10\p@ }}
\newlabel{la-raison-des-femmes}{{24}{285}{La raison des femmes}{chapter.0.24}{}}
\@writefile{toc}{\contentsline {section}{\numberline {}Jérusalem, quartier de la porte d'Hérode, après-midi du mercredi 7 avril 1148}{285}{section.0.24.1}\protected@file@percent }
\newlabel{juxe9rusalem-quartier-de-la-porte-dhuxe9rode-apruxe8s-midi-du-mercredi-7-avril-1148}{{}{285}{Jérusalem, quartier de la porte d'Hérode, après-midi du mercredi 7 avril 1148}{section.0.24.1}{}}
\@writefile{toc}{\contentsline {section}{\numberline {}Encharim, casal d'al-Najjar, matin du jeudi 26 décembre 1157}{288}{section.0.24.2}\protected@file@percent }
\newlabel{encharim-casal-dal-najjar-matin-du-jeudi-26-duxe9cembre-1157}{{}{288}{Encharim, casal d'al-Najjar, matin du jeudi 26 décembre 1157}{section.0.24.2}{}}
\@writefile{toc}{\contentsline {section}{\numberline {}Jérusalem, maison de bains, matin du mardi 21 avril 1159}{290}{section.0.24.3}\protected@file@percent }
\newlabel{juxe9rusalem-maison-de-bains-matin-du-mardi-21-avril-1159}{{}{290}{Jérusalem, maison de bains, matin du mardi 21 avril 1159}{section.0.24.3}{}}
\@writefile{toc}{\contentsline {section}{\numberline {}Jérusalem, quartier de la porte d'Hérode, midi du jeudi 6 octobre 1160}{292}{section.0.24.4}\protected@file@percent }
\newlabel{juxe9rusalem-quartier-de-la-porte-dhuxe9rode-midi-du-jeudi-6-octobre-1160}{{}{292}{Jérusalem, quartier de la porte d'Hérode, midi du jeudi 6 octobre 1160}{section.0.24.4}{}}
\@writefile{toc}{\contentsline {section}{\numberline {}Notes}{294}{section.0.24.5}\protected@file@percent }
\newlabel{notes-23}{{}{294}{Notes}{section.0.24.5}{}}
\@writefile{toc}{\contentsline {section}{\numberline {}Références}{295}{section.0.24.6}\protected@file@percent }
\newlabel{ruxe9fuxe9rences-23}{{}{295}{Références}{section.0.24.6}{}}
\@writefile{toc}{\contentsline {chapter}{\numberline {25}Histoire d'un aller et retour}{297}{chapter.0.25}\protected@file@percent }
\@writefile{lof}{\addvspace {10\p@ }}
\@writefile{lot}{\addvspace {10\p@ }}
\newlabel{histoire-dun-aller-et-retour}{{25}{297}{Histoire d'un aller et retour}{chapter.0.25}{}}
\@writefile{toc}{\contentsline {section}{\numberline {}Saint-Vaast, parvis de l'église paroissiale, fin de matinée du dimanche 1er décembre 1146}{297}{section.0.25.1}\protected@file@percent }
\newlabel{saint-vaast-parvis-de-luxe9glise-paroissiale-fin-de-matinuxe9e-du-dimanche-1er-duxe9cembre-1146}{{}{297}{Saint-Vaast, parvis de l'église paroissiale, fin de matinée du dimanche 1er décembre 1146}{section.0.25.1}{}}
\@writefile{toc}{\contentsline {section}{\numberline {}Saint-Vaast, manse de Rémy de la Poterrie, début de soirée du lundi 16 juin 1152}{301}{section.0.25.2}\protected@file@percent }
\newlabel{saint-vaast-manse-de-ruxe9my-de-la-poterrie-duxe9but-de-soiruxe9e-du-lundi-16-juin-1152}{{}{301}{Saint-Vaast, manse de Rémy de la Poterrie, début de soirée du lundi 16 juin 1152}{section.0.25.2}{}}
\@writefile{toc}{\contentsline {section}{\numberline {}Bury, collégiale Saint-Lucien, veillée du mardi 16 novembre 1154}{304}{section.0.25.3}\protected@file@percent }
\newlabel{bury-colluxe9giale-saint-lucien-veilluxe9e-du-mardi-16-novembre-1154}{{}{304}{Bury, collégiale Saint-Lucien, veillée du mardi 16 novembre 1154}{section.0.25.3}{}}
\@writefile{toc}{\contentsline {section}{\numberline {}Saint-Vaast, manse de Gobert le carrier, veillée du samedi 26 mars 1160}{306}{section.0.25.4}\protected@file@percent }
\newlabel{saint-vaast-manse-de-gobert-le-carrier-veilluxe9e-du-samedi-26-mars-1160}{{}{306}{Saint-Vaast, manse de Gobert le carrier, veillée du samedi 26 mars 1160}{section.0.25.4}{}}
\@writefile{toc}{\contentsline {section}{\numberline {}Notes}{308}{section.0.25.5}\protected@file@percent }
\newlabel{notes-24}{{}{308}{Notes}{section.0.25.5}{}}
\@writefile{toc}{\contentsline {section}{\numberline {}Références}{309}{section.0.25.6}\protected@file@percent }
\newlabel{ruxe9fuxe9rences-24}{{}{309}{Références}{section.0.25.6}{}}
\@writefile{toc}{\contentsline {chapter}{\numberline {26}Curiales}{311}{chapter.0.26}\protected@file@percent }
\@writefile{lof}{\addvspace {10\p@ }}
\@writefile{lot}{\addvspace {10\p@ }}
\newlabel{curiales}{{26}{311}{Curiales}{chapter.0.26}{}}
\@writefile{toc}{\contentsline {section}{\numberline {}Stavelot, abbaye, soir du lundi 20 décembre 1137}{311}{section.0.26.1}\protected@file@percent }
\newlabel{stavelot-abbaye-soir-du-lundi-20-duxe9cembre-1137}{{}{311}{Stavelot, abbaye, soir du lundi 20 décembre 1137}{section.0.26.1}{}}
\@writefile{toc}{\contentsline {section}{\numberline {}Freising, palais épiscopal, matinée du mercredi 12 mars 1147}{314}{section.0.26.2}\protected@file@percent }
\newlabel{freising-palais-uxe9piscopal-matinuxe9e-du-mercredi-12-mars-1147}{{}{314}{Freising, palais épiscopal, matinée du mercredi 12 mars 1147}{section.0.26.2}{}}
\@writefile{toc}{\contentsline {section}{\numberline {}Damas, oasis de la Ghuta, chapelle royale de Conrad, matin du mercredi 28 juillet 1148}{317}{section.0.26.3}\protected@file@percent }
\newlabel{damas-oasis-de-la-ghuta-chapelle-royale-de-conrad-matin-du-mercredi-28-juillet-1148}{{}{317}{Damas, oasis de la Ghuta, chapelle royale de Conrad, matin du mercredi 28 juillet 1148}{section.0.26.3}{}}
\@writefile{toc}{\contentsline {section}{\numberline {}Pavie, palais épiscopal, midi du vendredi 4 mars 1160}{319}{section.0.26.4}\protected@file@percent }
\newlabel{pavie-palais-uxe9piscopal-midi-du-vendredi-4-mars-1160}{{}{319}{Pavie, palais épiscopal, midi du vendredi 4 mars 1160}{section.0.26.4}{}}
\@writefile{toc}{\contentsline {section}{\numberline {}Notes}{320}{section.0.26.5}\protected@file@percent }
\newlabel{notes-25}{{}{320}{Notes}{section.0.26.5}{}}
\@writefile{toc}{\contentsline {section}{\numberline {}Références}{321}{section.0.26.6}\protected@file@percent }
\newlabel{ruxe9fuxe9rences-25}{{}{321}{Références}{section.0.26.6}{}}
\@writefile{toc}{\contentsline {chapter}{\numberline {27}Primus inter pares}{323}{chapter.0.27}\protected@file@percent }
\@writefile{lof}{\addvspace {10\p@ }}
\@writefile{lot}{\addvspace {10\p@ }}
\newlabel{primus-inter-pares}{{27}{323}{Primus inter pares}{chapter.0.27}{}}
\@writefile{toc}{\contentsline {section}{\numberline {}Acre, château royal, matin du mercredi 10 novembre 1143}{323}{section.0.27.1}\protected@file@percent }
\newlabel{acre-chuxe2teau-royal-matin-du-mercredi-10-novembre-1143}{{}{323}{Acre, château royal, matin du mercredi 10 novembre 1143}{section.0.27.1}{}}
\@writefile{toc}{\contentsline {section}{\numberline {}Naplouse, cour du manoir seigneurial, matin du vendredi 23 juin 1161}{326}{section.0.27.2}\protected@file@percent }
\newlabel{naplouse-cour-du-manoir-seigneurial-matin-du-vendredi-23-juin-1161}{{}{326}{Naplouse, cour du manoir seigneurial, matin du vendredi 23 juin 1161}{section.0.27.2}{}}
\@writefile{toc}{\contentsline {section}{\numberline {}Jérusalem, Temple de la Milice du Christ, veillée du mercredi 5 juillet 1161}{328}{section.0.27.3}\protected@file@percent }
\newlabel{juxe9rusalem-temple-de-la-milice-du-christ-veilluxe9e-du-mercredi-5-juillet-1161}{{}{328}{Jérusalem, Temple de la Milice du Christ, veillée du mercredi 5 juillet 1161}{section.0.27.3}{}}
\@writefile{toc}{\contentsline {section}{\numberline {}Jérusalem, demeure de Droart, soirée du vendredi 21 juillet 1161}{331}{section.0.27.4}\protected@file@percent }
\newlabel{juxe9rusalem-demeure-de-droart-soiruxe9e-du-vendredi-21-juillet-1161}{{}{331}{Jérusalem, demeure de Droart, soirée du vendredi 21 juillet 1161}{section.0.27.4}{}}
\@writefile{toc}{\contentsline {section}{\numberline {}Notes}{333}{section.0.27.5}\protected@file@percent }
\newlabel{notes-26}{{}{333}{Notes}{section.0.27.5}{}}
\@writefile{toc}{\contentsline {section}{\numberline {}Références}{334}{section.0.27.6}\protected@file@percent }
\newlabel{ruxe9fuxe9rences-26}{{}{334}{Références}{section.0.27.6}{}}
\@writefile{toc}{\contentsline {chapter}{\numberline {28}Apostat}{335}{chapter.0.28}\protected@file@percent }
\@writefile{lof}{\addvspace {10\p@ }}
\@writefile{lot}{\addvspace {10\p@ }}
\newlabel{apostat}{{28}{335}{Apostat}{chapter.0.28}{}}
\@writefile{toc}{\contentsline {section}{\numberline {}Antioche, casernement près de la porte du Chien, matin du lundi 4 juillet 1149}{335}{section.0.28.1}\protected@file@percent }
\newlabel{antioche-casernement-pruxe8s-de-la-porte-du-chien-matin-du-lundi-4-juillet-1149}{{}{335}{Antioche, casernement près de la porte du Chien, matin du lundi 4 juillet 1149}{section.0.28.1}{}}
\@writefile{toc}{\contentsline {section}{\numberline {}Antioche, porte du Fer, soir du jeudi 7 juillet 1149}{337}{section.0.28.2}\protected@file@percent }
\newlabel{antioche-porte-du-fer-soir-du-jeudi-7-juillet-1149}{{}{337}{Antioche, porte du Fer, soir du jeudi 7 juillet 1149}{section.0.28.2}{}}
\@writefile{toc}{\contentsline {section}{\numberline {}Harran, baraquements des soldats, soirée du youm al joumouia 29 jumada al-thani 549}{340}{section.0.28.3}\protected@file@percent }
\newlabel{harran-baraquements-des-soldats-soiruxe9e-du-youm-al-joumouia-29-jumada-al-thani-549152}{{}{340}{Harran, baraquements des soldats, soirée du youm al joumouia 29 jumada al-thani 549}{section.0.28.3}{}}
\@writefile{toc}{\contentsline {section}{\numberline {}Terre de Suète, abords du Yarmouk près des caves de Suète, matin du vendredi 11 juillet 1158}{343}{section.0.28.4}\protected@file@percent }
\newlabel{terre-de-suuxe8te-abords-du-yarmouk-pruxe8s-des-caves-de-suuxe8te-matin-du-vendredi-11-juillet-1158}{{}{343}{Terre de Suète, abords du Yarmouk près des caves de Suète, matin du vendredi 11 juillet 1158}{section.0.28.4}{}}
\@writefile{toc}{\contentsline {section}{\numberline {}Notes}{345}{section.0.28.5}\protected@file@percent }
\newlabel{notes-27}{{}{345}{Notes}{section.0.28.5}{}}
\@writefile{toc}{\contentsline {section}{\numberline {}Références}{346}{section.0.28.6}\protected@file@percent }
\newlabel{ruxe9fuxe9rences-27}{{}{346}{Références}{section.0.28.6}{}}
\@writefile{toc}{\contentsline {chapter}{\numberline {29}Modus vivendi}{347}{chapter.0.29}\protected@file@percent }
\@writefile{lof}{\addvspace {10\p@ }}
\@writefile{lot}{\addvspace {10\p@ }}
\newlabel{modus-vivendi}{{29}{347}{Modus vivendi}{chapter.0.29}{}}
\@writefile{toc}{\contentsline {section}{\numberline {}Casal de Salomé, demeure d'Abu Qasim, début d'après-midi du youm al joumouia 14 muharram 551}{347}{section.0.29.1}\protected@file@percent }
\newlabel{casal-de-salomuxe9-demeure-dabu-qasim-duxe9but-dapruxe8s-midi-du-youm-al-joumouia-14-muharram-551153}{{}{347}{Casal de Salomé, demeure d'Abu Qasim, début d'après-midi du youm al joumouia 14 muharram 551}{section.0.29.1}{}}
\@writefile{toc}{\contentsline {section}{\numberline {}Casal de Salomé, demeure d'Abu Mahmud, soirée du youm al talata 17 jha'ban 552}{350}{section.0.29.2}\protected@file@percent }
\newlabel{casal-de-salomuxe9-demeure-dabu-mahmud-soiruxe9e-du-youm-al-talata-17-jhaban-552154}{{}{350}{Casal de Salomé, demeure d'Abu Mahmud, soirée du youm al talata 17 jha'ban 552}{section.0.29.2}{}}
\@writefile{toc}{\contentsline {section}{\numberline {}Casal de Salomé, mosquée, après-midi du youm el itnine 1 dhu al-qi'dah 553}{352}{section.0.29.3}\protected@file@percent }
\newlabel{casal-de-salomuxe9-mosquuxe9e-apruxe8s-midi-du-youm-el-itnine-1-dhu-al-qidah-553155}{{}{352}{Casal de Salomé, mosquée, après-midi du youm el itnine 1 dhu al-qi'dah 553}{section.0.29.3}{}}
\@writefile{toc}{\contentsline {section}{\numberline {}Château de Salomé, grande salle, après-midi du youm al had 19 ramadan 554}{355}{section.0.29.4}\protected@file@percent }
\newlabel{chuxe2teau-de-salomuxe9-grande-salle-apruxe8s-midi-du-youm-al-had-19-ramadan-554156}{{}{355}{Château de Salomé, grande salle, après-midi du youm al had 19 ramadan 554}{section.0.29.4}{}}
\@writefile{toc}{\contentsline {section}{\numberline {}Notes}{357}{section.0.29.5}\protected@file@percent }
\newlabel{notes-28}{{}{357}{Notes}{section.0.29.5}{}}
\@writefile{toc}{\contentsline {section}{\numberline {}Références}{358}{section.0.29.6}\protected@file@percent }
\newlabel{ruxe9fuxe9rences-28}{{}{358}{Références}{section.0.29.6}{}}
\@writefile{toc}{\contentsline {chapter}{\numberline {30}La lettre cachée}{359}{chapter.0.30}\protected@file@percent }
\@writefile{lof}{\addvspace {10\p@ }}
\@writefile{lot}{\addvspace {10\p@ }}
\newlabel{la-lettre-cachuxe9e}{{30}{359}{La lettre cachée}{chapter.0.30}{}}
\@writefile{toc}{\contentsline {section}{\numberline {}Sidon, château seigneurial, veillée du vendredi 12 février 1160}{359}{section.0.30.1}\protected@file@percent }
\newlabel{sidon-chuxe2teau-seigneurial-veilluxe9e-du-vendredi-12-fuxe9vrier-1160}{{}{359}{Sidon, château seigneurial, veillée du vendredi 12 février 1160}{section.0.30.1}{}}
\@writefile{toc}{\contentsline {section}{\numberline {}Sidon, demeure de maître Benjamin, après-midi du mercredi 9 mars 1160}{362}{section.0.30.2}\protected@file@percent }
\newlabel{sidon-demeure-de-mauxeetre-benjamin-apruxe8s-midi-du-mercredi-9-mars-1160}{{}{362}{Sidon, demeure de maître Benjamin, après-midi du mercredi 9 mars 1160}{section.0.30.2}{}}
\@writefile{toc}{\contentsline {section}{\numberline {}Sidon, château seigneurial, fin d'après-midi du lundi 27 juin 1160}{364}{section.0.30.3}\protected@file@percent }
\newlabel{sidon-chuxe2teau-seigneurial-fin-dapruxe8s-midi-du-lundi-27-juin-1160}{{}{364}{Sidon, château seigneurial, fin d'après-midi du lundi 27 juin 1160}{section.0.30.3}{}}
\@writefile{toc}{\contentsline {section}{\numberline {}Jérusalem, palais royal, fin de matinée du samedi 16 juillet 1160}{366}{section.0.30.4}\protected@file@percent }
\newlabel{juxe9rusalem-palais-royal-fin-de-matinuxe9e-du-samedi-16-juillet-1160}{{}{366}{Jérusalem, palais royal, fin de matinée du samedi 16 juillet 1160}{section.0.30.4}{}}
\@writefile{toc}{\contentsline {section}{\numberline {}Notes}{369}{section.0.30.5}\protected@file@percent }
\newlabel{notes-29}{{}{369}{Notes}{section.0.30.5}{}}
\@writefile{toc}{\contentsline {section}{\numberline {}Références}{370}{section.0.30.6}\protected@file@percent }
\newlabel{ruxe9fuxe9rences-29}{{}{370}{Références}{section.0.30.6}{}}
\ttl@finishall
\gdef \@abspage@last{386}
