\relax 
\providecommand\hyper@newdestlabel[2]{}
\catcode `:\active 
\catcode `;\active 
\catcode `!\active 
\catcode `?\active 
\providecommand\HyperFirstAtBeginDocument{\AtBeginDocument}
\HyperFirstAtBeginDocument{\ifx\hyper@anchor\@undefined
\global\let\oldcontentsline\contentsline
\gdef\contentsline#1#2#3#4{\oldcontentsline{#1}{#2}{#3}}
\global\let\oldnewlabel\newlabel
\gdef\newlabel#1#2{\newlabelxx{#1}#2}
\gdef\newlabelxx#1#2#3#4#5#6{\oldnewlabel{#1}{{#2}{#3}}}
\AtEndDocument{\ifx\hyper@anchor\@undefined
\let\contentsline\oldcontentsline
\let\newlabel\oldnewlabel
\fi}
\fi}
\global\let\hyper@last\relax 
\gdef\HyperFirstAtBeginDocument#1{#1}
\providecommand\HyField@AuxAddToFields[1]{}
\providecommand\HyField@AuxAddToCoFields[2]{}
\babel@aux{french}{}
\@writefile{toc}{\contentsline {section}{Plan de J\IeC {\'e}rusalem}{i}{section*.2}}
\newlabel{plan-de-juxe9rusalem}{{}{i}{}{section*.2}{}}
\@writefile{toc}{\contentsline {section}{Plan du Saint-S\IeC {\'e}pulcre}{iii}{section*.4}}
\newlabel{plan-du-saint-suxe9pulcre}{{}{iii}{}{section*.4}{}}
\@writefile{toc}{\contentsline {section}{Liste des personnages}{v}{section*.6}}
\newlabel{liste-des-personnages}{{}{v}{}{section*.6}{}}
\@writefile{toc}{\contentsline {chapter}{\numberline {1}Prologue}{1}{chapter.0.1}}
\@writefile{lof}{\addvspace {10\p@ }}
\@writefile{lot}{\addvspace {10\p@ }}
\newlabel{prologue}{{1}{1}{Prologue}{chapter.0.1}{}}
\@writefile{toc}{\contentsline {section}{\numberline {}Monast\IeC {\`e}re b\IeC {\'e}n\IeC {\'e}dictin de la Charit\IeC {\'e}-sur-Loire, hiver~1223}{1}{section.0.1.1}}
\newlabel{monastuxe8re-buxe9nuxe9dictin-de-la-charituxe9-sur-loire-hiver-1223}{{}{1}{Monastère bénédictin de la Charité-sur-Loire, hiver~1223}{section.0.1.1}{}}
\@writefile{toc}{\contentsline {chapter}{\numberline {2}Chapitre 1}{5}{chapter.0.2}}
\@writefile{lof}{\addvspace {10\p@ }}
\@writefile{lot}{\addvspace {10\p@ }}
\newlabel{chapitre-1}{{2}{5}{Chapitre 1}{chapter.0.2}{}}
\@writefile{toc}{\contentsline {section}{\numberline {}J\IeC {\'e}rusalem, rue de David, matin du dimanche 14~avril~1157}{5}{section.0.2.1}}
\newlabel{juxe9rusalem-rue-de-david-matin-du-dimanche-14-avril-1157}{{}{5}{Jérusalem, rue de David, matin du dimanche 14~avril~1157}{section.0.2.1}{}}
\@writefile{toc}{\contentsline {section}{\numberline {}J\IeC {\'e}rusalem, Temple du Seigneur, matin du dimanche 24~mars~1157}{9}{section.0.2.2}}
\newlabel{juxe9rusalem-temple-du-seigneur-matin-du-dimanche-24-mars-1157}{{}{9}{Jérusalem, Temple du Seigneur, matin du dimanche 24~mars~1157}{section.0.2.2}{}}
\@writefile{toc}{\contentsline {section}{\numberline {}Matin du lundi 25~mars~1157}{19}{section.0.2.3}}
\newlabel{matin-du-lundi-25-mars-1157}{{}{19}{Matin du lundi 25~mars~1157}{section.0.2.3}{}}
\@writefile{toc}{\contentsline {section}{\numberline {}Milieu de matin\IeC {\'e}e du lundi 25~mars~1157}{28}{section.0.2.4}}
\newlabel{milieu-de-matinuxe9e-du-lundi-25-mars-1157}{{}{28}{Milieu de matinée du lundi 25~mars~1157}{section.0.2.4}{}}
\@writefile{toc}{\contentsline {section}{\numberline {}Fin de matin\IeC {\'e}e du lundi 25~mars~1157}{36}{section.0.2.5}}
\newlabel{fin-de-matinuxe9e-du-lundi-25-mars-1157}{{}{36}{Fin de matinée du lundi 25~mars~1157}{section.0.2.5}{}}
\@writefile{toc}{\contentsline {section}{\numberline {}Apr\IeC {\`e}s-midi du lundi 25~mars~1157}{44}{section.0.2.6}}
\newlabel{apruxe8s-midi-du-lundi-25-mars-1157}{{}{44}{Après-midi du lundi 25~mars~1157}{section.0.2.6}{}}
\@writefile{toc}{\contentsline {section}{\numberline {}Soir\IeC {\'e}e du lundi 25~mars~1157}{53}{section.0.2.7}}
\newlabel{soiruxe9e-du-lundi-25-mars-1157}{{}{53}{Soirée du lundi 25~mars~1157}{section.0.2.7}{}}
\@writefile{toc}{\contentsline {chapter}{\numberline {3}Chapitre 2}{65}{chapter.0.3}}
\@writefile{lof}{\addvspace {10\p@ }}
\@writefile{lot}{\addvspace {10\p@ }}
\newlabel{chapitre-2}{{3}{65}{Chapitre 2}{chapter.0.3}{}}
\@writefile{toc}{\contentsline {section}{\numberline {}J\IeC {\'e}rusalem, parvis du Saint-S\IeC {\'e}pulcre, matin du dimanche 14~avril~1157}{65}{section.0.3.1}}
\newlabel{juxe9rusalem-parvis-du-saint-suxe9pulcre-matin-du-dimanche-14-avril-1157}{{}{65}{Jérusalem, parvis du Saint-Sépulcre, matin du dimanche 14~avril~1157}{section.0.3.1}{}}
\@writefile{toc}{\contentsline {section}{\numberline {}J\IeC {\'e}rusalem, abords du change latin, d\IeC {\'e}but de matin\IeC {\'e}e du mardi 26~mars~1157}{66}{section.0.3.2}}
\newlabel{juxe9rusalem-abords-du-change-latin-duxe9but-de-matinuxe9e-du-mardi-26-mars-1157}{{}{66}{Jérusalem, abords du change latin, début de matinée du mardi 26~mars~1157}{section.0.3.2}{}}
\@writefile{toc}{\contentsline {section}{\numberline {}Matin\IeC {\'e}e du mardi 26~mars~1157}{76}{section.0.3.3}}
\newlabel{matinuxe9e-du-mardi-26-mars-1157}{{}{76}{Matinée du mardi 26~mars~1157}{section.0.3.3}{}}
\@writefile{toc}{\contentsline {section}{\numberline {}Fin de matin\IeC {\'e}e du mardi 26~mars~1157}{82}{section.0.3.4}}
\newlabel{fin-de-matinuxe9e-du-mardi-26-mars-1157}{{}{82}{Fin de matinée du mardi 26~mars~1157}{section.0.3.4}{}}
\@writefile{toc}{\contentsline {section}{\numberline {}Milieu d'apr\IeC {\`e}s-midi du mardi 26~mars~1157}{90}{section.0.3.5}}
\newlabel{milieu-dapruxe8s-midi-du-mardi-26-mars-1157}{{}{90}{Milieu d'après-midi du mardi 26~mars~1157}{section.0.3.5}{}}
\@writefile{toc}{\contentsline {section}{\numberline {}D\IeC {\'e}but de la nuit du mardi 26~mars~1157}{96}{section.0.3.6}}
\newlabel{duxe9but-de-la-nuit-du-mardi-26-mars-1157}{{}{96}{Début de la nuit du mardi 26~mars~1157}{section.0.3.6}{}}
\@writefile{toc}{\contentsline {chapter}{\numberline {4}Chapitre 3}{105}{chapter.0.4}}
\@writefile{lof}{\addvspace {10\p@ }}
\@writefile{lot}{\addvspace {10\p@ }}
\newlabel{chapitre-3}{{4}{105}{Chapitre 3}{chapter.0.4}{}}
\@writefile{toc}{\contentsline {section}{\numberline {}J\IeC {\'e}rusalem, \IeC {\'e}glise du Saint-S\IeC {\'e}pulcre, matin du dimanche 14~avril~1157}{105}{section.0.4.1}}
\newlabel{juxe9rusalem-uxe9glise-du-saint-suxe9pulcre-matin-du-dimanche-14-avril-1157}{{}{105}{Jérusalem, église du Saint-Sépulcre, matin du dimanche 14~avril~1157}{section.0.4.1}{}}
\@writefile{toc}{\contentsline {section}{\numberline {}J\IeC {\'e}rusalem, rue du Mont Sion, matin du mercredi 27~mars~1157}{107}{section.0.4.2}}
\newlabel{juxe9rusalem-rue-du-mont-sion-matin-du-mercredi-27-mars-1157}{{}{107}{Jérusalem, rue du Mont Sion, matin du mercredi 27~mars~1157}{section.0.4.2}{}}
\@writefile{toc}{\contentsline {section}{\numberline {}Fin de matin\IeC {\'e}e du mercredi 27~mars~1157}{113}{section.0.4.3}}
\newlabel{fin-de-matinuxe9e-du-mercredi-27-mars-1157}{{}{113}{Fin de matinée du mercredi 27~mars~1157}{section.0.4.3}{}}
\@writefile{toc}{\contentsline {section}{\numberline {}Midi du mercredi 27~mars~1157}{120}{section.0.4.4}}
\newlabel{midi-du-mercredi-27-mars-1157}{{}{120}{Midi du mercredi 27~mars~1157}{section.0.4.4}{}}
\@writefile{toc}{\contentsline {section}{\numberline {}D\IeC {\'e}but d'apr\IeC {\`e}s-midi du mercredi 27~mars~1157}{128}{section.0.4.5}}
\newlabel{duxe9but-dapruxe8s-midi-du-mercredi-27-mars-1157}{{}{128}{Début d'après-midi du mercredi 27~mars~1157}{section.0.4.5}{}}
\@writefile{toc}{\contentsline {section}{\numberline {}Soir\IeC {\'e}e du mercredi 27~mars~1157}{136}{section.0.4.6}}
\newlabel{soiruxe9e-du-mercredi-27-mars-1157}{{}{136}{Soirée du mercredi 27~mars~1157}{section.0.4.6}{}}
\@writefile{toc}{\contentsline {section}{\numberline {}D\IeC {\'e}but de nuit du mercredi 27~mars~1157}{142}{section.0.4.7}}
\newlabel{duxe9but-de-nuit-du-mercredi-27-mars-1157}{{}{142}{Début de nuit du mercredi 27~mars~1157}{section.0.4.7}{}}
\@writefile{toc}{\contentsline {section}{\numberline {}Nuit du mercredi 27~mars~1157}{147}{section.0.4.8}}
\newlabel{nuit-du-mercredi-27-mars-1157}{{}{147}{Nuit du mercredi 27~mars~1157}{section.0.4.8}{}}
\@writefile{toc}{\contentsline {chapter}{\numberline {5}Chapitre 4}{153}{chapter.0.5}}
\@writefile{lof}{\addvspace {10\p@ }}
\@writefile{lot}{\addvspace {10\p@ }}
\newlabel{chapitre-4}{{5}{153}{Chapitre 4}{chapter.0.5}{}}
\@writefile{toc}{\contentsline {section}{\numberline {}J\IeC {\'e}rusalem, \IeC {\'e}glise du Saint-S\IeC {\'e}pulcre, matin du dimanche 14~avril~1157}{153}{section.0.5.1}}
\newlabel{juxe9rusalem-uxe9glise-du-saint-suxe9pulcre-matin-du-dimanche-14-avril-1157-1}{{}{153}{Jérusalem, église du Saint-Sépulcre, matin du dimanche 14~avril~1157}{section.0.5.1}{}}
\@writefile{toc}{\contentsline {section}{\numberline {}J\IeC {\'e}rusalem, abords de Saint-Martin, matin du jeudi 28~mars~1157}{155}{section.0.5.2}}
\newlabel{juxe9rusalem-abords-de-saint-martin-matin-du-jeudi-28-mars-1157}{{}{155}{Jérusalem, abords de Saint-Martin, matin du jeudi 28~mars~1157}{section.0.5.2}{}}
\@writefile{toc}{\contentsline {section}{\numberline {}Sainte-Marie du Mont Sion, matin du jeudi 28~mars~1157}{159}{section.0.5.3}}
\newlabel{sainte-marie-du-mont-sion-matin-du-jeudi-28-mars-1157}{{}{159}{Sainte-Marie du Mont Sion, matin du jeudi 28~mars~1157}{section.0.5.3}{}}
\@writefile{toc}{\contentsline {section}{\numberline {}D\IeC {\'e}but d'apr\IeC {\`e}s-midi du jeudi 28~mars~1157}{168}{section.0.5.4}}
\newlabel{duxe9but-dapruxe8s-midi-du-jeudi-28-mars-1157}{{}{168}{Début d'après-midi du jeudi 28~mars~1157}{section.0.5.4}{}}
\@writefile{toc}{\contentsline {section}{\numberline {}Apr\IeC {\`e}s-midi du jeudi 28~mars~1157}{174}{section.0.5.5}}
\newlabel{apruxe8s-midi-du-jeudi-28-mars-1157}{{}{174}{Après-midi du jeudi 28~mars~1157}{section.0.5.5}{}}
\@writefile{toc}{\contentsline {section}{\numberline {}Soir\IeC {\'e}e du jeudi 28~mars~1157}{181}{section.0.5.6}}
\newlabel{soiruxe9e-du-jeudi-28-mars-1157}{{}{181}{Soirée du jeudi 28~mars~1157}{section.0.5.6}{}}
\@writefile{toc}{\contentsline {section}{\numberline {}Nuit du jeudi 28~mars~1157}{188}{section.0.5.7}}
\newlabel{nuit-du-jeudi-28-mars-1157}{{}{188}{Nuit du jeudi 28~mars~1157}{section.0.5.7}{}}
\@writefile{toc}{\contentsline {chapter}{\numberline {6}Chapitre 5}{197}{chapter.0.6}}
\@writefile{lof}{\addvspace {10\p@ }}
\@writefile{lot}{\addvspace {10\p@ }}
\newlabel{chapitre-5}{{6}{197}{Chapitre 5}{chapter.0.6}{}}
\@writefile{toc}{\contentsline {section}{\numberline {}J\IeC {\'e}rusalem, \IeC {\'e}glise du Saint-S\IeC {\'e}pulcre, dimanche 14~avril~1157}{197}{section.0.6.1}}
\newlabel{juxe9rusalem-uxe9glise-du-saint-suxe9pulcre-dimanche-14-avril-1157}{{}{197}{Jérusalem, église du Saint-Sépulcre, dimanche 14~avril~1157}{section.0.6.1}{}}
\@writefile{toc}{\contentsline {section}{\numberline {}J\IeC {\'e}rusalem, faubourg de la porte de David, matin du vendredi 29~mars~1157}{198}{section.0.6.2}}
\newlabel{juxe9rusalem-faubourg-de-la-porte-de-david-matin-du-vendredi-29-mars-1157}{{}{198}{Jérusalem, faubourg de la porte de David, matin du vendredi 29~mars~1157}{section.0.6.2}{}}
\@writefile{toc}{\contentsline {section}{\numberline {}Matin\IeC {\'e}e du vendredi 29~mars~1157}{204}{section.0.6.3}}
\newlabel{matinuxe9e-du-vendredi-29-mars-1157}{{}{204}{Matinée du vendredi 29~mars~1157}{section.0.6.3}{}}
\@writefile{toc}{\contentsline {section}{\numberline {}Fin de matin\IeC {\'e}e du vendredi 29~mars~1157}{210}{section.0.6.4}}
\newlabel{fin-de-matinuxe9e-du-vendredi-29-mars-1157}{{}{210}{Fin de matinée du vendredi 29~mars~1157}{section.0.6.4}{}}
\@writefile{toc}{\contentsline {section}{\numberline {}Fin d'apr\IeC {\`e}s-midi du vendredi 29~mars~1157}{217}{section.0.6.5}}
\newlabel{fin-dapruxe8s-midi-du-vendredi-29-mars-1157}{{}{217}{Fin d'après-midi du vendredi 29~mars~1157}{section.0.6.5}{}}
\@writefile{toc}{\contentsline {section}{\numberline {}Soir du vendredi 29~mars~1157}{223}{section.0.6.6}}
\newlabel{soir-du-vendredi-29-mars-1157}{{}{223}{Soir du vendredi 29~mars~1157}{section.0.6.6}{}}
\@writefile{toc}{\contentsline {section}{\numberline {}Nuit du vendredi 29~mars~1157}{229}{section.0.6.7}}
\newlabel{nuit-du-vendredi-29-mars-1157}{{}{229}{Nuit du vendredi 29~mars~1157}{section.0.6.7}{}}
\@writefile{toc}{\contentsline {chapter}{\numberline {7}Chapitre 6}{237}{chapter.0.7}}
\@writefile{lof}{\addvspace {10\p@ }}
\@writefile{lot}{\addvspace {10\p@ }}
\newlabel{chapitre-6}{{7}{237}{Chapitre 6}{chapter.0.7}{}}
\@writefile{toc}{\contentsline {section}{\numberline {}J\IeC {\'e}rusalem, parvis du Saint-S\IeC {\'e}pulcre, matin du dimanche 14~avril~1157}{237}{section.0.7.1}}
\newlabel{juxe9rusalem-parvis-du-saint-suxe9pulcre-matin-du-dimanche-14-avril-1157-1}{{}{237}{Jérusalem, parvis du Saint-Sépulcre, matin du dimanche 14~avril~1157}{section.0.7.1}{}}
\@writefile{toc}{\contentsline {section}{\numberline {}J\IeC {\'e}rusalem, abords de Saint-Martin, t\IeC {\^o}t le matin du samedi 30~mars~1157}{238}{section.0.7.2}}
\newlabel{juxe9rusalem-abords-de-saint-martin-tuxf4t-le-matin-du-samedi-30-mars-1157}{{}{238}{Jérusalem, abords de Saint-Martin, tôt le matin du samedi 30~mars~1157}{section.0.7.2}{}}
\@writefile{toc}{\contentsline {section}{\numberline {}Matin du samedi 30~mars~1157}{244}{section.0.7.3}}
\newlabel{juxe9rusalem-matin-du-samedi-30-mars-1157}{{}{244}{Matin du samedi 30~mars~1157}{section.0.7.3}{}}
\@writefile{toc}{\contentsline {section}{\numberline {}Milieu de matin\IeC {\'e}e du samedi 30~mars~1157}{251}{section.0.7.4}}
\newlabel{milieu-de-matinuxe9e-du-samedi-30-mars-1157}{{}{251}{Milieu de matinée du samedi 30~mars~1157}{section.0.7.4}{}}
\@writefile{toc}{\contentsline {section}{\numberline {}Apr\IeC {\`e}s-midi du samedi 30~mars~1157}{257}{section.0.7.5}}
\newlabel{apruxe8s-midi-du-samedi-30-mars-1157}{{}{257}{Après-midi du samedi 30~mars~1157}{section.0.7.5}{}}
\@writefile{toc}{\contentsline {section}{\numberline {}Soir\IeC {\'e}e du samedi 30~mars~1157}{263}{section.0.7.6}}
\newlabel{soiruxe9e-du-samedi-30-mars-1157}{{}{263}{Soirée du samedi 30~mars~1157}{section.0.7.6}{}}
\@writefile{toc}{\contentsline {chapter}{\numberline {8}Chapitre 7}{273}{chapter.0.8}}
\@writefile{lof}{\addvspace {10\p@ }}
\@writefile{lot}{\addvspace {10\p@ }}
\newlabel{chapitre-7}{{8}{273}{Chapitre 7}{chapter.0.8}{}}
\@writefile{toc}{\contentsline {section}{\numberline {}J\IeC {\'e}rusalem, tombeau du Christ, \IeC {\'e}glise du Saint-S\IeC {\'e}pulcre, matin du dimanche 14~avril~1157}{273}{section.0.8.1}}
\newlabel{juxe9rusalem-tombeau-du-christ-uxe9glise-du-saint-suxe9pulcre-matin-du-dimanche-14-avril-1157}{{}{273}{Jérusalem, tombeau du Christ, église du Saint-Sépulcre, matin du dimanche 14~avril~1157}{section.0.8.1}{}}
\@writefile{toc}{\contentsline {section}{\numberline {}J\IeC {\'e}rusalem, porte de David, matin du dimanche 31~mars~1157}{274}{section.0.8.2}}
\newlabel{juxe9rusalem-porte-de-david-matin-du-dimanche-31-mars-1157}{{}{274}{Jérusalem, porte de David, matin du dimanche 31~mars~1157}{section.0.8.2}{}}
\@writefile{toc}{\contentsline {section}{\numberline {}D\IeC {\'e}but de matin\IeC {\'e}e du dimanche 31~mars~1157}{280}{section.0.8.3}}
\newlabel{duxe9but-de-matinuxe9e-du-dimanche-31-mars-1157}{{}{280}{Début de matinée du dimanche 31~mars~1157}{section.0.8.3}{}}
\@writefile{toc}{\contentsline {section}{\numberline {}Milieu de matin\IeC {\'e}e du dimanche 31~mars~1157}{287}{section.0.8.4}}
\newlabel{milieu-de-matinuxe9e-du-dimanche-31-mars-1157}{{}{287}{Milieu de matinée du dimanche 31~mars~1157}{section.0.8.4}{}}
\@writefile{toc}{\contentsline {section}{\numberline {}Apr\IeC {\`e}s-midi du dimanche 31~mars~1157}{295}{section.0.8.5}}
\newlabel{apruxe8s-midi-du-dimanche-31-mars-1157}{{}{295}{Après-midi du dimanche 31~mars~1157}{section.0.8.5}{}}
\@writefile{toc}{\contentsline {section}{\numberline {}Fin d'apr\IeC {\`e}s-midi du dimanche 31~mars~1157}{301}{section.0.8.6}}
\newlabel{fin-dapruxe8s-midi-du-dimanche-31-mars-1157}{{}{301}{Fin d'après-midi du dimanche 31~mars~1157}{section.0.8.6}{}}
\@writefile{toc}{\contentsline {section}{\numberline {}Soir\IeC {\'e}e du dimanche 31~mars~1157}{306}{section.0.8.7}}
\newlabel{soiruxe9e-du-dimanche-31-mars-1157}{{}{306}{Soirée du dimanche 31~mars~1157}{section.0.8.7}{}}
\@writefile{toc}{\contentsline {chapter}{\numberline {9}\IeC {\'E}pilogue}{313}{chapter.0.9}}
\@writefile{lof}{\addvspace {10\p@ }}
\@writefile{lot}{\addvspace {10\p@ }}
\newlabel{uxe9pilogue}{{9}{313}{Épilogue}{chapter.0.9}{}}
\@writefile{toc}{\contentsline {section}{\numberline {}J\IeC {\'e}rusalem, \IeC {\'e}glise du Saint-S\IeC {\'e}pulcre, fin de matin\IeC {\'e}e du dimanche 14~avril~1157}{313}{section.0.9.1}}
\newlabel{juxe9rusalem-uxe9glise-du-saint-suxe9pulcre-fin-de-matinuxe9e-du-dimanche-14-avril-1157}{{}{313}{Jérusalem, église du Saint-Sépulcre, fin de matinée du dimanche 14~avril~1157}{section.0.9.1}{}}
\@writefile{toc}{\contentsline {chapter}{\numberline {10}Addenda}{317}{chapter.0.10}}
\@writefile{lof}{\addvspace {10\p@ }}
\@writefile{lot}{\addvspace {10\p@ }}
\newlabel{Addenda}{{10}{317}{Addenda}{chapter.0.10}{}}
\@writefile{toc}{\contentsline {section}{\numberline {}Notes de l'auteur}{317}{section.0.10.1}}
\newlabel{notesauteur}{{}{317}{Notes de l'auteur}{section.0.10.1}{}}
\ttl@finishall
