\relax 
\providecommand\hyper@newdestlabel[2]{}
\providecommand\babel@aux[2]{}
\@nameuse{bbl@beforestart}
\catcode `:\active 
\catcode `;\active 
\catcode `!\active 
\catcode `?\active 
\providecommand\HyperFirstAtBeginDocument{\AtBeginDocument}
\HyperFirstAtBeginDocument{\ifx\hyper@anchor\@undefined
\global\let\oldcontentsline\contentsline
\gdef\contentsline#1#2#3#4{\oldcontentsline{#1}{#2}{#3}}
\global\let\oldnewlabel\newlabel
\gdef\newlabel#1#2{\newlabelxx{#1}#2}
\gdef\newlabelxx#1#2#3#4#5#6{\oldnewlabel{#1}{{#2}{#3}}}
\AtEndDocument{\ifx\hyper@anchor\@undefined
\let\contentsline\oldcontentsline
\let\newlabel\oldnewlabel
\fi}
\fi}
\global\let\hyper@last\relax 
\gdef\HyperFirstAtBeginDocument#1{#1}
\providecommand\HyField@AuxAddToFields[1]{}
\providecommand\HyField@AuxAddToCoFields[2]{}
\babel@aux{french}{}
\@writefile{toc}{\contentsline {chapter}{\numberline {1}La main du destin}{1}{chapter.0.1}\protected@file@percent }
\@writefile{lof}{\addvspace {10\p@ }}
\@writefile{lot}{\addvspace {10\p@ }}
\newlabel{la-main-du-destin}{{1}{1}{La main du destin}{chapter.0.1}{}}
\@writefile{toc}{\contentsline {section}{\numberline {}Mossoul, citadelle des bords du Tigre, matin du youm~el~itnine 27~ramadan~530}{1}{section.0.1.1}\protected@file@percent }
\newlabel{mossoul-citadelle-des-bords-du-tigre-matin-du-youm-el-itnine-27-ramadan-5301}{{}{1}{Mossoul, citadelle des bords du Tigre, matin du youm~el~itnine 27~ramadan~530}{section.0.1.1}{}}
\@writefile{toc}{\contentsline {section}{\numberline {}Édesse, grande salle de la citadelle, soir du youm~al~khemis 1~jadjab~539}{4}{section.0.1.2}\protected@file@percent }
\newlabel{uxe9desse-grande-salle-de-la-citadelle-soir-du-youm-al-khemis-1-jadjab-5393}{{}{4}{Édesse, grande salle de la citadelle, soir du youm~al~khemis 1~jadjab~539}{section.0.1.2}{}}
\@writefile{toc}{\contentsline {section}{\numberline {}Qal'at Ja'bar, camp de siège, nuit du youm~al~sebt 5~rabi’~al-thani~541}{8}{section.0.1.3}\protected@file@percent }
\newlabel{qalat-jabar-camp-de-siuxe8ge-nuit-du-youm-al-sebt-5-rabi-al-thani-54112}{{}{8}{Qal'at Ja'bar, camp de siège, nuit du youm~al~sebt 5~rabi’~al-thani~541}{section.0.1.3}{}}
\@writefile{toc}{\contentsline {section}{\numberline {}Damas, geôles de la citadelle, matin du youm~al~sebt 29~jadjab~541}{11}{section.0.1.4}\protected@file@percent }
\newlabel{damas-geuxf4les-de-la-citadelle-matin-du-youm-al-sebt-29-jadjab-54116}{{}{11}{Damas, geôles de la citadelle, matin du youm~al~sebt 29~jadjab~541}{section.0.1.4}{}}
\@writefile{toc}{\contentsline {section}{\numberline {}Naplouse, cour des bourgeois, fin de matinée du jeudi~25~août~1149}{14}{section.0.1.5}\protected@file@percent }
\newlabel{naplouse-cour-des-bourgeois-fin-de-matinuxe9e-du-jeudi-25-aouxfbt-1149}{{}{14}{Naplouse, cour des bourgeois, fin de matinée du jeudi~25~août~1149}{section.0.1.5}{}}
\@writefile{toc}{\contentsline {section}{\numberline {}Notes}{16}{section.0.1.6}\protected@file@percent }
\newlabel{notes}{{}{16}{Notes}{section.0.1.6}{}}
\@writefile{toc}{\contentsline {section}{\numberline {}Références}{17}{section.0.1.7}\protected@file@percent }
\newlabel{ruxe9fuxe9rences}{{}{17}{Références}{section.0.1.7}{}}
\@writefile{toc}{\contentsline {chapter}{\numberline {2}Pour une poignée de dinars}{19}{chapter.0.2}\protected@file@percent }
\@writefile{lof}{\addvspace {10\p@ }}
\@writefile{lot}{\addvspace {10\p@ }}
\newlabel{pour-une-poignuxe9e-de-dinars}{{2}{19}{Pour une poignée de dinars}{chapter.0.2}{}}
\@writefile{toc}{\contentsline {section}{\numberline {}Damas, citadelle, début d'après-midi du jeudi~10~janvier~1157}{19}{section.0.2.1}\protected@file@percent }
\newlabel{damas-citadelle-duxe9but-dapruxe8s-midi-du-jeudi-10-janvier-1157}{{}{19}{Damas, citadelle, début d'après-midi du jeudi~10~janvier~1157}{section.0.2.1}{}}
\@writefile{toc}{\contentsline {section}{\numberline {}Jérusalem, palais royal, matinée du lundi~14~janvier~1157}{22}{section.0.2.2}\protected@file@percent }
\newlabel{juxe9rusalem-palais-royal-matinuxe9e-du-lundi-14-janvier-1157}{{}{22}{Jérusalem, palais royal, matinée du lundi~14~janvier~1157}{section.0.2.2}{}}
\@writefile{toc}{\contentsline {section}{\numberline {}Jérusalem, palais royal, après-midi du mercredi~16~janvier~1157}{25}{section.0.2.3}\protected@file@percent }
\newlabel{juxe9rusalem-palais-royal-apruxe8s-midi-du-mercredi-16-janvier-1157}{{}{25}{Jérusalem, palais royal, après-midi du mercredi~16~janvier~1157}{section.0.2.3}{}}
\@writefile{toc}{\contentsline {section}{\numberline {}Jérusalem, palais royal, soirée du mardi~18~novembre~1158}{28}{section.0.2.4}\protected@file@percent }
\newlabel{juxe9rusalem-palais-royal-soiruxe9e-du-mardi-18-novembre-1158}{{}{28}{Jérusalem, palais royal, soirée du mardi~18~novembre~1158}{section.0.2.4}{}}
\@writefile{toc}{\contentsline {section}{\numberline {}Notes}{33}{section.0.2.5}\protected@file@percent }
\newlabel{notes-1}{{}{33}{Notes}{section.0.2.5}{}}
\@writefile{toc}{\contentsline {section}{\numberline {}Références}{33}{section.0.2.6}\protected@file@percent }
\newlabel{ruxe9fuxe9rences-1}{{}{33}{Références}{section.0.2.6}{}}
\@writefile{toc}{\contentsline {chapter}{\numberline {3}Pour quelques dinars de plus}{35}{chapter.0.3}\protected@file@percent }
\@writefile{lof}{\addvspace {10\p@ }}
\@writefile{lot}{\addvspace {10\p@ }}
\newlabel{pour-quelques-dinars-de-plus}{{3}{35}{Pour quelques dinars de plus}{chapter.0.3}{}}
\@writefile{toc}{\contentsline {section}{\numberline {}Jérusalem, grand hôpital de Saint-Jean, soirée du samedi~19~janvier~1157}{35}{section.0.3.1}\protected@file@percent }
\newlabel{juxe9rusalem-grand-huxf4pital-de-saint-jean-soiruxe9e-du-samedi-19-janvier-1157}{{}{35}{Jérusalem, grand hôpital de Saint-Jean, soirée du samedi~19~janvier~1157}{section.0.3.1}{}}
\@writefile{toc}{\contentsline {section}{\numberline {}Damas, demeure de Al-Zarqa', soirée du youm~al~sebt 19~dhu~al-hijjah~551}{39}{section.0.3.2}\protected@file@percent }
\newlabel{damas-demeure-de-al-zarqa-soiruxe9e-du-youm-al-sebt-19-dhu-al-hijjah-55134}{{}{39}{Damas, demeure de Al-Zarqa', soirée du youm~al~sebt 19~dhu~al-hijjah~551}{section.0.3.2}{}}
\@writefile{toc}{\contentsline {section}{\numberline {}Jérusalem, hôtel de Bernard Vacher, fin d'après-midi du mardi~26~février~1157}{42}{section.0.3.3}\protected@file@percent }
\newlabel{juxe9rusalem-huxf4tel-de-bernard-vacher-fin-dapruxe8s-midi-du-mardi-26-fuxe9vrier-1157}{{}{42}{Jérusalem, hôtel de Bernard Vacher, fin d'après-midi du mardi~26~février~1157}{section.0.3.3}{}}
\@writefile{toc}{\contentsline {section}{\numberline {}Damas, demeure de Abu Malik, soirée du youm~al~sebt 25~muharram~552}{46}{section.0.3.4}\protected@file@percent }
\newlabel{damas-demeure-de-abu-malik-soiruxe9e-du-youm-al-sebt-25-muharram-55243}{{}{46}{Damas, demeure de Abu Malik, soirée du youm~al~sebt 25~muharram~552}{section.0.3.4}{}}
\@writefile{toc}{\contentsline {section}{\numberline {}Notes}{49}{section.0.3.5}\protected@file@percent }
\newlabel{notes-2}{{}{49}{Notes}{section.0.3.5}{}}
\@writefile{toc}{\contentsline {section}{\numberline {}Références}{49}{section.0.3.6}\protected@file@percent }
\newlabel{ruxe9fuxe9rences-2}{{}{49}{Références}{section.0.3.6}{}}
\@writefile{toc}{\contentsline {chapter}{\numberline {4}Impitoyable}{51}{chapter.0.4}\protected@file@percent }
\@writefile{lof}{\addvspace {10\p@ }}
\@writefile{lot}{\addvspace {10\p@ }}
\newlabel{impitoyable}{{4}{51}{Impitoyable}{chapter.0.4}{}}
\@writefile{toc}{\contentsline {section}{\numberline {}Jérusalem, cuisines du palais royal, matin du lundi~27~octobre~1158}{51}{section.0.4.1}\protected@file@percent }
\newlabel{juxe9rusalem-cuisines-du-palais-royal-matin-du-lundi-27-octobre-1158}{{}{51}{Jérusalem, cuisines du palais royal, matin du lundi~27~octobre~1158}{section.0.4.1}{}}
\@writefile{toc}{\contentsline {section}{\numberline {}Tyr, cathédrale Sainte-Croix, après-midi du mardi~4~novembre~1158}{54}{section.0.4.2}\protected@file@percent }
\newlabel{tyr-cathuxe9drale-sainte-croix-apruxe8s-midi-du-mardi-4-novembre-1158}{{}{54}{Tyr, cathédrale Sainte-Croix, après-midi du mardi~4~novembre~1158}{section.0.4.2}{}}
\@writefile{toc}{\contentsline {section}{\numberline {}Jérusalem, quartier de la demeure d'Abu Malik, début de soirée du mardi~18~novembre~1158}{56}{section.0.4.3}\protected@file@percent }
\newlabel{juxe9rusalem-quartier-de-la-demeure-dabu-malik-duxe9but-de-soiruxe9e-du-mardi-18-novembre-1158}{{}{56}{Jérusalem, quartier de la demeure d'Abu Malik, début de soirée du mardi~18~novembre~1158}{section.0.4.3}{}}
\@writefile{toc}{\contentsline {section}{\numberline {}Damas, citadelle, début d'après-midi du youm~al~arbia 15~dhu~al-hijjah~553}{59}{section.0.4.4}\protected@file@percent }
\newlabel{damas-citadelle-duxe9but-dapruxe8s-midi-du-youm-al-arbia-15-dhu-al-hijjah~55355}{{}{59}{Damas, citadelle, début d'après-midi du youm~al~arbia 15~dhu~al-hijjah~553}{section.0.4.4}{}}
\@writefile{toc}{\contentsline {section}{\numberline {}Notes}{63}{section.0.4.5}\protected@file@percent }
\newlabel{notes-3}{{}{63}{Notes}{section.0.4.5}{}}
\@writefile{toc}{\contentsline {section}{\numberline {}Références}{64}{section.0.4.6}\protected@file@percent }
\newlabel{ruxe9fuxe9rences-3}{{}{64}{Références}{section.0.4.6}{}}
\@writefile{toc}{\contentsline {chapter}{\numberline {5}Désert}{65}{chapter.0.5}\protected@file@percent }
\@writefile{lof}{\addvspace {10\p@ }}
\@writefile{lot}{\addvspace {10\p@ }}
\newlabel{duxe9sert}{{5}{65}{Désert}{chapter.0.5}{}}
\@writefile{toc}{\contentsline {section}{\numberline {}Sinaï, camp de bédouins, matin du lundi~22~septembre~1158}{65}{section.0.5.1}\protected@file@percent }
\newlabel{sinauxef-camp-de-buxe9douins-matin-du-lundi-22-septembre-1158}{{}{65}{Sinaï, camp de bédouins, matin du lundi~22~septembre~1158}{section.0.5.1}{}}
\@writefile{toc}{\contentsline {section}{\numberline {}Sinaï, camp de bédouins, après-midi du mercredi~8~octobre~1158}{70}{section.0.5.2}\protected@file@percent }
\newlabel{sinauxef-camp-de-buxe9douins-apruxe8s-midi-du-mercredi-8-octobre-1158}{{}{70}{Sinaï, camp de bédouins, après-midi du mercredi~8~octobre~1158}{section.0.5.2}{}}
\@writefile{toc}{\contentsline {section}{\numberline {}Cité antique de Pétra, Wadi Sabra, soir du jeudi~23~octobre~1158}{73}{section.0.5.3}\protected@file@percent }
\newlabel{cituxe9-antique-de-puxe9tra-wadi-sabra-soir-du-jeudi-23-octobre-1158}{{}{73}{Cité antique de Pétra, Wadi Sabra, soir du jeudi~23~octobre~1158}{section.0.5.3}{}}
\@writefile{toc}{\contentsline {section}{\numberline {}Cité de Kérak, zone des jardins occidentaux, début d'après-midi du vendredi~31~octobre~1158}{75}{section.0.5.4}\protected@file@percent }
\newlabel{cituxe9-de-kuxe9rak-zone-des-jardins-occidentaux-duxe9but-dapruxe8s-midi-du-vendredi-31-octobre-1158}{{}{75}{Cité de Kérak, zone des jardins occidentaux, début d'après-midi du vendredi~31~octobre~1158}{section.0.5.4}{}}
\@writefile{toc}{\contentsline {section}{\numberline {}Notes}{77}{section.0.5.5}\protected@file@percent }
\newlabel{notes-4}{{}{77}{Notes}{section.0.5.5}{}}
\@writefile{toc}{\contentsline {section}{\numberline {}Références}{78}{section.0.5.6}\protected@file@percent }
\newlabel{ruxe9fuxe9rences-4}{{}{78}{Références}{section.0.5.6}{}}
\@writefile{toc}{\contentsline {chapter}{\numberline {6}Semper ad altum}{79}{chapter.0.6}\protected@file@percent }
\@writefile{lof}{\addvspace {10\p@ }}
\@writefile{lot}{\addvspace {10\p@ }}
\newlabel{semper-ad-altum}{{6}{79}{Semper ad altum}{chapter.0.6}{}}
\@writefile{toc}{\contentsline {section}{\numberline {}Ascalon, camp de siège, après-midi du samedi~15~août~1153}{79}{section.0.6.1}\protected@file@percent }
\newlabel{ascalon-camp-de-siuxe8ge-apruxe8s-midi-du-samedi-15-aouxfbt-1153}{{}{79}{Ascalon, camp de siège, après-midi du samedi~15~août~1153}{section.0.6.1}{}}
\@writefile{toc}{\contentsline {section}{\numberline {}Bethléem, parvis de la basilique de la Nativité, veillée du vendredi~24~décembre~1154}{82}{section.0.6.2}\protected@file@percent }
\newlabel{bethluxe9em-parvis-de-la-basilique-de-la-nativituxe9-veilluxe9e-du-vendredi-24-duxe9cembre-1154}{{}{82}{Bethléem, parvis de la basilique de la Nativité, veillée du vendredi~24~décembre~1154}{section.0.6.2}{}}
\@writefile{toc}{\contentsline {section}{\numberline {}Jérusalem, demeure d'Ameline d'Abraham, soirée du vendredi~15~juillet~1155}{85}{section.0.6.3}\protected@file@percent }
\newlabel{juxe9rusalem-demeure-dameline-dabraham-soiruxe9e-du-vendredi-15-juillet-1155}{{}{85}{Jérusalem, demeure d'Ameline d'Abraham, soirée du vendredi~15~juillet~1155}{section.0.6.3}{}}
\@writefile{toc}{\contentsline {section}{\numberline {}Jérusalem, palais royal, début de matinée du mardi~26~mars~1157}{88}{section.0.6.4}\protected@file@percent }
\newlabel{juxe9rusalem-palais-royal-duxe9but-de-matinuxe9e-du-mardi-26-mars-1157}{{}{88}{Jérusalem, palais royal, début de matinée du mardi~26~mars~1157}{section.0.6.4}{}}
\@writefile{toc}{\contentsline {section}{\numberline {}Notes}{90}{section.0.6.5}\protected@file@percent }
\newlabel{notes-5}{{}{90}{Notes}{section.0.6.5}{}}
\@writefile{toc}{\contentsline {section}{\numberline {}Références}{91}{section.0.6.6}\protected@file@percent }
\newlabel{ruxe9fuxe9rences-5}{{}{91}{Références}{section.0.6.6}{}}
\@writefile{toc}{\contentsline {chapter}{\numberline {7}Deux vies}{93}{chapter.0.7}\protected@file@percent }
\@writefile{lof}{\addvspace {10\p@ }}
\@writefile{lot}{\addvspace {10\p@ }}
\newlabel{deux-vies}{{7}{93}{Deux vies}{chapter.0.7}{}}
\@writefile{toc}{\contentsline {section}{\numberline {}Jérusalem, quartier Saint-Étienne, fin de matinée du jeudi~11~septembre~1147}{93}{section.0.7.1}\protected@file@percent }
\newlabel{juxe9rusalem-quartier-saint-uxe9tienne-fin-de-matinuxe9e-du-jeudi-11-septembre-1147}{{}{93}{Jérusalem, quartier Saint-Étienne, fin de matinée du jeudi~11~septembre~1147}{section.0.7.1}{}}
\@writefile{toc}{\contentsline {section}{\numberline {}Jérusalem, église du Saint-Sépulcre, après-midi du dimanche~21~décembre~1147}{95}{section.0.7.2}\protected@file@percent }
\newlabel{juxe9rusalem-uxe9glise-du-saint-suxe9pulcre-apruxe8s-midi-du-dimanche-21-duxe9cembre-1147}{{}{95}{Jérusalem, église du Saint-Sépulcre, après-midi du dimanche~21~décembre~1147}{section.0.7.2}{}}
\@writefile{toc}{\contentsline {section}{\numberline {}Jérusalem, demeure de Pierre Salomon, soirée du samedi~5~avril~1152}{98}{section.0.7.3}\protected@file@percent }
\newlabel{juxe9rusalem-demeure-de-pierre-salomon-soiruxe9e-du-samedi-5-avril-1152}{{}{98}{Jérusalem, demeure de Pierre Salomon, soirée du samedi~5~avril~1152}{section.0.7.3}{}}
\@writefile{toc}{\contentsline {section}{\numberline {}Jérusalem, abords de l'église Saint-Étienne, matin du dimanche~27~septembre~1153}{100}{section.0.7.4}\protected@file@percent }
\newlabel{juxe9rusalem-abords-de-luxe9glise-saint-uxe9tienne-matin-du-dimanche-27-septembre-1153}{{}{100}{Jérusalem, abords de l'église Saint-Étienne, matin du dimanche~27~septembre~1153}{section.0.7.4}{}}
\@writefile{toc}{\contentsline {section}{\numberline {}Jérusalem, jardins de la porte Saint-Étienne, fin d'après-midi du jeudi~15~juillet~1154}{101}{section.0.7.5}\protected@file@percent }
\newlabel{juxe9rusalem-jardins-de-la-porte-saint-uxe9tienne-fin-dapruxe8s-midi-du-jeudi-15-juillet-1154}{{}{101}{Jérusalem, jardins de la porte Saint-Étienne, fin d'après-midi du jeudi~15~juillet~1154}{section.0.7.5}{}}
\@writefile{toc}{\contentsline {section}{\numberline {}Jérusalem, rue de David, midi du vendredi~23~mai~1158}{103}{section.0.7.6}\protected@file@percent }
\newlabel{juxe9rusalem-rue-de-david-midi-du-vendredi-23-mai-1158}{{}{103}{Jérusalem, rue de David, midi du vendredi~23~mai~1158}{section.0.7.6}{}}
\@writefile{toc}{\contentsline {section}{\numberline {}Notes}{105}{section.0.7.7}\protected@file@percent }
\newlabel{notes-6}{{}{105}{Notes}{section.0.7.7}{}}
\@writefile{toc}{\contentsline {section}{\numberline {}Références}{106}{section.0.7.8}\protected@file@percent }
\newlabel{ruxe9fuxe9rences-6}{{}{106}{Références}{section.0.7.8}{}}
\@writefile{toc}{\contentsline {chapter}{\numberline {8}Traditions}{107}{chapter.0.8}\protected@file@percent }
\@writefile{lof}{\addvspace {10\p@ }}
\@writefile{lot}{\addvspace {10\p@ }}
\newlabel{traditions}{{8}{107}{Traditions}{chapter.0.8}{}}
\@writefile{toc}{\contentsline {section}{\numberline {}Jérusalem, quartier de la porte d'Hérode, matin du mardi~6~mars~1145}{107}{section.0.8.1}\protected@file@percent }
\newlabel{juxe9rusalem-quartier-de-la-porte-dhuxe9rode-matin-du-mardi-6-mars-1145}{{}{107}{Jérusalem, quartier de la porte d'Hérode, matin du mardi~6~mars~1145}{section.0.8.1}{}}
\@writefile{toc}{\contentsline {section}{\numberline {}Jérusalem, porte de David, fin d'après-midi du vendredi~25~mars~1149}{111}{section.0.8.2}\protected@file@percent }
\newlabel{juxe9rusalem-porte-de-david-fin-dapruxe8s-midi-du-vendredi-25-mars-1149}{{}{111}{Jérusalem, porte de David, fin d'après-midi du vendredi~25~mars~1149}{section.0.8.2}{}}
\@writefile{toc}{\contentsline {section}{\numberline {}Jérusalem, Malquisinat, midi du mardi~10~juillet~1156}{114}{section.0.8.3}\protected@file@percent }
\newlabel{juxe9rusalem-malquisinat-midi-du-mardi-10-juillet-1156}{{}{114}{Jérusalem, Malquisinat, midi du mardi~10~juillet~1156}{section.0.8.3}{}}
\@writefile{toc}{\contentsline {section}{\numberline {}Jérusalem, quartier de la porte d'Hérode, fin d'après-midi du lundi~16~décembre~1157}{116}{section.0.8.4}\protected@file@percent }
\newlabel{juxe9rusalem-quartier-de-porte-dhuxe9rode-fin-dapruxe8s-midi-du-lundi-16-duxe9cembre-1157}{{}{116}{Jérusalem, quartier de la porte d'Hérode, fin d'après-midi du lundi~16~décembre~1157}{section.0.8.4}{}}
\@writefile{toc}{\contentsline {section}{\numberline {}Notes}{119}{section.0.8.5}\protected@file@percent }
\newlabel{notes-7}{{}{119}{Notes}{section.0.8.5}{}}
\@writefile{toc}{\contentsline {section}{\numberline {}Références}{120}{section.0.8.6}\protected@file@percent }
\newlabel{ruxe9fuxe9rences-7}{{}{120}{Références}{section.0.8.6}{}}
\@writefile{toc}{\contentsline {chapter}{\numberline {9}En route}{121}{chapter.0.9}\protected@file@percent }
\@writefile{lof}{\addvspace {10\p@ }}
\@writefile{lot}{\addvspace {10\p@ }}
\newlabel{en-route}{{9}{121}{En route}{chapter.0.9}{}}
\@writefile{toc}{\contentsline {section}{\numberline {}Tyr, parvis de la cathédrale Sainte-Croix, fin de matinée du dimanche~18~février~1151}{121}{section.0.9.1}\protected@file@percent }
\newlabel{tyr-parvis-de-la-cathuxe9drale-sainte-croix-fin-de-matinuxe9e-du-dimanche-18-fuxe9vrier-1151}{{}{121}{Tyr, parvis de la cathédrale Sainte-Croix, fin de matinée du dimanche~18~février~1151}{section.0.9.1}{}}
\@writefile{toc}{\contentsline {section}{\numberline {}Jérusalem, échoppe de Margue l'Allemande, matin du mardi~3~novembre~1153}{124}{section.0.9.2}\protected@file@percent }
\newlabel{juxe9rusalem-uxe9choppe-de-margue-lallemande-matin-du-mardi-3-novembre-1153}{{}{124}{Jérusalem, échoppe de Margue l'Allemande, matin du mardi~3~novembre~1153}{section.0.9.2}{}}
\@writefile{toc}{\contentsline {section}{\numberline {}Jérusalem, quartier du palais royal, matin du lundi~16~novembre~1153}{127}{section.0.9.3}\protected@file@percent }
\newlabel{juxe9rusalem-quartier-du-palais-royal-matin-du-lundi-16-novembre-1153}{{}{127}{Jérusalem, quartier du palais royal, matin du lundi~16~novembre~1153}{section.0.9.3}{}}
\@writefile{toc}{\contentsline {section}{\numberline {}Ascalon, abords de la porte de Jaffa, veillée du dimanche~13~décembre~1153}{129}{section.0.9.4}\protected@file@percent }
\newlabel{ascalon-abords-de-la-porte-de-jaffa-veilluxe9e-du-dimanche-13-duxe9cembre-1153}{{}{129}{Ascalon, abords de la porte de Jaffa, veillée du dimanche~13~décembre~1153}{section.0.9.4}{}}
\@writefile{toc}{\contentsline {section}{\numberline {}Lydda, quartier de Samarie, matin du lundi~15~décembre~1158}{132}{section.0.9.5}\protected@file@percent }
\newlabel{lydda-quartier-de-samarie-matin-du-lundi-15-duxe9cembre-1158}{{}{132}{Lydda, quartier de Samarie, matin du lundi~15~décembre~1158}{section.0.9.5}{}}
\@writefile{toc}{\contentsline {section}{\numberline {}Notes}{134}{section.0.9.6}\protected@file@percent }
\newlabel{notes-8}{{}{134}{Notes}{section.0.9.6}{}}
\@writefile{toc}{\contentsline {section}{\numberline {}Références}{135}{section.0.9.7}\protected@file@percent }
\newlabel{ruxe9fuxe9rences-8}{{}{135}{Références}{section.0.9.7}{}}
\@writefile{toc}{\contentsline {chapter}{\numberline {10}Semper fidelis}{137}{chapter.0.10}\protected@file@percent }
\@writefile{lof}{\addvspace {10\p@ }}
\@writefile{lot}{\addvspace {10\p@ }}
\newlabel{semper-fidelis}{{10}{137}{Semper fidelis}{chapter.0.10}{}}
\@writefile{toc}{\contentsline {section}{\numberline {}Jérusalem, vallée du Hinnom, fin d'après-midi du mercredi~5~février~1130}{137}{section.0.10.1}\protected@file@percent }
\newlabel{juxe9rusalem-valluxe9e-du-hinnom-fin-dapruxe8s-midi-du-mercredi-5-fuxe9vrier-1130}{{}{137}{Jérusalem, vallée du Hinnom, fin d'après-midi du mercredi~5~février~1130}{section.0.10.1}{}}
\@writefile{toc}{\contentsline {section}{\numberline {}Casal Techua, fin de matinée du vendredi~15~septembre~1139}{140}{section.0.10.2}\protected@file@percent }
\newlabel{casal-techua-fin-de-matinuxe9e-du-vendredi-15-septembre-1139}{{}{140}{Casal Techua, fin de matinée du vendredi~15~septembre~1139}{section.0.10.2}{}}
\@writefile{toc}{\contentsline {section}{\numberline {}Casal Techua, chemin méridional menant vers Hébron, midi du vendredi~15~septembre~1139}{143}{section.0.10.3}\protected@file@percent }
\newlabel{casal-techua-chemin-muxe9ridional-menant-vers-huxe9bron-midi-du-vendredi-15-septembre-1139}{{}{143}{Casal Techua, chemin méridional menant vers Hébron, midi du vendredi~15~septembre~1139}{section.0.10.3}{}}
\@writefile{toc}{\contentsline {section}{\numberline {}Jérusalem, Saint-Sépulcre, matin du lundi~15~septembre~1152}{147}{section.0.10.4}\protected@file@percent }
\newlabel{juxe9rusalem-saint-suxe9pulcre-matin-du-lundi-15-septembre-1152}{{}{147}{Jérusalem, Saint-Sépulcre, matin du lundi~15~septembre~1152}{section.0.10.4}{}}
\@writefile{toc}{\contentsline {section}{\numberline {}Notes}{149}{section.0.10.5}\protected@file@percent }
\newlabel{notes-9}{{}{149}{Notes}{section.0.10.5}{}}
\@writefile{toc}{\contentsline {section}{\numberline {}Références}{150}{section.0.10.6}\protected@file@percent }
\newlabel{ruxe9fuxe9rences-9}{{}{150}{Références}{section.0.10.6}{}}
\@writefile{toc}{\contentsline {chapter}{\numberline {11}Forain}{151}{chapter.0.11}\protected@file@percent }
\@writefile{lof}{\addvspace {10\p@ }}
\@writefile{lot}{\addvspace {10\p@ }}
\newlabel{forain}{{11}{151}{Forain}{chapter.0.11}{}}
\@writefile{toc}{\contentsline {section}{\numberline {}Mezze, ouest de Damas, fin d'après-midi du lundi~12~août~1157}{151}{section.0.11.1}\protected@file@percent }
\newlabel{mezze-ouest-de-damas-fin-dapruxe8s-midi-du-lundi-12-aouxfbt-1157}{{}{151}{Mezze, ouest de Damas, fin d'après-midi du lundi~12~août~1157}{section.0.11.1}{}}
\@writefile{toc}{\contentsline {section}{\numberline {}Bait Jann, aube du vendredi~16~août~1157}{155}{section.0.11.2}\protected@file@percent }
\newlabel{bait-jann-aube-du-vendredi-16-aouxfbt-1157}{{}{155}{Bait Jann, aube du vendredi~16~août~1157}{section.0.11.2}{}}
\@writefile{toc}{\contentsline {section}{\numberline {}Baniyas, soirée du vendredi~16~août~1157}{158}{section.0.11.3}\protected@file@percent }
\newlabel{baniyas-soiruxe9e-du-vendredi-16-aouxfbt-1157}{{}{158}{Baniyas, soirée du vendredi~16~août~1157}{section.0.11.3}{}}
\@writefile{toc}{\contentsline {section}{\numberline {}Jérusalem, quartier Saint-Jean, midi du mercredi~4~septembre~1157}{163}{section.0.11.4}\protected@file@percent }
\newlabel{juxe9rusalem-quartier-saint-jean-midi-du-mercredi-4-septembre-1157}{{}{163}{Jérusalem, quartier Saint-Jean, midi du mercredi~4~septembre~1157}{section.0.11.4}{}}
\@writefile{toc}{\contentsline {section}{\numberline {}Notes}{165}{section.0.11.5}\protected@file@percent }
\newlabel{notes-10}{{}{165}{Notes}{section.0.11.5}{}}
\@writefile{toc}{\contentsline {section}{\numberline {}Références}{165}{section.0.11.6}\protected@file@percent }
\newlabel{ruxe9fuxe9rences-10}{{}{165}{Références}{section.0.11.6}{}}
\@writefile{toc}{\contentsline {chapter}{\numberline {12}Les trois frères}{167}{chapter.0.12}\protected@file@percent }
\@writefile{lof}{\addvspace {10\p@ }}
\@writefile{lot}{\addvspace {10\p@ }}
\newlabel{les-trois-fruxe8res}{{12}{167}{Les trois frères}{chapter.0.12}{}}
\@writefile{toc}{\contentsline {section}{\numberline {}Misr-Fustat, demeure de Ashraf ben Panoub, fin d'après-midi du mercredi~24~octobre~1156}{167}{section.0.12.1}\protected@file@percent }
\newlabel{misr-fustat-demeure-de-ashraf-ben-panoub-fin-dapruxe8s-midi-du-mercredi-24-octobre-1156}{{}{167}{Misr-Fustat, demeure de Ashraf ben Panoub, fin d'après-midi du mercredi~24~octobre~1156}{section.0.12.1}{}}
\@writefile{toc}{\contentsline {section}{\numberline {}Naplouse, palais seigneurial, veillée du mardi~12~août~1158}{172}{section.0.12.2}\protected@file@percent }
\newlabel{naplouse-palais-seigneurial-veilluxe9e-du-mardi-12-aouxfbt-1158}{{}{172}{Naplouse, palais seigneurial, veillée du mardi~12~août~1158}{section.0.12.2}{}}
\@writefile{toc}{\contentsline {section}{\numberline {}Ascalon, château comtal, matin du mardi~30~septembre~1158}{175}{section.0.12.3}\protected@file@percent }
\newlabel{ascalon-chuxe2teau-comtal-matin-du-mardi-30-septembre-1158}{{}{175}{Ascalon, château comtal, matin du mardi~30~septembre~1158}{section.0.12.3}{}}
\@writefile{toc}{\contentsline {section}{\numberline {}Notes}{179}{section.0.12.4}\protected@file@percent }
\newlabel{notes-11}{{}{179}{Notes}{section.0.12.4}{}}
\@writefile{toc}{\contentsline {section}{\numberline {}Références}{180}{section.0.12.5}\protected@file@percent }
\newlabel{ruxe9fuxe9rences-11}{{}{180}{Références}{section.0.12.5}{}}
\@writefile{toc}{\contentsline {chapter}{\numberline {13}Caritas}{181}{chapter.0.13}\protected@file@percent }
\@writefile{lof}{\addvspace {10\p@ }}
\@writefile{lot}{\addvspace {10\p@ }}
\newlabel{caritas}{{13}{181}{Caritas}{chapter.0.13}{}}
\@writefile{toc}{\contentsline {section}{\numberline {}Calanson, halte caravanière, après-midi du mardi~13~mai~1158}{181}{section.0.13.1}\protected@file@percent }
\newlabel{calanson-halte-caravaniuxe8re-apruxe8s-midi-du-mardi-13-mai-1158}{{}{181}{Calanson, halte caravanière, après-midi du mardi~13~mai~1158}{section.0.13.1}{}}
\@writefile{toc}{\contentsline {section}{\numberline {}Beith-Gibelin, église paroissiale, fin d'après-midi du mercredi~12~novembre~1158}{185}{section.0.13.2}\protected@file@percent }
\newlabel{beith-gibelin-uxe9glise-paroissiale-fin-dapruxe8s-midi-du-mercredi-12-novembre-1158}{{}{185}{Beith-Gibelin, église paroissiale, fin d'après-midi du mercredi~12~novembre~1158}{section.0.13.2}{}}
\@writefile{toc}{\contentsline {section}{\numberline {}Château Emmaüs, salle capitulaire des frères de Saint-Jean de Jérusalem, après-midi du dimanche~7~juin~1159}{188}{section.0.13.3}\protected@file@percent }
\newlabel{chuxe2teau-emmauxfcs-salle-capitulaire-des-fruxe8res-de-saint-jean-de-juxe9rusalem-apruxe8s-midi-du-dimanche-7-juin-1159}{{}{188}{Château Emmaüs, salle capitulaire des frères de Saint-Jean de Jérusalem, après-midi du dimanche~7~juin~1159}{section.0.13.3}{}}
\@writefile{toc}{\contentsline {section}{\numberline {}Calanson, cellier des frères de Saint-Jean de Jérusalem, matin du jeudi~25~juin~1159}{192}{section.0.13.4}\protected@file@percent }
\newlabel{calanson-cellier-des-fruxe8res-de-saint-jean-de-juxe9rusalem-matin-du-jeudi-25-juin-1159}{{}{192}{Calanson, cellier des frères de Saint-Jean de Jérusalem, matin du jeudi~25~juin~1159}{section.0.13.4}{}}
\@writefile{toc}{\contentsline {section}{\numberline {}Aqua-Bella, cellule de père Daniel, veillée du mercredi~18~novembre~1159}{195}{section.0.13.5}\protected@file@percent }
\newlabel{aqua-bella-cellule-de-puxe8re-daniel-veilluxe9e-du-mercredi-18-novembre-1159}{{}{195}{Aqua-Bella, cellule de père Daniel, veillée du mercredi~18~novembre~1159}{section.0.13.5}{}}
\@writefile{toc}{\contentsline {section}{\numberline {}Notes}{198}{section.0.13.6}\protected@file@percent }
\newlabel{notes-12}{{}{198}{Notes}{section.0.13.6}{}}
\@writefile{toc}{\contentsline {section}{\numberline {}Références}{199}{section.0.13.7}\protected@file@percent }
\newlabel{ruxe9fuxe9rences-12}{{}{199}{Références}{section.0.13.7}{}}
\@writefile{toc}{\contentsline {chapter}{\numberline {14}Écueils}{201}{chapter.0.14}\protected@file@percent }
\@writefile{lof}{\addvspace {10\p@ }}
\@writefile{lot}{\addvspace {10\p@ }}
\newlabel{uxe9cueils}{{14}{201}{Écueils}{chapter.0.14}{}}
\@writefile{toc}{\contentsline {section}{\numberline {}Jaffa, bassin de la lune, fin de matinée du lundi~24~mars~1158}{201}{section.0.14.1}\protected@file@percent }
\newlabel{jaffa-bassin-de-la-lune-fin-de-matinuxe9e-du-lundi-24-mars-1158}{{}{201}{Jaffa, bassin de la lune, fin de matinée du lundi~24~mars~1158}{section.0.14.1}{}}
\@writefile{toc}{\contentsline {section}{\numberline {}Jaffa, porte orientale sur la route de Rama, début d'après-midi du lundi~24~mars~1158}{205}{section.0.14.2}\protected@file@percent }
\newlabel{jaffa-porte-orientale-sur-la-route-de-rama-duxe9but-dapruxe8s-midi-du-lundi-24-mars-1158}{{}{205}{Jaffa, porte orientale sur la route de Rama, début d'après-midi du lundi~24~mars~1158}{section.0.14.2}{}}
\@writefile{toc}{\contentsline {section}{\numberline {}Jaffa, plages septentrionales, après-midi du lundi~24~mars~1158}{208}{section.0.14.3}\protected@file@percent }
\newlabel{jaffa-plages-septentrionales-apruxe8s-midi-du-lundi-24-mars-1158}{{}{208}{Jaffa, plages septentrionales, après-midi du lundi~24~mars~1158}{section.0.14.3}{}}
\@writefile{toc}{\contentsline {section}{\numberline {}Jaffa, quartier pisan, veillée du lundi~24~mars~1158}{210}{section.0.14.4}\protected@file@percent }
\newlabel{jaffa-quartier-pisan-veilluxe9e-du-lundi-24-mars-1158}{{}{210}{Jaffa, quartier pisan, veillée du lundi~24~mars~1158}{section.0.14.4}{}}
\@writefile{toc}{\contentsline {section}{\numberline {}Notes}{212}{section.0.14.5}\protected@file@percent }
\newlabel{notes-13}{{}{212}{Notes}{section.0.14.5}{}}
\@writefile{toc}{\contentsline {section}{\numberline {}Références}{213}{section.0.14.6}\protected@file@percent }
\newlabel{ruxe9fuxe9rences-13}{{}{213}{Références}{section.0.14.6}{}}
\@writefile{toc}{\contentsline {chapter}{\numberline {15}Vie commune}{215}{chapter.0.15}\protected@file@percent }
\@writefile{lof}{\addvspace {10\p@ }}
\@writefile{lot}{\addvspace {10\p@ }}
\newlabel{vie-commune}{{15}{215}{Vie commune}{chapter.0.15}{}}
\@writefile{toc}{\contentsline {section}{\numberline {}Jérusalem, hôpital de Saint-Jean de Jérusalem, après-midi du mardi~18~décembre~1156}{215}{section.0.15.1}\protected@file@percent }
\newlabel{juxe9rusalem-huxf4pital-de-saint-jean-de-juxe9rusalem-apruxe8s-midi-du-mardi-18-duxe9cembre-1156}{{}{215}{Jérusalem, hôpital de Saint-Jean de Jérusalem, après-midi du mardi~18~décembre~1156}{section.0.15.1}{}}
\@writefile{toc}{\contentsline {section}{\numberline {}Jérusalem, hôpital de Saint-Jean de Jérusalem, fin de matinée du vendredi~4~janvier~1157}{218}{section.0.15.2}\protected@file@percent }
\newlabel{juxe9rusalem-huxf4pital-de-saint-jean-de-juxe9rusalem-fin-de-matinuxe9e-du-vendredi-4-janvier-1157}{{}{218}{Jérusalem, hôpital de Saint-Jean de Jérusalem, fin de matinée du vendredi~4~janvier~1157}{section.0.15.2}{}}
\@writefile{toc}{\contentsline {section}{\numberline {}Jérusalem, Malquisinat, soirée du mercredi~27~mars~1157}{221}{section.0.15.3}\protected@file@percent }
\newlabel{juxe9rusalem-malquisinat-soiruxe9e-du-mercredi-27-mars-1157}{{}{221}{Jérusalem, Malquisinat, soirée du mercredi~27~mars~1157}{section.0.15.3}{}}
\@writefile{toc}{\contentsline {section}{\numberline {}Clepsta, demeure de Girout la Cirière, fin d'après-midi du mercredi~12~février~1158}{224}{section.0.15.4}\protected@file@percent }
\newlabel{clepsta-demeure-de-girout-la-ciriuxe8re-fin-dapruxe8s-midi-du-mercredi-12-fuxe9vrier-1158}{{}{224}{Clepsta, demeure de Girout la Cirière, fin d'après-midi du mercredi~12~février~1158}{section.0.15.4}{}}
\@writefile{toc}{\contentsline {section}{\numberline {}Jérusalem, grand hôpital de Saint-Jean, soirée du lundi~3~mars~1158}{227}{section.0.15.5}\protected@file@percent }
\newlabel{juxe9rusalem-grand-huxf4pital-de-saint-jean-soiruxe9e-du-lundi-3-mars-1158}{{}{227}{Jérusalem, grand hôpital de Saint-Jean, soirée du lundi~3~mars~1158}{section.0.15.5}{}}
\@writefile{toc}{\contentsline {section}{\numberline {}Mirabel, manse des Terres d'Épines, fin d'après-midi du mardi~24~juin~1158}{229}{section.0.15.6}\protected@file@percent }
\newlabel{mirabel-manse-des-terres-duxe9pines-fin-dapruxe8s-midi-du-mardi-24-juin-1158}{{}{229}{Mirabel, manse des Terres d'Épines, fin d'après-midi du mardi~24~juin~1158}{section.0.15.6}{}}
\@writefile{toc}{\contentsline {section}{\numberline {}Notes}{232}{section.0.15.7}\protected@file@percent }
\newlabel{notes-14}{{}{232}{Notes}{section.0.15.7}{}}
\@writefile{toc}{\contentsline {section}{\numberline {}Références}{233}{section.0.15.8}\protected@file@percent }
\newlabel{ruxe9fuxe9rences-14}{{}{233}{Références}{section.0.15.8}{}}
\@writefile{toc}{\contentsline {chapter}{\numberline {16}Serviens}{235}{chapter.0.16}\protected@file@percent }
\@writefile{lof}{\addvspace {10\p@ }}
\@writefile{lot}{\addvspace {10\p@ }}
\newlabel{serviens}{{16}{235}{Serviens}{chapter.0.16}{}}
\@writefile{toc}{\contentsline {section}{\numberline {}Bourg Saint-Martin, parvis de l'église, fin de matinée du vendredi~16~février~1151}{235}{section.0.16.1}\protected@file@percent }
\newlabel{bourg-saint-martin-parvis-de-luxe9glise-fin-de-matinuxe9e-du-vendredi-16-fuxe9vrier-1151}{{}{235}{Bourg Saint-Martin, parvis de l'église, fin de matinée du vendredi~16~février~1151}{section.0.16.1}{}}
\@writefile{toc}{\contentsline {section}{\numberline {}Bruges, cellier de l'hôpital de Saint-Jean, fin de matinée du vendredi~28~décembre~1156}{239}{section.0.16.2}\protected@file@percent }
\newlabel{bruges-cellier-de-lhuxf4pital-de-saint-jean-fin-de-matinuxe9e-du-vendredi-28-duxe9cembre-1156}{{}{239}{Bruges, cellier de l'hôpital de Saint-Jean, fin de matinée du vendredi~28~décembre~1156}{section.0.16.2}{}}
\@writefile{toc}{\contentsline {section}{\numberline {}Plaine de la Bocquée, après-midi du dimanche~29~septembre~1157}{242}{section.0.16.3}\protected@file@percent }
\newlabel{plaine-de-la-bocquuxe9e-apruxe8s-midi-du-dimanche-29-septembre-1157}{{}{242}{Plaine de la Bocquée, après-midi du dimanche~29~septembre~1157}{section.0.16.3}{}}
\@writefile{toc}{\contentsline {section}{\numberline {}Shayzar sur l'Oronte, camp du comte de Flandre, matinée du mardi~15~octobre~1157}{246}{section.0.16.4}\protected@file@percent }
\newlabel{shayzar-sur-loronte-camp-du-comte-de-flandre-matinuxe9e-du-mardi-15-octobre-1157}{{}{246}{Shayzar sur l'Oronte, camp du comte de Flandre, matinée du mardi~15~octobre~1157}{section.0.16.4}{}}
\@writefile{toc}{\contentsline {section}{\numberline {}Harim, camp du comte de Flandre, fin d'après-midi du mercredi~25~décembre~1157}{249}{section.0.16.5}\protected@file@percent }
\newlabel{harim-camp-du-comte-de-flandre-fin-dapruxe8s-midi-du-mercredi-25-duxe9cembre-1157}{{}{249}{Harim, camp du comte de Flandre, fin d'après-midi du mercredi~25~décembre~1157}{section.0.16.5}{}}
\@writefile{toc}{\contentsline {section}{\numberline {}Jérusalem, quartier de l'Ânerie, midi du vendredi~9~mai~1158}{251}{section.0.16.6}\protected@file@percent }
\newlabel{juxe9rusalem-quartier-de-luxe2nerie-midi-du-vendredi-9-mai-1158}{{}{251}{Jérusalem, quartier de l'Ânerie, midi du vendredi~9~mai~1158}{section.0.16.6}{}}
\@writefile{toc}{\contentsline {section}{\numberline {}Notes}{253}{section.0.16.7}\protected@file@percent }
\newlabel{notes-15}{{}{253}{Notes}{section.0.16.7}{}}
\@writefile{toc}{\contentsline {section}{\numberline {}Références}{254}{section.0.16.8}\protected@file@percent }
\newlabel{ruxe9fuxe9rences-15}{{}{254}{Références}{section.0.16.8}{}}
\@writefile{toc}{\contentsline {chapter}{\numberline {17}Ingénieuses bricoles}{255}{chapter.0.17}\protected@file@percent }
\@writefile{lof}{\addvspace {10\p@ }}
\@writefile{lot}{\addvspace {10\p@ }}
\newlabel{inguxe9nieuses-bricoles}{{17}{255}{Ingénieuses bricoles}{chapter.0.17}{}}
\@writefile{toc}{\contentsline {section}{\numberline {}Jérusalem, boutique de Thomas le regrattier, début d'après-midi du vendredi~6~janvier~1139}{255}{section.0.17.1}\protected@file@percent }
\newlabel{juxe9rusalem-boutique-de-thomas-le-regrattier-duxe9but-dapruxe8s-midi-du-vendredi-6-janvier-1139}{{}{255}{Jérusalem, boutique de Thomas le regrattier, début d'après-midi du vendredi~6~janvier~1139}{section.0.17.1}{}}
\@writefile{toc}{\contentsline {section}{\numberline {}Jérusalem, maison de Thomas le regrattier, soirée du mardi~17~avril~1145}{257}{section.0.17.2}\protected@file@percent }
\newlabel{juxe9rusalem-maison-de-thomas-le-regrattier-soiruxe9e-du-mardi-17-avril-1145}{{}{257}{Jérusalem, maison de Thomas le regrattier, soirée du mardi~17~avril~1145}{section.0.17.2}{}}
\@writefile{toc}{\contentsline {section}{\numberline {}Ascalon, camp de siège chrétien, fin d'après-midi du jeudi~9~juillet~1153}{260}{section.0.17.3}\protected@file@percent }
\newlabel{ascalon-camp-de-siuxe8ge-chruxe9tien-fin-dapruxe8s-midi-du-jeudi-9-juillet-1153}{{}{260}{Ascalon, camp de siège chrétien, fin d'après-midi du jeudi~9~juillet~1153}{section.0.17.3}{}}
\@writefile{toc}{\contentsline {section}{\numberline {}Jérusalem, citadelle de la tour de David, début d'après-midi du jeudi~29~août~1157}{262}{section.0.17.4}\protected@file@percent }
\newlabel{juxe9rusalem-citadelle-de-la-tour-de-david-duxe9but-dapruxe8s-midi-du-jeudi-29-aouxfbt-1157}{{}{262}{Jérusalem, citadelle de la tour de David, début d'après-midi du jeudi~29~août~1157}{section.0.17.4}{}}
\@writefile{toc}{\contentsline {section}{\numberline {}Acre, manse de Thomas le regrattier, début d'après-midi du mercredi~17~décembre~1158}{264}{section.0.17.5}\protected@file@percent }
\newlabel{acre-manse-de-thomas-le-regrattier-duxe9but-dapruxe8s-midi-du-mercredi-17-duxe9cembre-1158}{{}{264}{Acre, manse de Thomas le regrattier, début d'après-midi du mercredi~17~décembre~1158}{section.0.17.5}{}}
\@writefile{toc}{\contentsline {section}{\numberline {}Antioche, quartier de la porte Saint-Georges, soirée du mercredi~15~avril~1159}{266}{section.0.17.6}\protected@file@percent }
\newlabel{antioche-quartier-de-la-porte-saint-georges-soiruxe9e-du-mercredi-15-avril-1159}{{}{266}{Antioche, quartier de la porte Saint-Georges, soirée du mercredi~15~avril~1159}{section.0.17.6}{}}
\@writefile{toc}{\contentsline {section}{\numberline {}Notes}{269}{section.0.17.7}\protected@file@percent }
\newlabel{notes-16}{{}{269}{Notes}{section.0.17.7}{}}
\@writefile{toc}{\contentsline {section}{\numberline {}Références}{269}{section.0.17.8}\protected@file@percent }
\newlabel{ruxe9fuxe9rences-16}{{}{269}{Références}{section.0.17.8}{}}
\@writefile{toc}{\contentsline {chapter}{\numberline {18}La croix et la bannière}{271}{chapter.0.18}\protected@file@percent }
\@writefile{lof}{\addvspace {10\p@ }}
\@writefile{lot}{\addvspace {10\p@ }}
\newlabel{la-croix-et-la-banniuxe8re}{{18}{271}{La croix et la bannière}{chapter.0.18}{}}
\@writefile{toc}{\contentsline {section}{\numberline {}Vézelay, pâturages communs, après-midi du mardi~17~juin~1152}{271}{section.0.18.1}\protected@file@percent }
\newlabel{vuxe9zelay-puxe2turages-communs-apruxe8s-midi-du-mardi-17-juin-1152}{{}{271}{Vézelay, pâturages communs, après-midi du mardi~17~juin~1152}{section.0.18.1}{}}
\@writefile{toc}{\contentsline {section}{\numberline {}Vézelay, demeure d'Ermont de la Treille, soirée du lundi~28~juillet~1152}{274}{section.0.18.2}\protected@file@percent }
\newlabel{vuxe9zelay-demeure-dermont-de-la-treille-soiruxe9e-du-lundi-28-juillet-1152}{{}{274}{Vézelay, demeure d'Ermont de la Treille, soirée du lundi~28~juillet~1152}{section.0.18.2}{}}
\@writefile{toc}{\contentsline {section}{\numberline {}Vézelay, village de Saint-Pierre, demeure de Hugues, début d'après-midi du samedi~25~avril~1153}{276}{section.0.18.3}\protected@file@percent }
\newlabel{vuxe9zelay-village-de-saint-pierre-demeure-de-hugues-duxe9but-dapruxe8s-midi-du-samedi-25-avril-1153}{{}{276}{Vézelay, village de Saint-Pierre, demeure de Hugues, début d'après-midi du samedi~25~avril~1153}{section.0.18.3}{}}
\@writefile{toc}{\contentsline {section}{\numberline {}Vézelay, domaine de l'abbaye de la Madeleine, début de soirée du dimanche~10~avril~1155}{278}{section.0.18.4}\protected@file@percent }
\newlabel{vuxe9zelay-domaine-de-labbaye-de-la-madeleine-duxe9but-de-soiruxe9e-du-dimanche-10-avril-1155}{{}{278}{Vézelay, domaine de l'abbaye de la Madeleine, début de soirée du dimanche~10~avril~1155}{section.0.18.4}{}}
\@writefile{toc}{\contentsline {section}{\numberline {}Vézelay, demeure d'Ermont de la Treille, matin du jeudi~24~novembre~1155}{280}{section.0.18.5}\protected@file@percent }
\newlabel{vuxe9zelay-demeure-dermont-de-la-treille-matin-du-jeudi-24-novembre-1155}{{}{280}{Vézelay, demeure d'Ermont de la Treille, matin du jeudi~24~novembre~1155}{section.0.18.5}{}}
\@writefile{toc}{\contentsline {section}{\numberline {}Vézelay, demeure d'Ermont de la Treille, veillée du dimanche~25~décembre~1155}{282}{section.0.18.6}\protected@file@percent }
\newlabel{vuxe9zelay-demeure-dermont-de-la-treille-veilluxe9e-du-dimanche-25-duxe9cembre-1155}{{}{282}{Vézelay, demeure d'Ermont de la Treille, veillée du dimanche~25~décembre~1155}{section.0.18.6}{}}
\@writefile{toc}{\contentsline {section}{\numberline {}Route du Vif (Châteauneuf-Val-de-Bargis), après-midi du jeudi~28~juin~1156}{284}{section.0.18.7}\protected@file@percent }
\newlabel{route-du-vif-chuxe2teauneuf-val-de-bargis-apruxe8s-midi-du-jeudi-28-juin-1156}{{}{284}{Route du Vif (Châteauneuf-Val-de-Bargis), après-midi du jeudi~28~juin~1156}{section.0.18.7}{}}
\@writefile{toc}{\contentsline {section}{\numberline {}Notes}{285}{section.0.18.8}\protected@file@percent }
\newlabel{notes-17}{{}{285}{Notes}{section.0.18.8}{}}
\@writefile{toc}{\contentsline {section}{\numberline {}Références}{287}{section.0.18.9}\protected@file@percent }
\newlabel{ruxe9fuxe9rences-17}{{}{287}{Références}{section.0.18.9}{}}
\ttl@finishall
\gdef \@abspage@last{302}
